﻿
DisplayName "Magistea Village"



EVENT   1
 PAGE   1
  250(bytes(0x04,0x08,0x6f,0x3a,0x0c,0x52,0x50,0x47,0x3a,0x3a,0x53,0x45,0x08,0x3a,0x0a,0x40,0x6e,0x61,0x6d,0x65,0x49,0x22,0x09,0x4d,0x6f,0x76,0x65,0x06,0x3a,0x06,0x45,0x54,0x3a,0x0b,0x40,0x70,0x69,0x74,0x63,0x68,0x69,0x69,0x3a,0x0c,0x40,0x76,0x6f,0x6c,0x75,0x6d,0x65,0x69,0x55))
  TeleportPlayer(0,2,47,294,0,0)
  0()



EVENT   2
 PAGE   1
  250(bytes(0x04,0x08,0x6f,0x3a,0x0c,0x52,0x50,0x47,0x3a,0x3a,0x53,0x45,0x08,0x3a,0x0a,0x40,0x6e,0x61,0x6d,0x65,0x49,0x22,0x09,0x4d,0x6f,0x76,0x65,0x06,0x3a,0x06,0x45,0x54,0x3a,0x0b,0x40,0x70,0x69,0x74,0x63,0x68,0x69,0x69,0x3a,0x0c,0x40,0x76,0x6f,0x6c,0x75,0x6d,0x65,0x69,0x55))
  TeleportPlayer(0,2,47,294,0,0)
  0()



EVENT   3
 PAGE   1
  250(bytes(0x04,0x08,0x6f,0x3a,0x0c,0x52,0x50,0x47,0x3a,0x3a,0x53,0x45,0x08,0x3a,0x0a,0x40,0x6e,0x61,0x6d,0x65,0x49,0x22,0x09,0x4d,0x6f,0x76,0x65,0x06,0x3a,0x06,0x45,0x54,0x3a,0x0b,0x40,0x70,0x69,0x74,0x63,0x68,0x69,0x69,0x3a,0x0c,0x40,0x76,0x6f,0x6c,0x75,0x6d,0x65,0x69,0x55))
  TeleportPlayer(0,2,48,294,0,0)
  0()



EVENT   4
 PAGE   1
  250(bytes(0x04,0x08,0x6f,0x3a,0x0c,0x52,0x50,0x47,0x3a,0x3a,0x53,0x45,0x08,0x3a,0x0a,0x40,0x6e,0x61,0x6d,0x65,0x49,0x22,0x09,0x4d,0x6f,0x76,0x65,0x06,0x3a,0x06,0x45,0x54,0x3a,0x0b,0x40,0x70,0x69,0x74,0x63,0x68,0x69,0x69,0x3a,0x0c,0x40,0x76,0x6f,0x6c,0x75,0x6d,0x65,0x69,0x55))
  TeleportPlayer(0,226,12,74,0,0)
  0()



EVENT   5
 PAGE   1
  250(bytes(0x04,0x08,0x6f,0x3a,0x0c,0x52,0x50,0x47,0x3a,0x3a,0x53,0x45,0x08,0x3a,0x0a,0x40,0x6e,0x61,0x6d,0x65,0x49,0x22,0x09,0x4d,0x6f,0x76,0x65,0x06,0x3a,0x06,0x45,0x54,0x3a,0x0b,0x40,0x70,0x69,0x74,0x63,0x68,0x69,0x69,0x3a,0x0c,0x40,0x76,0x6f,0x6c,0x75,0x6d,0x65,0x69,0x55))
  TeleportPlayer(0,226,11,98,0,0)
  0()



EVENT   6
 PAGE   1
  250(bytes(0x04,0x08,0x6f,0x3a,0x0c,0x52,0x50,0x47,0x3a,0x3a,0x53,0x45,0x08,0x3a,0x0a,0x40,0x6e,0x61,0x6d,0x65,0x49,0x22,0x09,0x4d,0x6f,0x76,0x65,0x06,0x3a,0x06,0x45,0x54,0x3a,0x0b,0x40,0x70,0x69,0x74,0x63,0x68,0x69,0x69,0x3a,0x0c,0x40,0x76,0x6f,0x6c,0x75,0x6d,0x65,0x69,0x55))
  TeleportPlayer(0,226,28,98,0,0)
  0()



EVENT   9
 PAGE   1
  250(bytes(0x04,0x08,0x6f,0x3a,0x0c,0x52,0x50,0x47,0x3a,0x3a,0x53,0x45,0x08,0x3a,0x0a,0x40,0x6e,0x61,0x6d,0x65,0x49,0x22,0x09,0x4d,0x6f,0x76,0x65,0x06,0x3a,0x06,0x45,0x54,0x3a,0x0b,0x40,0x70,0x69,0x74,0x63,0x68,0x69,0x69,0x3a,0x0c,0x40,0x76,0x6f,0x6c,0x75,0x6d,0x65,0x69,0x55))
  TeleportPlayer(0,226,13,45,0,0)
  0()



EVENT   10
 PAGE   1
  250(bytes(0x04,0x08,0x6f,0x3a,0x0c,0x52,0x50,0x47,0x3a,0x3a,0x53,0x45,0x08,0x3a,0x0a,0x40,0x6e,0x61,0x6d,0x65,0x49,0x22,0x09,0x4d,0x6f,0x76,0x65,0x06,0x3a,0x06,0x45,0x54,0x3a,0x0b,0x40,0x70,0x69,0x74,0x63,0x68,0x69,0x69,0x3a,0x0c,0x40,0x76,0x6f,0x6c,0x75,0x6d,0x65,0x69,0x55))
  TeleportPlayer(0,226,57,18,0,0)
  0()



EVENT   11
 PAGE   1
  ShowMessageFace("",0,0,2,1)
  ShowMessage("Luka leaves his party members outside and enters the house alone...")
  216(1)
  250(bytes(0x04,0x08,0x6f,0x3a,0x0c,0x52,0x50,0x47,0x3a,0x3a,0x53,0x45,0x08,0x3a,0x0a,0x40,0x6e,0x61,0x6d,0x65,0x49,0x22,0x09,0x4d,0x6f,0x76,0x65,0x06,0x3a,0x06,0x45,0x54,0x3a,0x0b,0x40,0x70,0x69,0x74,0x63,0x68,0x69,0x69,0x3a,0x0c,0x40,0x76,0x6f,0x6c,0x75,0x6d,0x65,0x69,0x55))
  TeleportPlayer(0,226,62,42,0,0)
  0()



EVENT   12
 PAGE   1
  250(bytes(0x04,0x08,0x6f,0x3a,0x0c,0x52,0x50,0x47,0x3a,0x3a,0x53,0x45,0x08,0x3a,0x0a,0x40,0x6e,0x61,0x6d,0x65,0x49,0x22,0x09,0x4d,0x6f,0x76,0x65,0x06,0x3a,0x06,0x45,0x54,0x3a,0x0b,0x40,0x70,0x69,0x74,0x63,0x68,0x69,0x69,0x3a,0x0c,0x40,0x76,0x6f,0x6c,0x75,0x6d,0x65,0x69,0x55))
  TeleportPlayer(0,226,64,65,0,0)
  0()



EVENT   7
 PAGE   1
  If(1,1029,0,0,0)
   ShowMessageFace("",0,0,2,1)
   ShowMessage("This door is firmly closed...")
   EndEventProcessing()
   0()
  EndIf()
  ChangeSwitch(221,221,0)
  ChangeSwitch(100,100,0)
  250(bytes(0x04,0x08,0x6f,0x3a,0x0c,0x52,0x50,0x47,0x3a,0x3a,0x53,0x45,0x08,0x3a,0x0a,0x40,0x6e,0x61,0x6d,0x65,0x49,0x22,0x0a,0x4f,0x70,0x65,0x6e,0x31,0x06,0x3a,0x06,0x45,0x54,0x3a,0x0b,0x40,0x70,0x69,0x74,0x63,0x68,0x69,0x69,0x3a,0x0c,0x40,0x76,0x6f,0x6c,0x75,0x6d,0x65,0x69,0x55))
  205(0,bytes(0x04,0x08,0x6f,0x3a,0x13,0x52,0x50,0x47,0x3a,0x3a,0x4d,0x6f,0x76,0x65,0x52,0x6f,0x75,0x74,0x65,0x09,0x3a,0x0c,0x40,0x72,0x65,0x70,0x65,0x61,0x74,0x46,0x3a,0x0f,0x40,0x73,0x6b,0x69,0x70,0x70,0x61,0x62,0x6c,0x65,0x46,0x3a,0x0a,0x40,0x77,0x61,0x69,0x74,0x54,0x3a,0x0a,0x40,0x6c,0x69,0x73,0x74,0x5b,0x0c,0x6f,0x3a,0x15,0x52,0x50,0x47,0x3a,0x3a,0x4d,0x6f,0x76,0x65,0x43,0x6f,0x6d,0x6d,0x61,0x6e,0x64,0x07,0x3a,0x0a,0x40,0x63,0x6f,0x64,0x65,0x69,0x16,0x3a,0x10,0x40,0x70,0x61,0x72,0x61,0x6d,0x65,0x74,0x65,0x72,0x73,0x5b,0x00,0x6f,0x3b,0x0a,0x07,0x3b,0x0b,0x69,0x14,0x3b,0x0c,0x5b,0x06,0x69,0x08,0x6f,0x3b,0x0a,0x07,0x3b,0x0b,0x69,0x17,0x3b,0x0c,0x5b,0x00,0x6f,0x3b,0x0a,0x07,0x3b,0x0b,0x69,0x14,0x3b,0x0c,0x5b,0x06,0x69,0x08,0x6f,0x3b,0x0a,0x07,0x3b,0x0b,0x69,0x18,0x3b,0x0c,0x5b,0x00,0x6f,0x3b,0x0a,0x07,0x3b,0x0b,0x69,0x2a,0x3b,0x0c,0x5b,0x00,0x6f,0x3b,0x0a,0x07,0x3b,0x0b,0x69,0x00,0x3b,0x0c,0x5b,0x00))
  205(-1,bytes(0x04,0x08,0x6f,0x3a,0x13,0x52,0x50,0x47,0x3a,0x3a,0x4d,0x6f,0x76,0x65,0x52,0x6f,0x75,0x74,0x65,0x09,0x3a,0x0c,0x40,0x72,0x65,0x70,0x65,0x61,0x74,0x46,0x3a,0x0f,0x40,0x73,0x6b,0x69,0x70,0x70,0x61,0x62,0x6c,0x65,0x54,0x3a,0x0a,0x40,0x77,0x61,0x69,0x74,0x54,0x3a,0x0a,0x40,0x6c,0x69,0x73,0x74,0x5b,0x07,0x6f,0x3a,0x15,0x52,0x50,0x47,0x3a,0x3a,0x4d,0x6f,0x76,0x65,0x43,0x6f,0x6d,0x6d,0x61,0x6e,0x64,0x07,0x3a,0x0a,0x40,0x63,0x6f,0x64,0x65,0x69,0x11,0x3a,0x10,0x40,0x70,0x61,0x72,0x61,0x6d,0x65,0x74,0x65,0x72,0x73,0x5b,0x00,0x6f,0x3b,0x0a,0x07,0x3b,0x0b,0x69,0x00,0x3b,0x0c,0x5b,0x00))
  250(bytes(0x04,0x08,0x6f,0x3a,0x0c,0x52,0x50,0x47,0x3a,0x3a,0x53,0x45,0x08,0x3a,0x0a,0x40,0x6e,0x61,0x6d,0x65,0x49,0x22,0x09,0x4d,0x6f,0x76,0x65,0x06,0x3a,0x06,0x45,0x54,0x3a,0x0b,0x40,0x70,0x69,0x74,0x63,0x68,0x69,0x69,0x3a,0x0c,0x40,0x76,0x6f,0x6c,0x75,0x6d,0x65,0x69,0x55))
  281(0)
  TeleportPlayer(0,359,39,38,0,0)
  0()



EVENT   15
 PAGE   1
  If(1,1029,0,0,0)
   TemporaryRemoveEvent()
   0()
  EndIf()
  If(1,1029,0,1,0)
   ChangeVariable(1029,1029,0,0,2)
   ShowMessageFace("sara_fc1",2,0,2,1)
   ShowMessage("\\n<Sara>We finally arrived in Magistea village. For now, let's go to the lord, Lily...")
   205(16,bytes(0x04,0x08,0x6f,0x3a,0x13,0x52,0x50,0x47,0x3a,0x3a,0x4d,0x6f,0x76,0x65,0x52,0x6f,0x75,0x74,0x65,0x09,0x3a,0x0c,0x40,0x72,0x65,0x70,0x65,0x61,0x74,0x46,0x3a,0x0f,0x40,0x73,0x6b,0x69,0x70,0x70,0x61,0x62,0x6c,0x65,0x46,0x3a,0x0a,0x40,0x77,0x61,0x69,0x74,0x54,0x3a,0x0a,0x40,0x6c,0x69,0x73,0x74,0x5b,0x08,0x6f,0x3a,0x15,0x52,0x50,0x47,0x3a,0x3a,0x4d,0x6f,0x76,0x65,0x43,0x6f,0x6d,0x6d,0x61,0x6e,0x64,0x07,0x3a,0x0a,0x40,0x63,0x6f,0x64,0x65,0x69,0x07,0x3a,0x10,0x40,0x70,0x61,0x72,0x61,0x6d,0x65,0x74,0x65,0x72,0x73,0x5b,0x00,0x6f,0x3b,0x0a,0x07,0x3b,0x0b,0x69,0x06,0x3b,0x0c,0x5b,0x00,0x6f,0x3b,0x0a,0x07,0x3b,0x0b,0x69,0x00,0x3b,0x0c,0x5b,0x00))
   ShowMessageFace("",0,0,2,2)
   ShowMessage("\\n<Mage>To think Lady Sara herself would come from Sabasa... However, it appears you from the capital have misunderstood us.")
   ShowMessageFace("sara_fc1",4,0,2,3)
   ShowMessage("\\n<Sara>Misunderstood...?")
   ShowMessageFace("",0,0,2,4)
   ShowMessage("\\n<Mage>That we are old-fashioned and oppress the villagers... and, that we study suspicious magic all over the village.")
   ShowMessageFace("",0,0,2,5)
   ShowMessage("\\n<Mage>That is merely prejudice towards us. People from the capital do see us as closed and old-fashioned people, right?")
   ShowMessageFace("",0,0,2,6)
   ShowMessage("\\n<Mage>It's because we are looked at with prejudice that malicious interpretations are born.... Am I wrong?")
   ShowMessageFace("sara_fc1",2,0,2,7)
   ShowMessage("\\n<Sara>Discussing whether its prejudice or is a pointless debate. Therefore the capital doesn't interfere in beliefs and thoughts of people.")
   ShowMessageFace("sara_fc1",2,0,2,8)
   ShowMessage("\\n<Sara>We deal with you strictly from the viewpoint of law. The problem is, that there is oppression and armed conflict between villagers.")
   ShowMessageFace("",0,0,2,9)
   ShowMessage("\\n<Mage>In that case, you will have to thoroughly investigate. Please walk around the village and see for yourselves.")
   ShowMessageFace("",0,0,2,10)
   ShowMessage("\\n<Mage>And listen to our villagers' voices without any prejudice. If you do, you should understand that lady Lily isn't wrong.")
   ShowMessageFace("sara_fc1",0,0,2,11)
   ShowMessage("\\n<Sara>...In that case, we'll inspect the village. After that we will go visit Lily, is that fine?")
   ShowMessageFace("",0,0,2,12)
   ShowMessage("\\n<Mage>We will give you our full cooperation. Please, make fair judgement...")
   205(16,bytes(0x04,0x08,0x6f,0x3a,0x13,0x52,0x50,0x47,0x3a,0x3a,0x4d,0x6f,0x76,0x65,0x52,0x6f,0x75,0x74,0x65,0x09,0x3a,0x0c,0x40,0x72,0x65,0x70,0x65,0x61,0x74,0x46,0x3a,0x0f,0x40,0x73,0x6b,0x69,0x70,0x70,0x61,0x62,0x6c,0x65,0x46,0x3a,0x0a,0x40,0x77,0x61,0x69,0x74,0x54,0x3a,0x0a,0x40,0x6c,0x69,0x73,0x74,0x5b,0x09,0x6f,0x3a,0x15,0x52,0x50,0x47,0x3a,0x3a,0x4d,0x6f,0x76,0x65,0x43,0x6f,0x6d,0x6d,0x61,0x6e,0x64,0x07,0x3a,0x0a,0x40,0x63,0x6f,0x64,0x65,0x69,0x09,0x3a,0x10,0x40,0x70,0x61,0x72,0x61,0x6d,0x65,0x74,0x65,0x72,0x73,0x5b,0x00,0x6f,0x3b,0x0a,0x07,0x3b,0x0b,0x69,0x08,0x3b,0x0c,0x5b,0x00,0x6f,0x3b,0x0a,0x07,0x3b,0x0b,0x69,0x16,0x3b,0x0c,0x5b,0x00,0x6f,0x3b,0x0a,0x07,0x3b,0x0b,0x69,0x00,0x3b,0x0c,0x5b,0x00))
   If(0,4,0)
    ShowMessageFace("alice_fc5",0,0,2,13)
    ShowMessage("\\n<Alice>Good grief, looks like it'll turn troublesome... It appears that we can't just go in and beat the villain.")
    0()
   EndIf()
   If(0,5,0)
    ShowMessageFace("iriasu_fc4",2,0,2,14)
    ShowMessage("\\n<Ilias>Sounds quite troublesome... Can't we just go in and beat Lily up to resolve everything?")
    0()
   EndIf()
   If(4,129,0)
    ShowMessageFace("brunhild_fc1",0,0,2,15)
    ShowMessage("\\n<Hild>We can't beat them...? Then there's no work for Hild...")
    0()
   EndIf()
   If(4,79,0)
    ShowMessageFace("nuruko_fc1",0,0,2,16)
    ShowMessage("\\n<Nuruko>Kyu...")
    0()
   EndIf()
   ShowMessageFace("sara_fc1",0,0,2,17)
   ShowMessage("\\n<Sara>I don't know if we can completely trust what that Mage said... but the conflict between the old-fashioned lord and the opposition can't be resolved so simply.")
   ShowMessageFace("sara_fc1",0,0,2,18)
   ShowMessage("\\n<Sara>She has stronger backing than I expected... in which case, just eliminating the lord may not resolve the problem.")
   If(0,6,0)
    ShowMessageFace("sonia_fc2",2,0,2,19)
    ShowMessage("\\n<Sonya>Another successor will appear and the problems will resurface... It means we have to do something about the root of the problem.")
    0()
   Else()
    ShowMessageFace("ruka_fc1",0,0,2,20)
    ShowMessage("\\n<Luka>If another successor appears the situation will repeat... It looks like we have to do something about the root of the problem, right.")
    0()
   EndIf()
   If(0,4,0)
    ShowMessageFace("alice_fc5",0,0,2,21)
    ShowMessage("\\n<Alice>These kinds of problems arise from the hearts of the residents. Rather than a specific individual, we need to explore their roots.")
    ShowMessageFace("alice_fc5",3,0,2,22)
    ShowMessage("\\n<Alice>However, since it's problem of their mindset... resolving it will take time. The capital too, has to face it with patience and perseverance.")
    ShowMessageFace("sara_fc1",3,0,2,23)
    ShowMessage("\\n<Sara>That awfully feels like thinking of a ruler... Did you study to become a good emperor or something?")
    ShowMessageFace("alice_fc5",1,0,2,24)
    ShowMessage("\\n<Alice>Of course, I am the Monster Lord. Knowledge was hammered into me by a certain furball.")
    0()
   EndIf()
   If(0,5,0)
    ShowMessageFace("iriasu_fc4",0,0,2,25)
    ShowMessage("\\n<Ilias>If a successor appears, we just have to destroy that successor as well. If we eradicate them along with their roots, the problem will be solved completely.")
    ShowMessageFace("sara_fc1",4,0,2,26)
    ShowMessage("\\n<Sara>Were you to be a king, law enforcement would probably run rampant... Your country would probably reigned with terror.")
    ShowMessageFace("iriasu_fc4",5,0,2,27)
    ShowMessage("\\n<Ilias>Wha...?!")
    0()
   EndIf()
   ShowMessageFace("",0,0,2,28)
   ShowMessage("Anyway, first let's listen to various people. After that, we can go to lord Lily's mansion...")
   EndEventProcessing()
   0()
  EndIf()
  0()
 PAGE   2
  // condition: variable 1029 >= 2
  0()



EVENT   18
 PAGE   1
  ShowMessageFace("",0,0,2,1)
  ShowMessage("\\n<Mage>There is no church in this village... after all, the Goddess didn't save us.")
  ShowMessageFace("",0,0,2,2)
  ShowMessage("\\n<Mage>The one who saved us and leads us is lady Lily... it is her, that is our goddess.")
  355("actor_label_jump")
  EndEventProcessing()
  DefineLabel("121")
  ShowMessageFace("page65537_fc1",2,0,2,3)
  ShowMessage("\\n<Cornelia>Faith in Ilias hasn't acquired a foothold in this village. What those girls needed, was physical salvation...")
  EndEventProcessing()
  DefineLabel("531")
  ShowMessageFace("saniria_fc2",0,0,2,4)
  ShowMessage("\\n<King of San Ilia>How powerless we are... We should have been the ones to help them.")
  EndEventProcessing()
  0()



EVENT   13
 PAGE   1
  ShowMessageFace("",0,0,2,1)
  ShowMessage("\\n<Mage>Until a while ago, witches were oppressed in this village. Or more like, it was persecution of women...")
  ShowMessageFace("",0,0,2,2)
  ShowMessage("\\n<Mage>Men justified violence towards women with tradition and other nonsense... Over long years we have been continuously abused...")
  ShowMessageFace("",0,0,2,3)
  ShowMessage("\\n<Mage>The one who has saved us from such life was the daughter of the lord, lady Lily. She granted everyone the tentacle magic, allowing us to change the current state.")
  355("actor_label_jump")
  EndEventProcessing()
  DefineLabel("72")
  ShowMessageFace("phoenix_fc1",3,0,2,4)
  ShowMessage("\\n<Mini>This is a bad town... it's badder than Don.")
  EndEventProcessing()
  DefineLabel("118")
  ShowMessageFace("meia_fc1",3,0,2,5)
  ShowMessage("\\n<Meia>Then if Lily disappears everything will...")
  EndEventProcessing()
  DefineLabel("529")
  ShowMessageFace("sara_fc1",4,0,2,6)
  ShowMessage("\\n<Sara>......")
  EndEventProcessing()
  0()
 PAGE   2
  // condition: variable 1029 >= 5
  If(0,2097,0)
   ShowMessageFace("",0,0,2,1)
   ShowMessage("\\n<Mage>Lady Lily left for a journey, hasn't she. I know, it's certainly because there are weak people to save outside the village...")
   355("actor_label_jump")
   EndEventProcessing()
   DefineLabel("163")
   ShowMessageFace("lily_fc1",3,0,2,2)
   ShowMessage("\\n<Lily>You all are already strong enough. Even without me in the village, you should do well...")
   EndEventProcessing()
   0()
  EndIf()
  If(0,2096,0)
   ShowMessageFace("",0,0,2,3)
   ShowMessage("\\n<Mage>Why did lady Lily...")
   EndEventProcessing()
   0()
  EndIf()
  0()



EVENT   14
 PAGE   1
  PictureDisplay(5,"80_wormv_st02",0,0,0,0,100,100,0,0)
  PictureMove(5,null,0,0,0,0,100,100,255,0,30,true)
  ShowMessageFace("wormv_fc1",1,0,2,1)
  ShowMessage("\\n<Village Woman>Oh, travelers... There is nothing to note of in the village, but please take your time.")
  If(1,1029,0,2,2)
   If(0,6,0)
    ShowMessageFace("sonia_fc3",7,0,2,2)
    ShowMessage("\\n<Sonya>W-what is that arm...?")
    0()
   Else()
    ShowMessageFace("ruka_fc1",0,0,2,3)
    ShowMessage("\\n<Luka>W-what's with that arm...?")
    0()
   EndIf()
   ShowMessageFace("wormv_fc1",1,0,2,4)
   ShowMessage("\\n<Village Woman>Ufufu... this is proof I was given power by lady Lily. I am very grateful to her...")
   355("actor_label_jump")
   PictureClear(5)
   EndEventProcessing()
   DefineLabel("96")
   ShowMessageFace("delh_b_fc1",0,0,2,5)
   ShowMessage("\\n<Marion>It appears similar to my tentacle summoning. To think humans would use magic that makes tentacles dwell in their bodies...")
   PictureClear(5)
   EndEventProcessing()
   DefineLabel("116")
   ShowMessageFace("iso_fc1",0,0,2,6)
   ShowMessage("\\n<Isabelle>Humans with tentacles sure are unusual...")
   PictureClear(5)
   EndEventProcessing()
   0()
  EndIf()
  PictureClear(5)
  0()
 PAGE   2
  // condition: variable 1029 >= 5
  PictureDisplay(5,"80_wormv_st02",0,0,0,0,100,100,0,0)
  PictureMove(5,null,0,0,0,0,100,100,255,0,30,true)
  If(0,2097,0)
   ShowMessageFace("wormv_fc1",1,0,2,1)
   ShowMessage("\\n<Village Woman>Thanks to you, the opposition has been destroyed. I thank you from the bottom of my heart...")
   PictureClear(5)
   EndEventProcessing()
   0()
  EndIf()
  If(0,2096,0)
   ShowMessageFace("wormv_fc1",2,0,2,2)
   ShowMessage("\\n<Village Woman>The entire village is nursing lady Lily. This village needs that person...")
   355("actor_label_jump")
   PictureClear(5)
   EndEventProcessing()
   DefineLabel("167")
   ShowMessageFace("lusia_fc1",2,0,2,3)
   ShowMessage("\\n<Lucia>I would like for Lily to be this village's hope, just as she has been until now... but from now on, without resorting to tentacle magic.")
   PictureClear(5)
   EndEventProcessing()
   0()
  EndIf()
  0()



EVENT   17
 PAGE   1
  ShowMessageFace("",0,0,2,1)
  ShowMessage("\\n<Old Man>Those men who kept hurting women for all this time... it's better not to say what happened to them.")
  ShowMessageFace("",0,0,2,2)
  ShowMessage("\\n<Old Man>The only remaining men are those who were compassionate to women even during the era of oppression. I don't have much to say about that...")
  ShowMessageFace("",0,0,2,3)
  ShowMessage("\\n<Old Man>For a long time seeds of grudge have been sprouting inside this village's women... They just reaped what the sowed...")
  355("actor_label_jump")
  EndEventProcessing()
  DefineLabel("74")
  ShowMessageFace("usagi_fc1",4,0,2,4)
  ShowMessage("\\n<Barnny>That's a horrible story...")
  EndEventProcessing()
  DefineLabel("75")
  ShowMessageFace("hituzi_fc1",2,0,2,5)
  ShowMessage("\\n<Mary>This is unusual, this story made me sober up...")
  EndEventProcessing()
  DefineLabel("163")
  ShowMessageFace("lily_fc1",3,0,2,6)
  ShowMessage("\\n<Lily>This story is already over... And I won't let it repeat anywhere in the world...")
  EndEventProcessing()
  DefineLabel("167")
  ShowMessageFace("lusia_fc1",2,0,2,7)
  ShowMessage("\\n<Lucia>The inverted order has given birth to tragedy... And what has fulfilled it, was tentacle magic.")
  EndEventProcessing()
  0()



EVENT   19
 PAGE   1
  ShowMessageFace("",0,0,2,1)
  ShowMessage("\\n<Girl>Soon I'll be receiving power from lady Lily!")
  355("actor_label_jump")
  EndEventProcessing()
  DefineLabel("88")
  ShowMessageFace("jack_fc1",0,0,2,2)
  ShowMessage("\\n<Pumpkin>You'll grow tentacles, right? You better think this over well...")
  EndEventProcessing()
  DefineLabel("98")
  ShowMessageFace("minikani_fc1",2,0,2,3)
  ShowMessage("\\n<Amy>You better don't, tentacles are gross...")
  EndEventProcessing()
  0()
 PAGE   2
  // condition: variable 1029 >= 5
  If(0,2097,0)
   ShowMessageFace("",0,0,2,1)
   ShowMessage("\\n<Girl>Looks like lady Lily will be busy for a while. When will I get my power...?")
   EndEventProcessing()
   0()
  EndIf()
  If(0,2096,0)
   ShowMessageFace("",0,0,2,2)
   ShowMessage("\\n<Girl>They say tentacle magic is no good any more... I won't be given my power?")
   355("actor_label_jump")
   EndEventProcessing()
   DefineLabel("141")
   ShowMessageFace("mino_fc1",0,0,2,3)
   ShowMessage("\\n<Mina>Train your body instead of resorting to magic! And eat MEAT!")
   EndEventProcessing()
   0()
  EndIf()
  0()



EVENT   20
 PAGE   1
  ShowMessageFace("",0,0,2,1)
  ShowMessage("\\n<Village Woman>Lady Lily's mansion is northernmost building in the village. If you go straight North following this road, you'll reach it.")
  0()
 PAGE   2
  // condition: variable 1029 >= 6
  If(0,2097,0)
   ShowMessageFace("",0,0,2,1)
   ShowMessage("\\n<Village Woman>Lady Lily's mansion is northernmost building in the village. She has left for a journey and is currently absent...")
   355("actor_label_jump")
   EndEventProcessing()
   DefineLabel("163")
   ShowMessageFace("lily_fc1",3,0,2,2)
   ShowMessage("\\n<Lily>Fufu, I'm right here. I leave the mansion's management to you, there are various things inside, after all...")
   ShowMessageFace("",0,0,2,3)
   ShowMessage("\\n<Village Woman>Leave it to us. We are taking shifts to manage it...")
   EndEventProcessing()
   0()
  EndIf()
  If(0,2096,0)
   ShowMessageFace("",0,0,2,4)
   ShowMessage("\\n<Village Woman>Lady Lily's mansion is northernmost building in the village. However, lady Lily is currently unwell...")
   EndEventProcessing()
   0()
  EndIf()
  0()



EVENT   21
 PAGE   1
  ShowMessageFace("",0,0,2,1)
  ShowMessage("\\n<Mage>There surely are other people out in the world who are oppressed just like we were. Saving them is our duty.")
  ShowMessageFace("",0,0,2,2)
  ShowMessage("\\n<Mage>To grant them power to break free... Lady Lily intends to spread the power of tentacle magic all over the world.")
  355("actor_label_jump")
  EndEventProcessing()
  DefineLabel("62")
  ShowMessageFace("gob_fc1",3,0,2,3)
  ShowMessage("\\n<Gob>Spread it all over the world? I don't want everyone be tentacle-armed...")
  EndEventProcessing()
  DefineLabel("82")
  ShowMessageFace("suzume_fc1",3,0,2,4)
  ShowMessage("\\n<Chirp>I want to become strong too, but tentacle arms are a little...")
  EndEventProcessing()
  DefineLabel("163")
  ShowMessageFace("lily_fc1",3,0,2,5)
  ShowMessage("\\n<Lily>I leave protecting this village to you...")
  ShowMessageFace("",0,0,2,6)
  ShowMessage("\\n<Mage>Yes, we shall await your return.")
  EndEventProcessing()
  0()
 PAGE   2
  // condition: variable 1029 >= 5
  If(0,2097,0)
   ShowMessageFace("",0,0,2,1)
   ShowMessage("\\n<Mage>The time to spread tentacle magic has finally come. Following lady Lily, I also intend depart on a journey.")
   EndEventProcessing()
   0()
  EndIf()
  If(0,2096,0)
   ShowMessageFace("",0,0,2,2)
   ShowMessage("\\n<Mage>Our purpose and desire has been rejected... even though we have to save the oppressed ones...")
   355("actor_label_jump")
   EndEventProcessing()
   DefineLabel("167")
   ShowMessageFace("lusia_fc1",2,0,2,3)
   ShowMessage("\\n<Lucia>I'm sure Lily isn't the only one who wants to cover up her guilt of causing a massacre by saving others...")
   ShowMessageFace("lusia_fc1",2,0,2,4)
   ShowMessage("\\n<Lucia>You need to properly face what you have done. Of course, I'm included in that as well...")
   EndEventProcessing()
   0()
  EndIf()
  0()



EVENT   23
 PAGE   1
  ShowMessageFace("",0,0,2,1)
  ShowMessage("\\n<Mage>Even Mages plow fields sometimes... ...Was that surprising?")
  355("actor_label_jump")
  EndEventProcessing()
  DefineLabel("61")
  ShowMessageFace("mimizu_fc1",0,0,2,2)
  ShowMessage("\\n<Mimi>*dig dig* *digs a hole*...")
  ShowMessageFace("mdg_fc1",0,0,2,3)
  ShowMessage("\\n<Mandragora Girl>Hello, I was called by a witch. I'll give vandals a harsh one...")
  ShowMessageFace("mdg_fc1",2,0,2,4)
  ShowMessage("\\n<Mandragora Girl>AAaAA AAAaAaAA AAAAAAAAAAAA!!!")
  ShowMessageFace("mimizu_fc1",2,0,2,5)
  ShowMessage("\\n<Mimi>NOOO!")
  250(bytes(0x04,0x08,0x6f,0x3a,0x0c,0x52,0x50,0x47,0x3a,0x3a,0x53,0x45,0x08,0x3a,0x0a,0x40,0x6e,0x61,0x6d,0x65,0x49,0x22,0x0e,0x50,0x61,0x72,0x61,0x6c,0x79,0x7a,0x65,0x33,0x06,0x3a,0x06,0x45,0x54,0x3a,0x0b,0x40,0x70,0x69,0x74,0x63,0x68,0x69,0x69,0x3a,0x0c,0x40,0x76,0x6f,0x6c,0x75,0x6d,0x65,0x69,0x55))
  ShowMessageFace("",0,0,2,6)
  ShowMessage("Mimi was paralyzed!")
  EndEventProcessing()
  DefineLabel("119")
  ShowMessageFace("page17_fc1",0,0,2,7)
  ShowMessage("\\n<Annie>Even witches can't live on air...")
  EndEventProcessing()
  0()



EVENT   24
 PAGE   1
  ShowMessageFace("",0,0,2,1)
  ShowMessage("\\n<Guard>In this village we are carrying out our duties sorely in accordance to law. Therefore no one was charged with crime of abuse.")
  ShowMessageFace("",0,0,2,2)
  ShowMessage("\\n<Guard>But I feel like law has its limits. The current law didn't save those women... nor the men themselves.")
  355("actor_label_jump")
  EndEventProcessing()
  DefineLabel("529")
  ShowMessageFace("sara_fc1",4,0,2,3)
  ShowMessage("\\n<Sara>There is no perfect law in this world. Still, we have to comply to the law...")
  EndEventProcessing()
  DefineLabel("531")
  ShowMessageFace("saniria_fc2",0,0,2,4)
  ShowMessage("\\n<King of San Ilia>People don't exist for the sake of law, it is law that exists for the sake of people... That is why law is precious.")
  EndEventProcessing()
  0()



EVENT   25
 PAGE   1
  ShowMessageFace("",0,0,2,1)
  ShowMessage("\\n<Village Woman>I love farm work. I want to live calmly like this for my entire life...")
  355("actor_label_jump")
  EndEventProcessing()
  DefineLabel("80")
  ShowMessageFace("orc_fc1",0,0,2,2)
  ShowMessage("\\n<Hip>A drove of pigs is coming to this peaceful village! ...It doesn't feel like one would, does it.")
  EndEventProcessing()
  DefineLabel("140")
  ShowMessageFace("taran_fc1",0,0,2,3)
  ShowMessage("\\n<Rachura>It would be nice if you could live calmly...")
  EndEventProcessing()
  0()



EVENT   26
 PAGE   1
  ShowMessageFace("",0,0,2,1)
  ShowMessage("\\n<Youth>Ever since Lily's uprising this village has been dominated by witches. Of course if you consider what happened to men, it's not like everything is all right.")
  ShowMessageFace("",0,0,2,2)
  ShowMessage("\\n<Youth>But... we couldn't do anything else... the abuse women of this village suffered was abnormal.")
  ShowMessageFace("",0,0,2,3)
  ShowMessage("\\n<Youth>People who came from the city probably won't understand. Just what people of this land have been doing...")
  355("actor_label_jump")
  EndEventProcessing()
  DefineLabel("125")
  ShowMessageFace("grizzly_fc1",2,0,2,4)
  ShowMessage("\\n<Aisha>I'm starting to get angry. Can I go on a rampage in here?")
  EndEventProcessing()
  DefineLabel("145")
  ShowMessageFace("mukade_fc1",2,0,2,5)
  ShowMessage("\\n<Vanessa>How horrible, even more so than my body...")
  EndEventProcessing()
  0()



EVENT   27
 PAGE   1
  ShowMessageFace("",0,0,2,1)
  ShowMessage("\\n<Cow>Moo!")
  355("actor_label_jump")
  EndEventProcessing()
  DefineLabel("92")
  ShowMessageFace("eater_fc1",3,0,2,2)
  ShowMessage("\\n<Eater>Looks tasty...")
  EndEventProcessing()
  DefineLabel("139")
  ShowMessageFace("fairys_fc1",3,0,2,3)
  ShowMessage("\\n<Fairies>Yaay, a coow♪.")
  EndEventProcessing()
  DefineLabel("156")
  ShowMessageFace("d_fighter_fc1",3,0,2,4)
  ShowMessage("\\n<Regina>How lewd, drolling like that...")
  EndEventProcessing()
  0()



EVENT   28
 PAGE   1
  ShowMessageFace("",0,0,2,1)
  ShowMessage("\\n<Cow>Moo!")
  355("actor_label_jump")
  EndEventProcessing()
  DefineLabel("92")
  ShowMessageFace("eater_fc1",3,0,2,2)
  ShowMessage("\\n<Eater>Looks tasty...")
  EndEventProcessing()
  DefineLabel("139")
  ShowMessageFace("fairys_fc1",3,0,2,3)
  ShowMessage("\\n<Fairies>Yaay, a coow♪.")
  EndEventProcessing()
  DefineLabel("156")
  ShowMessageFace("d_fighter_fc1",3,0,2,4)
  ShowMessage("\\n<Regina>How lewd, drolling like that...")
  EndEventProcessing()
  0()



EVENT   29
 PAGE   1
  ShowMessageFace("",0,0,2,1)
  ShowMessage("\\n<Cow>Moo!")
  355("actor_label_jump")
  EndEventProcessing()
  DefineLabel("92")
  ShowMessageFace("eater_fc1",3,0,2,2)
  ShowMessage("\\n<Eater>Looks tasty...")
  EndEventProcessing()
  DefineLabel("139")
  ShowMessageFace("fairys_fc1",3,0,2,3)
  ShowMessage("\\n<Fairies>Yaay, a coow♪.")
  EndEventProcessing()
  DefineLabel("156")
  ShowMessageFace("d_fighter_fc1",3,0,2,4)
  ShowMessage("\\n<Regina>How lewd, drolling like that...")
  EndEventProcessing()
  0()



EVENT   30
 PAGE   1
  ShowMessageFace("",0,0,2,1)
  ShowMessage("\\n<Old Man>There was not a single, really strong person in this village. That was all...")
  355("actor_label_jump")
  EndEventProcessing()
  DefineLabel("12")
  ShowMessageFace("sylph_fc1",1,0,2,2)
  ShowMessage("\\n<Sylph>I wonder what 'strength' really is...")
  EndEventProcessing()
  DefineLabel("141")
  ShowMessageFace("mino_fc1",0,0,2,3)
  ShowMessage("\\n<Mina>Strength is muscles, like mine!!")
  ShowMessageFace("mino_fc1",2,0,2,4)
  ShowMessage("\\n<Mina>...Is what I thought, but I'm not sure any more. I got hungry because of thinking too much, I should eat some beef.")
  EndEventProcessing()
  0()



EVENT   31
 PAGE   1
  ShowMessageFace("",0,0,2,1)
  ShowMessage("\\n<Mage>Those girls from opposition are also mostly Mages. They're saying something about releasing the village from Lily's domination...")
  ShowMessageFace("",0,0,2,2)
  ShowMessage("\\n<Mage>Hmph, there should be limits to misunderstandings. We are just following lady Lily with everything we have, as thanks for breaking the tradition.")
  355("actor_label_jump")
  EndEventProcessing()
  DefineLabel("62")
  ShowMessageFace("gob_fc1",0,0,2,3)
  ShowMessage("\\n<Gob>Looks like there are lots of people admiring Lily. I guess she isn't a bad person...?")
  EndEventProcessing()
  DefineLabel("156")
  ShowMessageFace("d_fighter_fc1",0,0,2,4)
  ShowMessage("\\n<Regina>That Lily person is evaluated quite highly. I guess she's different from a mere villain?")
  EndEventProcessing()
  0()
 PAGE   2
  // condition: variable 1029 >= 5
  If(0,2097,0)
   ShowMessageFace("",0,0,2,1)
   ShowMessage("\\n<Mage>The opposition has also calmed down. Finally peace has come to this village...")
   EndEventProcessing()
   0()
  EndIf()
  If(0,2096,0)
   ShowMessageFace("",0,0,2,2)
   ShowMessage("\\n<Mage>What have they done to lady Lily... I won't forgive them...")
   355("actor_label_jump")
   EndEventProcessing()
   DefineLabel("149")
   ShowMessageFace("lamp_fc1",0,0,2,3)
   ShowMessage("\\n<Jeannie>Her wishes were disturbing the world... ...There was no choice but defeat her.")
   EndEventProcessing()
   DefineLabel("164")
   ShowMessageFace("kooni_fc1",2,0,2,4)
   ShowMessage("\\n<Shizuku>It couldn't be helped...")
   EndEventProcessing()
   0()
  EndIf()
  0()



EVENT   32
 PAGE   1
  ShowMessageFace("",0,0,2,1)
  ShowMessage("\\n<Young Girl>In this village there still are people who haven't received power. We aren't forcing anyone.")
  ShowMessageFace("",0,0,2,2)
  ShowMessage("\\n<Young Girl>Fortunately I was blessed with good parents so I did not need power. But power was necessary to many women in this village.")
  ShowMessageFace("",0,0,2,3)
  ShowMessage("\\n<Young Girl>My parents have moved to Saloon but... I intend to stay in this village for a while.")
  355("actor_label_jump")
  EndEventProcessing()
  DefineLabel("142")
  ShowMessageFace("bander_fc1",0,0,2,4)
  ShowMessage("\\n<Banachi>I wonder 'power' really is... To those people power is merely fighting strength...")
  EndEventProcessing()
  DefineLabel("529")
  ShowMessageFace("sara_fc1",4,0,2,5)
  ShowMessage("\\n<Sara>I know, I know what those girls needed the most... and I know that the capital did not give it to them...")
  EndEventProcessing()
  0()



EVENT   33
 PAGE   1
  ShowMessageFace("",0,0,2,1)
  ShowMessage("\\n<Village Woman>People from the opposition have finally attacked the village. The attacks paused for now and they returned to the tower in the south...")
  ShowMessageFace("",0,0,2,2)
  ShowMessage("\\n<Village Woman>I don't want them to devastate the village any more than this. I will fight to protect myself.")
  0()
 PAGE   2
  // condition: variable 1029 >= 5
  If(0,2097,0)
   ShowMessageFace("",0,0,2,1)
   ShowMessage("\\n<Village Woman>Remnants of the opposition are still remaining in the tower to the South... but they probably don't have enough strength to attack this village.")
   ShowMessageFace("",0,0,2,2)
   ShowMessage("\\n<Village Woman>I can't thank you enough.")
   EndEventProcessing()
   0()
  EndIf()
  If(0,2096,0)
   ShowMessageFace("",0,0,2,3)
   ShowMessage("\\n<Village Woman>This can't be, lady Lily lost her strength... What do we do now...?")
   355("actor_label_jump")
   EndEventProcessing()
   DefineLabel("529")
   ShowMessageFace("sara_fc1",4,0,2,4)
   ShowMessage("\\n<Sara>Commotion is spreading... but I'm sure they'll overcome this.")
   EndEventProcessing()
   0()
  EndIf()
  0()



EVENT   34
 PAGE   1
  If(1,1029,0,2,2)
   ShowMessageFace("",0,0,2,1)
   ShowMessage("This door is locked...")
   EndEventProcessing()
   0()
  EndIf()
  If(1,1029,0,3,1)
   250(bytes(0x04,0x08,0x6f,0x3a,0x0c,0x52,0x50,0x47,0x3a,0x3a,0x53,0x45,0x08,0x3a,0x0a,0x40,0x6e,0x61,0x6d,0x65,0x49,0x22,0x0a,0x4f,0x70,0x65,0x6e,0x31,0x06,0x3a,0x06,0x45,0x54,0x3a,0x0b,0x40,0x70,0x69,0x74,0x63,0x68,0x69,0x69,0x3a,0x0c,0x40,0x76,0x6f,0x6c,0x75,0x6d,0x65,0x69,0x55))
   205(0,bytes(0x04,0x08,0x6f,0x3a,0x13,0x52,0x50,0x47,0x3a,0x3a,0x4d,0x6f,0x76,0x65,0x52,0x6f,0x75,0x74,0x65,0x09,0x3a,0x0c,0x40,0x72,0x65,0x70,0x65,0x61,0x74,0x46,0x3a,0x0f,0x40,0x73,0x6b,0x69,0x70,0x70,0x61,0x62,0x6c,0x65,0x46,0x3a,0x0a,0x40,0x77,0x61,0x69,0x74,0x54,0x3a,0x0a,0x40,0x6c,0x69,0x73,0x74,0x5b,0x0c,0x6f,0x3a,0x15,0x52,0x50,0x47,0x3a,0x3a,0x4d,0x6f,0x76,0x65,0x43,0x6f,0x6d,0x6d,0x61,0x6e,0x64,0x07,0x3a,0x0a,0x40,0x63,0x6f,0x64,0x65,0x69,0x16,0x3a,0x10,0x40,0x70,0x61,0x72,0x61,0x6d,0x65,0x74,0x65,0x72,0x73,0x5b,0x00,0x6f,0x3b,0x0a,0x07,0x3b,0x0b,0x69,0x14,0x3b,0x0c,0x5b,0x06,0x69,0x08,0x6f,0x3b,0x0a,0x07,0x3b,0x0b,0x69,0x17,0x3b,0x0c,0x5b,0x00,0x6f,0x3b,0x0a,0x07,0x3b,0x0b,0x69,0x14,0x3b,0x0c,0x5b,0x06,0x69,0x08,0x6f,0x3b,0x0a,0x07,0x3b,0x0b,0x69,0x18,0x3b,0x0c,0x5b,0x00,0x6f,0x3b,0x0a,0x07,0x3b,0x0b,0x69,0x2a,0x3b,0x0c,0x5b,0x00,0x6f,0x3b,0x0a,0x07,0x3b,0x0b,0x69,0x00,0x3b,0x0c,0x5b,0x00))
   205(-1,bytes(0x04,0x08,0x6f,0x3a,0x13,0x52,0x50,0x47,0x3a,0x3a,0x4d,0x6f,0x76,0x65,0x52,0x6f,0x75,0x74,0x65,0x09,0x3a,0x0c,0x40,0x72,0x65,0x70,0x65,0x61,0x74,0x46,0x3a,0x0f,0x40,0x73,0x6b,0x69,0x70,0x70,0x61,0x62,0x6c,0x65,0x54,0x3a,0x0a,0x40,0x77,0x61,0x69,0x74,0x54,0x3a,0x0a,0x40,0x6c,0x69,0x73,0x74,0x5b,0x07,0x6f,0x3a,0x15,0x52,0x50,0x47,0x3a,0x3a,0x4d,0x6f,0x76,0x65,0x43,0x6f,0x6d,0x6d,0x61,0x6e,0x64,0x07,0x3a,0x0a,0x40,0x63,0x6f,0x64,0x65,0x69,0x11,0x3a,0x10,0x40,0x70,0x61,0x72,0x61,0x6d,0x65,0x74,0x65,0x72,0x73,0x5b,0x00,0x6f,0x3b,0x0a,0x07,0x3b,0x0b,0x69,0x00,0x3b,0x0c,0x5b,0x00))
   250(bytes(0x04,0x08,0x6f,0x3a,0x0c,0x52,0x50,0x47,0x3a,0x3a,0x53,0x45,0x08,0x3a,0x0a,0x40,0x6e,0x61,0x6d,0x65,0x49,0x22,0x09,0x4d,0x6f,0x76,0x65,0x06,0x3a,0x06,0x45,0x54,0x3a,0x0b,0x40,0x70,0x69,0x74,0x63,0x68,0x69,0x69,0x3a,0x0c,0x40,0x76,0x6f,0x6c,0x75,0x6d,0x65,0x69,0x55))
   TeleportPlayer(0,226,59,88,0,0)
   0()
  EndIf()
  0()



EVENT   8
 PAGE   1
  ShowMessageFace("",0,0,2,1)
  ShowMessage("\\n<Mage>The opposition's assault was intensive... but we are mages as well, we are beyond normal humans.")
  ShowMessageFace("",0,0,2,2)
  ShowMessage("\\n<Mage>I'm glad there wasn't much damage... this time it's our turn to attack their headquarters!")
  355("actor_label_jump")
  EndEventProcessing()
  DefineLabel("529")
  ShowMessageFace("sara_fc1",4,0,2,3)
  ShowMessage("\\n<Sara>We have to do something before they clash with full force...")
  EndEventProcessing()
  0()
 PAGE   2
  // condition: variable 1029 >= 5
  If(0,2097,0)
   ShowMessageFace("",0,0,2,1)
   ShowMessage("\\n<Mage>It appears Lucia, the opposition's leader, was defeated. ")
   ShowMessageFace("",0,0,2,2)
   ShowMessage("\\n<Mage>She used to be lady Lily's closest friend and yet... I wonder how did this happen.")
   355("actor_label_jump")
   EndEventProcessing()
   DefineLabel("163")
   ShowMessageFace("lily_fc1",5,0,2,3)
   ShowMessage("\\n<Lily>Lucia has determined that our power is the cause of the massacre. She was unable to bear the guilt after killing those men...")
   ShowMessageFace("lily_fc1",5,0,2,4)
   ShowMessage("\\n<Lily>All because she was a very kind girl...")
   EndEventProcessing()
   0()
  EndIf()
  If(0,2096,0)
   ShowMessageFace("",0,0,2,5)
   ShowMessage("\\n<Mage>I'm going to join resistance this time. I'll hide in the basement and continue to fight against Lucia and others...!")
   EndEventProcessing()
   0()
  EndIf()
  0()



EVENT   35
 PAGE   1
  ShowMessageFace("",0,0,2,1)
  ShowMessage("\\n<Boy>Lady Lily is a very good person! She praised me when I gave her a flower!")
  ShowMessageFace("",0,0,2,2)
  ShowMessage("\\n<Boy>She told me not to become a bad adult who would bully weak...! That's why I'll become an adult who protects weak!")
  355("actor_label_jump")
  EndEventProcessing()
  DefineLabel("118")
  ShowMessageFace("meia_fc1",2,0,2,3)
  ShowMessage("\\n<Meia>My, what a splendid boy you are.")
  EndEventProcessing()
  0()
 PAGE   2
  // condition: variable 1029 >= 5
  If(4,163,0)
   ShowMessageFace("",0,0,2,1)
   ShowMessage("\\n<Boy>Oh, lady Lily! I'll become strong to protect everyone!")
   ShowMessageFace("lily_fc1",3,0,2,2)
   ShowMessage("\\n<Lily>Become a righteous person who's not afraid to go against evil. Don't become like men from this village were...")
   EndEventProcessing()
   0()
  EndIf()
  If(0,2096,0)
   ShowMessageFace("",0,0,2,3)
   ShowMessage("\\n<Boy>I'm picking flowers for lady Lily. I go to visit her every three days.")
   EndEventProcessing()
   0()
  EndIf()
  If(0,2097,0)
   ShowMessageFace("",0,0,2,4)
   ShowMessage("\\n<Boy>Lady Lily is a very good person! She praised me when I gave her a flower!")
   ShowMessageFace("",0,0,2,5)
   ShowMessage("\\n<Boy>She told me not to become a bad adult who would bully weak...! That's why I'll become an adult who protects weak!")
   EndEventProcessing()
   0()
  EndIf()
  0()



EVENT   36
 PAGE   1
  ShowMessageFace("",0,0,2,1)
  ShowMessage("\\n<Mage>This is lady Lily's mansion. Of course, you're free to enter. ")
  ShowMessageFace("",0,0,2,2)
  ShowMessage("\\n<Mage>The ones lady Lily detest are those who act violent towards the weak. As long as you aren't guilty, she will treat you kindly.")
  355("actor_label_jump")
  EndEventProcessing()
  DefineLabel("41")
  ShowMessageFace("stein_fc2",0,0,2,3)
  ShowMessage("\\n<Promestein>The entire village is blindly accepting everything. I think it's likely because of the recent change in their feudal order.")
  EndEventProcessing()
  DefineLabel("136")
  ShowMessageFace("elf_fc1",0,0,2,4)
  ShowMessage("\\n<Claudia>There's no way I would be guilty of anything!")
  EndEventProcessing()
  0()
 PAGE   2
  // condition: variable 1029 >= 5
  If(0,2097,0)
   ShowMessageFace("",0,0,2,1)
   ShowMessage("\\n<Mage>This is lady Lily's mansion. Of course, you're free to enter. ")
   355("actor_label_jump")
   EndEventProcessing()
   DefineLabel("163")
   ShowMessageFace("lily_fc1",3,0,2,2)
   ShowMessage("\\n<Lily>Seems like you're properly protecting the mansion. Please take care of it from now on as well...")
   ShowMessageFace("",0,0,2,3)
   ShowMessage("\\n<Mage>Please leave it to me, lady Lily.")
   EndEventProcessing()
   0()
  EndIf()
  If(0,2096,0)
   ShowMessageFace("",0,0,2,4)
   ShowMessage("\\n<Mage>This is lady Lily's mansion. The place she is receiving treatment is not here though...")
   EndEventProcessing()
   0()
  EndIf()
  0()



EVENT   37
 PAGE   1
  ShowMessageFace("",0,0,2,1)
  ShowMessage("\\n<Village Woman>Aside from mages, rebels apparently took in monsters among their comrades. Apparently out in the world there are mercenary monsters...")
  ShowMessageFace("",0,0,2,2)
  ShowMessage("\\n<Village Woman>We can't allow such bunch to disturb the peace we have built with much trouble. We should thoroughly crush the terrorists!")
  355("actor_label_jump")
  EndEventProcessing()
  DefineLabel("80")
  ShowMessageFace("orc_fc1",0,0,2,3)
  ShowMessage("\\n<Hip>Mercenaries? So there are monsters like that too. Well, human money IS valuable after all...")
  EndEventProcessing()
  DefineLabel("156")
  ShowMessageFace("d_fighter_fc1",3,0,2,4)
  ShowMessage("\\n<Regina>Mercenaries... Monsters who move for monies must be devoid of aspirations.")
  EndEventProcessing()
  0()
 PAGE   2
  // condition: variable 1029 >= 5
  If(0,2097,0)
   ShowMessageFace("",0,0,2,1)
   ShowMessage("\\n<Village Woman>Thanks to your strength we were able to fight off the rebels. Thank you very much for bringing peace to this village.")
   EndEventProcessing()
   0()
  EndIf()
  If(0,2096,0)
   ShowMessageFace("",0,0,2,2)
   ShowMessage("\\n<Village Woman>To think lady Lily would be defeated by mere rebels... I'm hearing that some adventurers have helped them.")
   ShowMessageFace("",0,0,2,3)
   ShowMessage("\\n<Village Woman>Can it be you people...? Leave this village at once!")
   355("actor_label_jump")
   EndEventProcessing()
   DefineLabel("53")
   ShowMessageFace("slime_fc1",2,0,2,4)
   ShowMessage("\\n<Lime>We did our best to do a good thing though...")
   EndEventProcessing()
   DefineLabel("82")
   ShowMessageFace("suzume_fc1",3,0,2,5)
   ShowMessage("\\n<Chirp>This is all right, isn't it...?")
   EndEventProcessing()
   0()
  EndIf()
  0()



EVENT   38
 PAGE   1
  // condition: variable 1029 >= 3
  ChangeSelfSwitch("A",0)
  ChangeSwitch(100,100,1)
  If(4,62,0)
   ShowMessageFace("gob_fc1",3,0,2,1)
   ShowMessage("\\n<Gob>Is that Onee-chan a bad guy...?")
   0()
  EndIf()
  If(0,4,0)
   ShowMessageFace("alice_fc5",0,0,2,2)
   ShowMessage("\\n<Alice>Lily eh, doesn't appear to be merely a tyrant... But in this case, it would be simpler if she was one.")
   ShowMessageFace("alice_fc5",0,0,2,3)
   ShowMessage("\\n<Alice>She listens to voices of the oppressed, huh... that voice might be Lily's own voice.")
   0()
  EndIf()
  If(0,5,0)
   ShowMessageFace("iriasu_fc4",2,0,2,4)
   ShowMessage("\\n<Ilias>Lily is no mere tyrant. And thus, the situation complicates.")
   ShowMessageFace("iriasu_fc4",2,0,2,5)
   ShowMessage("\\n<Ilias>She listens to voices of the oppressed, does she... it might be also her own voice.")
   0()
  EndIf()
  If(0,1529,0)
   ShowMessageFace("sara_fc1",4,0,2,6)
   ShowMessage("\\n<Sara>Maybe the one Lily should really be saving... are not the weak all over the world, but herself.")
   0()
  EndIf()
  If(4,79,0)
   ShowMessageFace("nuruko_fc1",2,0,2,7)
   ShowMessage("\\n<Nuruko>Kyu...")
   0()
  EndIf()
  ShowMessageFace("",0,0,2,8)
  ShowMessage("While we were talking, a presence of magic has approached us...")
  250(bytes(0x04,0x08,0x6f,0x3a,0x0c,0x52,0x50,0x47,0x3a,0x3a,0x53,0x45,0x08,0x3a,0x0a,0x40,0x6e,0x61,0x6d,0x65,0x49,0x22,0x0d,0x6d,0x6f,0x6e,0x5f,0x77,0x61,0x72,0x70,0x06,0x3a,0x06,0x45,0x54,0x3a,0x0b,0x40,0x70,0x69,0x74,0x63,0x68,0x69,0x69,0x3a,0x0c,0x40,0x76,0x6f,0x6c,0x75,0x6d,0x65,0x69,0x69))
  ChangeSwitch(31,31,0)
  205(-1,bytes(0x04,0x08,0x6f,0x3a,0x13,0x52,0x50,0x47,0x3a,0x3a,0x4d,0x6f,0x76,0x65,0x52,0x6f,0x75,0x74,0x65,0x09,0x3a,0x0c,0x40,0x72,0x65,0x70,0x65,0x61,0x74,0x46,0x3a,0x0f,0x40,0x73,0x6b,0x69,0x70,0x70,0x61,0x62,0x6c,0x65,0x46,0x3a,0x0a,0x40,0x77,0x61,0x69,0x74,0x54,0x3a,0x0a,0x40,0x6c,0x69,0x73,0x74,0x5b,0x07,0x6f,0x3a,0x15,0x52,0x50,0x47,0x3a,0x3a,0x4d,0x6f,0x76,0x65,0x43,0x6f,0x6d,0x6d,0x61,0x6e,0x64,0x07,0x3a,0x0a,0x40,0x63,0x6f,0x64,0x65,0x69,0x17,0x3a,0x10,0x40,0x70,0x61,0x72,0x61,0x6d,0x65,0x74,0x65,0x72,0x73,0x5b,0x00,0x6f,0x3b,0x0a,0x07,0x3b,0x0b,0x69,0x00,0x3b,0x0c,0x5b,0x00))
  ShowMessageFace("",0,0,2,9)
  ShowMessage("\\n<Mage>...Hello, excuse me for suddenness. I serve lady Lucia.")
  ShowMessageFace("",0,0,2,10)
  ShowMessage("\\n<Mage>Please come to our base in this village. It's up the stairs East of the inn, in the Eastern building.")
  ShowMessageFace("",0,0,2,11)
  ShowMessage("\\n<Mage>Excuse me now...")
  250(bytes(0x04,0x08,0x6f,0x3a,0x0c,0x52,0x50,0x47,0x3a,0x3a,0x53,0x45,0x08,0x3a,0x0a,0x40,0x6e,0x61,0x6d,0x65,0x49,0x22,0x0d,0x6d,0x6f,0x6e,0x5f,0x77,0x61,0x72,0x70,0x06,0x3a,0x06,0x45,0x54,0x3a,0x0b,0x40,0x70,0x69,0x74,0x63,0x68,0x69,0x69,0x3a,0x0c,0x40,0x76,0x6f,0x6c,0x75,0x6d,0x65,0x69,0x69))
  ChangeSwitch(31,31,1)
  ShowMessageFace("",0,0,2,12)
  ShowMessage("\\n<Luka>Lucia was rebels leader, right...")
  If(0,4,0)
   ShowMessageFace("alice_fc5",0,0,2,13)
   ShowMessage("\\n<Alice>So rebels have come into contact with us too... I figured that the other side will try win us over as well.")
   ShowMessageFace("alice_fc5",0,0,2,14)
   ShowMessage("\\n<Alice>For now let's go to the hill East of the inn. We can decide what is right after we listen to them.")
   0()
  EndIf()
  If(0,5,0)
   ShowMessageFace("iriasu_fc4",2,0,2,15)
   ShowMessage("\\n<Ilias>The rebel side has also come into contact with us... I could tell the other side will also try to persuade us.")
   ShowMessageFace("iriasu_fc4",2,0,2,16)
   ShowMessage("\\n<Ilias>For the time being let's go to the hill East of the inn. We can decide after listening to them.")
   0()
  EndIf()
  If(4,62,0)
   ShowMessageFace("gob_fc1",0,0,2,17)
   ShowMessage("\\n<Gob>When you're pacifying people who quarrel... you need to listen properly to both stories of both sides before deciding one-sidedly!")
   ShowMessageFace("gob_fc1",0,0,2,18)
   ShowMessage("\\n<Gob>...Is what my granny said.")
   0()
  EndIf()
  If(4,129,0)
   ShowMessageFace("brunhild_fc1",0,0,2,19)
   ShowMessage("\\n<Hild>Once you decide who to beat, tell me... Until then, Hild will drink be drink tea...")
   0()
  EndIf()
  0()
 PAGE   2
  // condition: self-switch A is ON
  0()



EVENT   39
 PAGE   1
  // condition: switch 31 is ON
  0()



EVENT   40
 PAGE   1
  250(bytes(0x04,0x08,0x6f,0x3a,0x0c,0x52,0x50,0x47,0x3a,0x3a,0x53,0x45,0x08,0x3a,0x0a,0x40,0x6e,0x61,0x6d,0x65,0x49,0x22,0x0a,0x49,0x74,0x65,0x6d,0x31,0x06,0x3a,0x06,0x45,0x54,0x3a,0x0b,0x40,0x70,0x69,0x74,0x63,0x68,0x69,0x69,0x3a,0x0c,0x40,0x76,0x6f,0x6c,0x75,0x6d,0x65,0x69,0x55))
  ChangeSelfSwitch("A",0)
  ChangeInventory_Item(307,0,0,1)
  0()
 PAGE   2
  // condition: self-switch A is ON
  0()



EVENT   41
 PAGE   1
  250(bytes(0x04,0x08,0x6f,0x3a,0x0c,0x52,0x50,0x47,0x3a,0x3a,0x53,0x45,0x08,0x3a,0x0a,0x40,0x6e,0x61,0x6d,0x65,0x49,0x22,0x0a,0x49,0x74,0x65,0x6d,0x31,0x06,0x3a,0x06,0x45,0x54,0x3a,0x0b,0x40,0x70,0x69,0x74,0x63,0x68,0x69,0x69,0x3a,0x0c,0x40,0x76,0x6f,0x6c,0x75,0x6d,0x65,0x69,0x55))
  ChangeSelfSwitch("A",0)
  ChangeInventory_Item(440,0,0,1)
  0()
 PAGE   2
  // condition: self-switch A is ON
  0()



EVENT   42
 PAGE   1
  250(bytes(0x04,0x08,0x6f,0x3a,0x0c,0x52,0x50,0x47,0x3a,0x3a,0x53,0x45,0x08,0x3a,0x0a,0x40,0x6e,0x61,0x6d,0x65,0x49,0x22,0x0a,0x49,0x74,0x65,0x6d,0x31,0x06,0x3a,0x06,0x45,0x54,0x3a,0x0b,0x40,0x70,0x69,0x74,0x63,0x68,0x69,0x69,0x3a,0x0c,0x40,0x76,0x6f,0x6c,0x75,0x6d,0x65,0x69,0x55))
  ChangeSelfSwitch("A",0)
  ChangeInventory_Item(4,0,0,1)
  0()
 PAGE   2
  // condition: self-switch A is ON
  0()



EVENT   43
 PAGE   1
  // condition: switch 1080 is ON
  ShowMessageFace("orc_fc1",0,0,2,1)
  ShowMessage("\\n<Hip>Oinkk! It's an orc raid! ...I'm not reckless enough to say such a thing.")
  0()
 PAGE   2
  // condition: party contains actor #80
  0()



EVENT   44
 PAGE   1
  // condition: switch 1540 is ON
  241(bytes(0x04,0x08,0x6f,0x3a,0x0d,0x52,0x50,0x47,0x3a,0x3a,0x42,0x47,0x4d,0x08,0x3a,0x0a,0x40,0x6e,0x61,0x6d,0x65,0x49,0x22,0x0a,0x61,0x6d,0x69,0x72,0x61,0x06,0x3a,0x06,0x45,0x54,0x3a,0x0c,0x40,0x76,0x6f,0x6c,0x75,0x6d,0x65,0x69,0x69,0x3a,0x0b,0x40,0x70,0x69,0x74,0x63,0x68,0x69,0x69))
  If(2,"A",1)
   ChangeSelfSwitch("A",0)
   RunCommonEvent(322)
   0()
  Else()
   ShowMessageFace("amira_fc1",0,0,2,1)
   ShowMessage("\\n<Amira>You've found me here. Keep searching for me...")
   0()
  EndIf()
  241(bytes(0x04,0x08,0x6f,0x3a,0x0d,0x52,0x50,0x47,0x3a,0x3a,0x42,0x47,0x4d,0x08,0x3a,0x0a,0x40,0x6e,0x61,0x6d,0x65,0x49,0x22,0x0a,0x6d,0x75,0x72,0x61,0x33,0x06,0x3a,0x06,0x45,0x54,0x3a,0x0c,0x40,0x76,0x6f,0x6c,0x75,0x6d,0x65,0x69,0x69,0x3a,0x0b,0x40,0x70,0x69,0x74,0x63,0x68,0x69,0x69))
  EndEventProcessing()
  0()
 PAGE   2
  // condition: party contains actor #540
  0()



EVENT   16
 PAGE   1
  ShowMessageFace("",0,0,2,1)
  ShowMessage("\\n<Mage>I'm serving as the village guide right now. So...where do you need to go?")
  355("unlimited_choices(11, [\"Inn\",")
  655("\"Item Shop\",\"Lily's Mansion\",")
  655("\"Nowhere\"])")
  If(1,11,0,0,0)
   TeleportPlayer(0,224,41,53,2,0)
   EndEventProcessing()
   0()
  EndIf()
  If(1,11,0,1,0)
   TeleportPlayer(0,224,46,34,2,0)
   EndEventProcessing()
   0()
  EndIf()
  If(1,11,0,2,0)
   TeleportPlayer(0,224,38,17,2,0)
   EndEventProcessing()
   0()
  EndIf()
  If(1,11,0,3,0)
   0()
  EndIf()
  0()



EVENT   22
 PAGE   1
  ShowMessageFace("",0,0,2,1)
  ShowMessage("\\n<Village Woman>Not just this village, I want to save oppressed people all over the world... That is lady Lily's ideal.")
  355("actor_label_jump")
  EndEventProcessing()
  DefineLabel("26")
  ShowMessageFace("iriasu_fc4",2,0,2,2)
  ShowMessage("\\n<Ilias>People who say they want to save others should not be trusted... Of course, I am an exception.")
  EndEventProcessing()
  DefineLabel("68")
  ShowMessageFace("dragonp_fc1",0,0,2,3)
  ShowMessage("\\n<Papi>So, she's a good person, right?!")
  EndEventProcessing()
  DefineLabel("136")
  ShowMessageFace("elf_fc1",0,0,2,4)
  ShowMessage("\\n<Claudia>That's shady...")
  EndEventProcessing()
  0()
 PAGE   2
  // condition: variable 1029 >= 5
  If(0,2097,0)
   ShowMessageFace("",0,0,2,1)
   ShowMessage("\\n<Village Woman>Lady Lily... she has finally departed on a journey to save oppressed all over the world.")
   355("actor_label_jump")
   EndEventProcessing()
   DefineLabel("163")
   ShowMessageFace("lily_fc1",3,0,2,2)
   ShowMessage("\\n<Lily>Yes, to save all the weak... I need to grant them power.")
   EndEventProcessing()
   0()
  EndIf()
  If(0,2096,0)
   ShowMessageFace("",0,0,2,3)
   ShowMessage("\\n<Village Woman>Lady Lily's dream has been rejected. Her power was sealed and most likely she won't be able to use magic any more.")
   ShowMessageFace("",0,0,2,4)
   ShowMessage("\\n<Village Woman>Ahhh, it's heartrending...")
   EndEventProcessing()
   0()
  EndIf()
  0()
