﻿
DisplayName "Ilias Temple 2F"



EVENT   56
 PAGE   1
  281(0)
  250(bytes(0x04,0x08,0x6f,0x3a,0x0c,0x52,0x50,0x47,0x3a,0x3a,0x53,0x45,0x08,0x3a,0x0a,0x40,0x6e,0x61,0x6d,0x65,0x49,0x22,0x09,0x4d,0x6f,0x76,0x65,0x06,0x3a,0x06,0x45,0x54,0x3a,0x0b,0x40,0x70,0x69,0x74,0x63,0x68,0x69,0x69,0x3a,0x0c,0x40,0x76,0x6f,0x6c,0x75,0x6d,0x65,0x69,0x55))
  TeleportPlayer(0,5,10,10,2,0)
  0()



EVENT   61
 PAGE   1
  ShowMessageFace("",0,0,2,1)
  ShowMessage("\\n<Guard>Locked chests have special colors. They can't be opened without the right unlock skill.")
  ShowMessageFace("",0,0,2,2)
  ShowMessage("\\n<Guard>Thieves can learn a skill to open blue chests, but you'll to advance to higher jobs to open green and silver chests.")
  ShowMessageFace("",0,0,2,3)
  ShowMessage("\\n<Guard>Make notes when you find chests you can't unlock. You can come back later with the right skill and open them...")
  0()



EVENT   62
 PAGE   1
  If(12,"unlock_level < 1")
   ShowMessageFace("",0,0,2,1)
   ShowMessage("The chest is locked.")
   EndEventProcessing()
   0()
  EndIf()
  250(bytes(0x04,0x08,0x6f,0x3a,0x0c,0x52,0x50,0x47,0x3a,0x3a,0x53,0x45,0x08,0x3a,0x0a,0x40,0x6e,0x61,0x6d,0x65,0x49,0x22,0x0a,0x43,0x68,0x65,0x73,0x74,0x06,0x3a,0x06,0x45,0x54,0x3a,0x0b,0x40,0x70,0x69,0x74,0x63,0x68,0x69,0x69,0x3a,0x0c,0x40,0x76,0x6f,0x6c,0x75,0x6d,0x65,0x69,0x55))
  205(0,bytes(0x04,0x08,0x6f,0x3a,0x13,0x52,0x50,0x47,0x3a,0x3a,0x4d,0x6f,0x76,0x65,0x52,0x6f,0x75,0x74,0x65,0x09,0x3a,0x0c,0x40,0x72,0x65,0x70,0x65,0x61,0x74,0x46,0x3a,0x0f,0x40,0x73,0x6b,0x69,0x70,0x70,0x61,0x62,0x6c,0x65,0x46,0x3a,0x0a,0x40,0x77,0x61,0x69,0x74,0x54,0x3a,0x0a,0x40,0x6c,0x69,0x73,0x74,0x5b,0x0b,0x6f,0x3a,0x15,0x52,0x50,0x47,0x3a,0x3a,0x4d,0x6f,0x76,0x65,0x43,0x6f,0x6d,0x6d,0x61,0x6e,0x64,0x07,0x3a,0x0a,0x40,0x63,0x6f,0x64,0x65,0x69,0x29,0x3a,0x10,0x40,0x70,0x61,0x72,0x61,0x6d,0x65,0x74,0x65,0x72,0x73,0x5b,0x00,0x6f,0x3b,0x0a,0x07,0x3b,0x0b,0x69,0x16,0x3b,0x0c,0x5b,0x00,0x6f,0x3b,0x0a,0x07,0x3b,0x0b,0x69,0x14,0x3b,0x0c,0x5b,0x06,0x69,0x08,0x6f,0x3b,0x0a,0x07,0x3b,0x0b,0x69,0x17,0x3b,0x0c,0x5b,0x00,0x6f,0x3b,0x0a,0x07,0x3b,0x0b,0x69,0x14,0x3b,0x0c,0x5b,0x06,0x69,0x08,0x6f,0x3b,0x0a,0x07,0x3b,0x0b,0x69,0x00,0x3b,0x0c,0x5b,0x00))
  ChangeSelfSwitch("A",0)
  ChangeInventoryArmor(1037,0,0,1,false)
  0()
 PAGE   2
  // condition: self-switch A is ON
  0()



EVENT   63
 PAGE   1
  If(12,"unlock_level < 2")
   ShowMessageFace("",0,0,2,1)
   ShowMessage("The chest is locked.")
   EndEventProcessing()
   0()
  EndIf()
  250(bytes(0x04,0x08,0x6f,0x3a,0x0c,0x52,0x50,0x47,0x3a,0x3a,0x53,0x45,0x08,0x3a,0x0a,0x40,0x6e,0x61,0x6d,0x65,0x49,0x22,0x0a,0x43,0x68,0x65,0x73,0x74,0x06,0x3a,0x06,0x45,0x54,0x3a,0x0b,0x40,0x70,0x69,0x74,0x63,0x68,0x69,0x69,0x3a,0x0c,0x40,0x76,0x6f,0x6c,0x75,0x6d,0x65,0x69,0x55))
  205(0,bytes(0x04,0x08,0x6f,0x3a,0x13,0x52,0x50,0x47,0x3a,0x3a,0x4d,0x6f,0x76,0x65,0x52,0x6f,0x75,0x74,0x65,0x09,0x3a,0x0c,0x40,0x72,0x65,0x70,0x65,0x61,0x74,0x46,0x3a,0x0f,0x40,0x73,0x6b,0x69,0x70,0x70,0x61,0x62,0x6c,0x65,0x46,0x3a,0x0a,0x40,0x77,0x61,0x69,0x74,0x54,0x3a,0x0a,0x40,0x6c,0x69,0x73,0x74,0x5b,0x0b,0x6f,0x3a,0x15,0x52,0x50,0x47,0x3a,0x3a,0x4d,0x6f,0x76,0x65,0x43,0x6f,0x6d,0x6d,0x61,0x6e,0x64,0x07,0x3a,0x0a,0x40,0x63,0x6f,0x64,0x65,0x69,0x29,0x3a,0x10,0x40,0x70,0x61,0x72,0x61,0x6d,0x65,0x74,0x65,0x72,0x73,0x5b,0x00,0x6f,0x3b,0x0a,0x07,0x3b,0x0b,0x69,0x16,0x3b,0x0c,0x5b,0x00,0x6f,0x3b,0x0a,0x07,0x3b,0x0b,0x69,0x14,0x3b,0x0c,0x5b,0x06,0x69,0x08,0x6f,0x3b,0x0a,0x07,0x3b,0x0b,0x69,0x17,0x3b,0x0c,0x5b,0x00,0x6f,0x3b,0x0a,0x07,0x3b,0x0b,0x69,0x14,0x3b,0x0c,0x5b,0x06,0x69,0x08,0x6f,0x3b,0x0a,0x07,0x3b,0x0b,0x69,0x00,0x3b,0x0c,0x5b,0x00))
  ChangeSelfSwitch("A",0)
  125(0,0,12000)
  ShowMessageFace("",0,0,2,2)
  ShowMessage("12000\\G obtained!")
  0()
 PAGE   2
  // condition: self-switch A is ON
  0()



EVENT   64
 PAGE   1
  If(12,"unlock_level < 3")
   ShowMessageFace("",0,0,2,1)
   ShowMessage("The chest is locked.")
   EndEventProcessing()
   0()
  EndIf()
  250(bytes(0x04,0x08,0x6f,0x3a,0x0c,0x52,0x50,0x47,0x3a,0x3a,0x53,0x45,0x08,0x3a,0x0a,0x40,0x6e,0x61,0x6d,0x65,0x49,0x22,0x0a,0x43,0x68,0x65,0x73,0x74,0x06,0x3a,0x06,0x45,0x54,0x3a,0x0b,0x40,0x70,0x69,0x74,0x63,0x68,0x69,0x69,0x3a,0x0c,0x40,0x76,0x6f,0x6c,0x75,0x6d,0x65,0x69,0x55))
  205(0,bytes(0x04,0x08,0x6f,0x3a,0x13,0x52,0x50,0x47,0x3a,0x3a,0x4d,0x6f,0x76,0x65,0x52,0x6f,0x75,0x74,0x65,0x09,0x3a,0x0c,0x40,0x72,0x65,0x70,0x65,0x61,0x74,0x46,0x3a,0x0f,0x40,0x73,0x6b,0x69,0x70,0x70,0x61,0x62,0x6c,0x65,0x46,0x3a,0x0a,0x40,0x77,0x61,0x69,0x74,0x54,0x3a,0x0a,0x40,0x6c,0x69,0x73,0x74,0x5b,0x0b,0x6f,0x3a,0x15,0x52,0x50,0x47,0x3a,0x3a,0x4d,0x6f,0x76,0x65,0x43,0x6f,0x6d,0x6d,0x61,0x6e,0x64,0x07,0x3a,0x0a,0x40,0x63,0x6f,0x64,0x65,0x69,0x29,0x3a,0x10,0x40,0x70,0x61,0x72,0x61,0x6d,0x65,0x74,0x65,0x72,0x73,0x5b,0x00,0x6f,0x3b,0x0a,0x07,0x3b,0x0b,0x69,0x16,0x3b,0x0c,0x5b,0x00,0x6f,0x3b,0x0a,0x07,0x3b,0x0b,0x69,0x14,0x3b,0x0c,0x5b,0x06,0x69,0x08,0x6f,0x3b,0x0a,0x07,0x3b,0x0b,0x69,0x17,0x3b,0x0c,0x5b,0x00,0x6f,0x3b,0x0a,0x07,0x3b,0x0b,0x69,0x14,0x3b,0x0c,0x5b,0x06,0x69,0x08,0x6f,0x3b,0x0a,0x07,0x3b,0x0b,0x69,0x00,0x3b,0x0c,0x5b,0x00))
  ChangeSelfSwitch("A",0)
  125(0,0,25000)
  ShowMessageFace("",0,0,2,2)
  ShowMessage("25000\\G obtained!")
  0()
 PAGE   2
  // condition: self-switch A is ON
  0()



EVENT   65
 PAGE   1
  281(0)
  250(bytes(0x04,0x08,0x6f,0x3a,0x0c,0x52,0x50,0x47,0x3a,0x3a,0x53,0x45,0x08,0x3a,0x0a,0x40,0x6e,0x61,0x6d,0x65,0x49,0x22,0x09,0x4d,0x6f,0x76,0x65,0x06,0x3a,0x06,0x45,0x54,0x3a,0x0b,0x40,0x70,0x69,0x74,0x63,0x68,0x69,0x69,0x3a,0x0c,0x40,0x76,0x6f,0x6c,0x75,0x6d,0x65,0x69,0x55))
  TeleportPlayer(0,5,38,10,2,0)
  0()



EVENT   1
 PAGE   1
  ShowMessageFace("",0,0,2,1)
  ShowMessage("\\n<Guard>It might be difficult to remember all that's said here. But pay attention to the basics at first.")
  ShowMessageFace("",0,0,2,2)
  ShowMessage("\\n<Guard>As you travel, feel free to come back when you want and listen to the explanations again.")
  0()



EVENT   9
 PAGE   1
  ShowMessageFace("",0,0,2,1)
  ShowMessage("\\n<Gentleman>Skills and abilities are different things. You'll learn both as you level, but they're used differently.")
  ShowMessageFace("",0,0,2,2)
  ShowMessage("\\n<Gentleman>Skills are combat techniques and magic. Examples are [Counterattack], [Fire], etc.")
  ShowMessageFace("",0,0,2,3)
  ShowMessage("\\n<Gentleman>Abilities aren't used during battle though. They're equipped out of battle from the menu.")
  ShowMessageFace("",0,0,2,4)
  ShowMessage("\\n<Gentleman>Equip them via the [Ability] option on the menu. They're useless unless equipped so don't forget about them.")
  ShowMessageFace("",0,0,2,5)
  ShowMessage("\\n<Gentleman>In addition, you can't equip every single ability you get. The number you can equip varies based on your current job.")
  ShowMessageFace("",0,0,2,6)
  ShowMessage("\\n<Gentleman>For instance, Warrior types can equip lots of battle skill abilities, but not as many magic ones.")
  ShowMessageFace("",0,0,2,7)
  ShowMessage("\\n<Gentleman>Mages are the opposite. They can equip lots of magic abilities but few skill-based ones.")
  ShowMessageFace("",0,0,2,8)
  ShowMessage("\\n<Gentleman>You'll understand better as you try it out. With the right abilities, you can defeat more powerful enemies.")
  0()



EVENT   15
 PAGE   1
  ShowMessageFace("",0,0,2,1)
  ShowMessage("\\n<Scholar>All characters have a [Trait]. These are special features unique to that character.")
  ShowMessageFace("",0,0,2,2)
  ShowMessage("\\n<Scholar>These traits are inherent to each character and are active no matter what job or race you've selected.")
  ShowMessageFace("",0,0,2,3)
  ShowMessage("\\n<Scholar>For example, Sonya's trait is [Cute Childhood Friend]... ...It's [Club Girl], really?  That's an awful name.")
  ShowMessageFace("",0,0,2,4)
  ShowMessage("\\n<Scholar>With the [Club Girl] trait, Sonya can always equip a club. In addition, she can always use club skills.")
  ShowMessageFace("",0,0,2,5)
  ShowMessage("\\n<Scholar>Her club skills also do extra damage. So she deals more damage than you'd think.")
  ShowMessageFace("",0,0,2,6)
  ShowMessage("\\n<Scholar>So a character is not defined just by stats, and several unique traits boost damage of certain skills too.")
  ShowMessageFace("",0,0,2,7)
  ShowMessage("\\n<Scholar>You can view a unique traits' effects via the status screen. You can also view them in the character book.")
  0()



EVENT   7
 PAGE   1
  If(1,1028,0,7,2)
   ShowMessageFace("",0,0,2,1)
  ShowMessage("\\n<Civil Servant>The actions of the four major countries keep getting harder to understand and the outcome of their wars even less predictable.")
  ShowMessageFace("",0,0,2,2)
  ShowMessage("\\n<Dapper Gentleman>It's not official, but Sabasa might secede from the alliance. It might be impossible with that new queen...")
  ShowMessageFace("",0,0,2,3)
  ShowMessage("\\n<Civil Servant>Wasn't Sabasa's former king assassinated by Grangold? Grand Noah can't stop an invasion by themselves...")
  ShowMessageFace("",0,0,2,4)
  ShowMessage("\\n<Dapper Gentleman>Grangold might gain control of all Sentora at this rate. And then refugees will flood into the Ilias continent...")
   0()
  EndIf()
  If(1,1028,0,8,1)
   ShowMessageFace("",0,0,2,5)
   ShowMessage("\\n<Civil Servant>It seems like Sabasa's withdrawal from the alliance has been revoked. Apparently they dispatched the expeditionary force again...")
   ShowMessageFace("",0,0,2,6)
   ShowMessage("\\n<Dapper Gentleman>They say that the new Queen was manipulated... but it is unknown whether that was true.")
   ShowMessageFace("",0,0,2,7)
   ShowMessage("\\n<Civil Servant>It does sound like an excuse, but Sabasa's populace support the Queen. Also, it seems like there was evidence that monsters were involved...")
   ShowMessageFace("",0,0,2,8)
   ShowMessage("\\n<Dapper Gentleman>The whole idea that monsters are pulling strings behind this whole war... the fact we can't deny that is scary.")
   0()
  EndIf()
  0()



EVENT   8
 PAGE   1
  ShowMessageFace("",0,0,2,1)
  ShowMessage("\\n<Dapper Gentleman>Sabasa's former king was excellent at the art of war. His strength was all that held the front lines against Grangold's inhuman army.")
  ShowMessageFace("",0,0,2,2)
  ShowMessage("\\n<Dapper Gentleman>But the king died in an accident when returning to Sabasa. They say he died from a fall, but it sounds shady...")
  205(17,bytes(0x04,0x08,0x6f,0x3a,0x13,0x52,0x50,0x47,0x3a,0x3a,0x4d,0x6f,0x76,0x65,0x52,0x6f,0x75,0x74,0x65,0x09,0x3a,0x0c,0x40,0x72,0x65,0x70,0x65,0x61,0x74,0x46,0x3a,0x0f,0x40,0x73,0x6b,0x69,0x70,0x70,0x61,0x62,0x6c,0x65,0x46,0x3a,0x0a,0x40,0x77,0x61,0x69,0x74,0x54,0x3a,0x0a,0x40,0x6c,0x69,0x73,0x74,0x5b,0x07,0x6f,0x3a,0x15,0x52,0x50,0x47,0x3a,0x3a,0x4d,0x6f,0x76,0x65,0x43,0x6f,0x6d,0x6d,0x61,0x6e,0x64,0x07,0x3a,0x0a,0x40,0x63,0x6f,0x64,0x65,0x69,0x15,0x3a,0x10,0x40,0x70,0x61,0x72,0x61,0x6d,0x65,0x74,0x65,0x72,0x73,0x5b,0x00,0x6f,0x3b,0x0a,0x07,0x3b,0x0b,0x69,0x00,0x3b,0x0c,0x5b,0x00))
  ShowMessageFace("",0,0,2,3)
  ShowMessage("\\n<Drinking Soldier>Sabasa's king can't be dead! I'm sure he's still alive somewhere!")
  205(17,bytes(0x04,0x08,0x6f,0x3a,0x13,0x52,0x50,0x47,0x3a,0x3a,0x4d,0x6f,0x76,0x65,0x52,0x6f,0x75,0x74,0x65,0x09,0x3a,0x0c,0x40,0x72,0x65,0x70,0x65,0x61,0x74,0x46,0x3a,0x0f,0x40,0x73,0x6b,0x69,0x70,0x70,0x61,0x62,0x6c,0x65,0x46,0x3a,0x0a,0x40,0x77,0x61,0x69,0x74,0x54,0x3a,0x0a,0x40,0x6c,0x69,0x73,0x74,0x5b,0x07,0x6f,0x3a,0x15,0x52,0x50,0x47,0x3a,0x3a,0x4d,0x6f,0x76,0x65,0x43,0x6f,0x6d,0x6d,0x61,0x6e,0x64,0x07,0x3a,0x0a,0x40,0x63,0x6f,0x64,0x65,0x69,0x17,0x3a,0x10,0x40,0x70,0x61,0x72,0x61,0x6d,0x65,0x74,0x65,0x72,0x73,0x5b,0x00,0x6f,0x3b,0x0a,0x07,0x3b,0x0b,0x69,0x00,0x3b,0x0c,0x5b,0x00))
  ShowMessageFace("",0,0,2,4)
  ShowMessage("\\n<Dapper Gentleman>...Some still can't accept the Sabasa king's death. He was truly a great man.")
  If(1,1028,0,7,2)
   ShowMessageFace("",0,0,2,5)
  ShowMessage("\\n<Dapper Gentleman>His daughter became the new queen, but... Her reputation is extremely poor.")
  ShowMessageFace("",0,0,2,6)
  ShowMessage("\\n<Dapper Gentleman>She neglects domestic affairs and diplomacy, and instead throws shameless parties. Despite her young age, she's rumored to be a wicked woman.")
  ShowMessageFace("",0,0,2,7)
  ShowMessage("\\n<Dapper Gentleman>Discipline in the castle is supposedly nonexistent, with the soldiers goofing off on a daily basis. The former king must be spinning in his grave...")
   0()
  EndIf()
  0()



EVENT   4
 PAGE   1
  ShowMessageFace("",0,0,2,1)
  ShowMessage("\\n<Butler>This is a lounge for civil servants such as diplomats. You can learn about world events from those here.")
  0()



EVENT   16
 PAGE   1
  ShowMessageFace("",0,0,2,1)
  ShowMessage("\\n<Scholar>San Ilia, Sabasa, and Grand Noah are allied. The enemy is of course the powerful Grangold.")
  ShowMessageFace("",0,0,2,2)
  ShowMessage("\\n<Scholar>The three countries aren't any stronger than Grangold though. Grangold has Ant Girls, Golems, and Automata...")
  ShowMessageFace("",0,0,2,3)
  ShowMessage("\\n<Scholar>Nobody knows what's going on in monstrous Grangold since all news from inside the country is cut off.")
  0()



EVENT   10
 PAGE   1
  250(bytes(0x04,0x08,0x6f,0x3a,0x0c,0x52,0x50,0x47,0x3a,0x3a,0x53,0x45,0x08,0x3a,0x0a,0x40,0x6e,0x61,0x6d,0x65,0x49,0x22,0x0a,0x49,0x74,0x65,0x6d,0x31,0x06,0x3a,0x06,0x45,0x54,0x3a,0x0b,0x40,0x70,0x69,0x74,0x63,0x68,0x69,0x69,0x3a,0x0c,0x40,0x76,0x6f,0x6c,0x75,0x6d,0x65,0x69,0x55))
  ChangeSelfSwitch("A",0)
  ChangeInventory_Item(305,0,0,1)
  0()
 PAGE   2
  // condition: self-switch A is ON
  0()



EVENT   17
 PAGE   1
  ShowMessageFace("",0,0,2,1)
  ShowMessage("\\n<Military Officer>Gold the 11th, the current king of Grangold, isn't human... I saw him with my own eyes on the battlefield...")
  ShowMessageFace("",0,0,2,2)
  ShowMessage("\\n<Military Officer>He didn't flinch even when arrows and spears pierced him, and he annihilated our army with monstrous spells.")
  ShowMessageFace("",0,0,2,3)
  ShowMessage("\\n<Military Officer>He might be good with magic because of his royal bloodline, but no human has that kind of power.")
  0()



EVENT   19
 PAGE   1
  ShowMessageFace("",0,0,2,1)
  ShowMessage("\\n<Gentleman>Grand Noah used to be a rich nation in harmony with nature. Even with many monster citizens, the society was stable.")
  ShowMessageFace("",0,0,2,2)
  ShowMessage("\\n<Gentleman>But then Grangold's invasion began, and that all changed.")
  ShowMessageFace("",0,0,2,3)
  ShowMessage("\\n<Gentleman>Lima village on the border was destroyed, and before long, the capital was besieged. Through the combined allied power of San Ilia and Sabasa, Grangold was pushed back though.")
  If(1,1028,0,7,2)
   ShowMessageFace("",0,0,2,4)
  ShowMessage("\\n<Gentleman>But Sabasa lost their king in an accident and essentially withdrew from the alliance. It's probably only a matter of time before Grand Noah falls now...")
   0()
  EndIf()
  If(1,1028,0,8,1)
   ShowMessageFace("",0,0,2,5)
   ShowMessage("\\n<Gentleman>The crisis involving Sabasa's withdrawal from the alliance is over... however, this doesn't change the fact that the war against Grand Noah will be severe.")
   0()
  EndIf()
  0()



EVENT   18
 PAGE   1
  If(1,1028,0,7,2)
   ShowMessageFace("",0,0,2,1)
  ShowMessage("\\n<Priest>The theocratic San Ilia is at a crossroads. As the magical revolution continues, how can it be compatible with their religious beliefs?")
  ShowMessageFace("",0,0,2,2)
  ShowMessage("\\n<Priest>Research into machines has led them to be incorporated into daily life, but the church has spoken out against those too...")
  ShowMessageFace("",0,0,2,3)
  ShowMessage("\\n<Priest>The problem is that the current Pope of San Ilia supports the use of machines, and even the church higher-ups are beginning to promote them.")
   If(4,531,0)
    ShowMessageFace("saniria_fc2",0,0,2,4)
    ShowMessage("\\n<King of San Ilia>Faith and technology don't necessarily contradict one another. We have to show people that it is possible for both to coexist.")
    ShowMessageFace("",0,0,2,5)
    ShowMessage("\\n<Priest>Y-you... are you...?!")
    ShowMessageFace("saniria_fc2",0,0,2,6)
    ShowMessage("\\n<King of San Ilia>Just a passing mecha.")
    0()
   Else()
    ShowMessageFace("",0,0,2,7)
  ShowMessage("\\n<Priest>The conflict has split the church into factions. The anti-machine sect left San Ilia and established themselves in a nearby village.")
  ShowMessageFace("",0,0,2,8)
  ShowMessage("\\n<Priest>There was an assassination attempt on the Pope several years ago, but was the anti-machine sect really behind it...?")
  ShowMessageFace("",0,0,2,9)
  ShowMessage("\\n<Priest>Speaking of that, I've heard that someone in this village was connected to the assassination, but there wasn't enough evidence to arrest him for it.")
    0()
   EndIf()
   0()
  EndIf()
  If(1,1028,0,8,1)
   ShowMessageFace("",0,0,2,10)
   ShowMessage("\\n<Priest>The church nation San Ilia is currently at crossroads. How does faith comes into terms with the advance of magic revolution...")
   ShowMessageFace("",0,0,2,11)
   ShowMessage("\\n<Priest>The fact that Luddite Village was destroyed by monsters does not change this. In this turbulent world, religion itself is being questioned.")
   If(4,531,0)
    ShowMessageFace("saniria_fc2",0,0,2,12)
    ShowMessage("\\n<King of San Ilia>Faith and technology don't necessarily contradict one another. We have to show people that it is possible for both to coexist.")
    ShowMessageFace("",0,0,2,13)
    ShowMessage("\\n<Priest>Y-you... are you...?!")
    ShowMessageFace("saniria_fc2",0,0,2,14)
    ShowMessage("\\n<King of San Ilia>Just a passing mecha.")
    0()
   EndIf()
   0()
  EndIf()
  0()



EVENT   20
 PAGE   1
  ShowMessageFace("",0,0,2,1)
  ShowMessage("\\n<Noble>So there's a massive war on the Sentora continent, but the influence of monsters keeps popping up everywhere.")
  ShowMessageFace("",0,0,2,2)
  ShowMessage("\\n<Noble>First, Grangold has a large Ant Girl army, which is odd. There's no way they could command the ants without their queen supporting them.")
  If(1,1028,0,7,2)
   ShowMessageFace("",0,0,2,3)
  ShowMessage("\\n<Noble>Also, there's a new queen in Sabasa... There are rumors she's actually a Succubus.")
  ShowMessageFace("",0,0,2,4)
  ShowMessage("\\n<Noble>I believe the true princess was killed with her father, and then the succubus who did it became queen in her place.")
   0()
  EndIf()
  If(1,1028,0,8,1)
   ShowMessageFace("",0,0,2,5)
   ShowMessage("\\n<Noble>Also, it seems like the new Queen of Sabasa was manipulated by monsters. There are many who think it's just a trick, but I believe it's true.")
   ShowMessageFace("",0,0,2,6)
   ShowMessage("\\n<Noble>The previous King's death was too fishy as well. It's natural to suspect all of it to be a conspiracy.")
   If(4,529,0)
    ShowMessageFace("sara_fc1",4,0,2,7)
    ShowMessage("\\n<Sara>......")
    0()
   EndIf()
   0()
  EndIf()
  ShowMessageFace("",0,0,2,8)
  ShowMessage("\\n<Noble>Even Grand Noah has a strange magical advisor, and they say she isn't even trying to conceal that she's a monster.")
  ShowMessageFace("",0,0,2,9)
  ShowMessage("\\n<Noble>Don't you think this is all really suspicious? Monsters have wormed their way into powerful positions in every country.")
  ShowMessageFace("",0,0,2,10)
  ShowMessage("\\n<Noble>I think the Monster Lord might be pulling the strings... I bet she's trying to take over the world in one fell swoop.")
  If(0,4,0)
   ShowMessageFace("alice_fc5",3,0,2,11)
   ShowMessage("\\n<Alice>Pfft, like I'd care about human politics... But I can't say the same for all monsters.")
   ShowMessageFace("alice_fc5",0,0,2,12)
   ShowMessage("\\n<Alice>I'll need to check this all out... Of course, the rabbit is our top priority.")
   0()
  EndIf()
  0()



EVENT   14
 PAGE   1
  ShowMessageFace("",0,0,2,1)
  ShowMessage("\\n<Old Man>You learn skills and abilities by leveling your job. There are some exceptions that are learned with character level though.")
  ShowMessageFace("",0,0,2,2)
  ShowMessage("\\n<Old Man>These are intrinsic to the character and don't depend on job. So keep in mind that those skills exist too.")
  ShowMessageFace("",0,0,2,3)
  ShowMessage("\\n<Old Man>For example, the Holy Knights' idol, Sonya... As her level rises, she'll learn a few club skills regardless of her job.")
  ShowMessageFace("",0,0,2,4)
  ShowMessage("\\n<Old Man>I'm sure you realize why, heh heh.")
  0()



EVENT   23
 PAGE   1
  ShowMessageFace("",0,0,2,1)
  ShowMessage("\\n<Woman>Do you know the difference between a staff and rod? Both are magic weapons, so confusion is common.")
  ShowMessageFace("",0,0,2,2)
  ShowMessage("\\n<Woman>A staff improves willpower, which influences healing magic. So a staff is good for healers like Priests.")
  ShowMessageFace("",0,0,2,3)
  ShowMessage("\\n<Woman>A rod improves magic, which influences attack magic. So a rod is best for magic attackers like Mages.")
  ShowMessageFace("",0,0,2,4)
  ShowMessage("\\n<Woman>Healers get staves, magic attackers get rods... Remember that, it's important.")
  0()



EVENT   24
 PAGE   1
  ShowMessageFace("",0,0,2,1)
  ShowMessage("\\n<Scoundrel>Normal swords can be equipped by all soldiers. But some powerful swords can only be used by experts.")
  ShowMessageFace("",0,0,2,2)
  ShowMessage("\\n<Scoundrel>A Knight Sword, for example... A normal soldier can't equip it.")
  ShowMessageFace("",0,0,2,3)
  ShowMessage("\\n<Scoundrel>You need to be a special job to use a Knight Sword. You need to be a Swordmaster or similar job.")
  ShowMessageFace("",0,0,2,4)
  ShowMessage("\\n<Scoundrel>How do you become a Swordmaster? Master other jobs first, and you might find out.")
  0()



EVENT   2
 PAGE   1
  ShowMessageFace("",0,0,2,1)
  ShowMessage("\\n<Weapon Maniac>I'm a Weapon Maniac, I know all about weapons. I can explain various weapon types for you.")
  StartLoop()
   ShowChoices(strings("Normal Weapons","Special Weapons","Exotic Weapons","No Thanks"),4)
   IfPlayerPicksChoice(0,null)
    StartLoop()
     355("unlimited_choices(11,")
     655("[\"Dagger\", \"Sword\",")
     655("\"Rapier\",\"Spear\",")
     655("\"Fist\", \"Axe\",")
     655("\"Club\",\"Staff\",")
     655("\"Rod\",\"Bow\",")
     655("\"Back\"]")
     655(")")
     If(1,11,0,0,0)
      ShowMessageFace("",0,0,2,2)
      ShowMessage("\\n<Weapon Maniac>A Dagger is a small bladed weapon like a knife. It's weaker than a sword, but it's cheaper too, and can be equipped by many jobs.")
      ShowMessageFace("",0,0,2,3)
      ShowMessage("\\n<Weapon Maniac>Its damage is determined by the average of your Attack and your Agility. So it's useful for Thieves and other high Agility jobs.")
      ShowMessageFace("",0,0,2,4)
      ShowMessage("\\n<Weapon Maniac>It's certainly not the strongest weapon you'll get. But it's far better than nothing at all.")
      0()
     EndIf()
     If(1,11,0,1,0)
      ShowMessageFace("",0,0,2,5)
      ShowMessage("\\n<Weapon Maniac>A Sword deals damage based on your Attack. Only Warrior-type jobs can equip it.")
      ShowMessageFace("",0,0,2,6)
      ShowMessage("\\n<Weapon Maniac>It's the best weapon for reliably high damage. It's got an average hit rate, and no gimmicks.")
      ShowMessageFace("",0,0,2,7)
      ShowMessage("\\n<Weapon Maniac>It's reliable and useful all the time. You won't go wrong in using a Sword.")
      0()
     EndIf()
     If(1,11,0,2,0)
      ShowMessageFace("",0,0,2,8)
      ShowMessage("\\n<Weapon Maniac>A Rapier is a pointed sword, you attack with thrusts. Its damage is determined by the average of your Attack and your Agility.")
      ShowMessageFace("",0,0,2,9)
      ShowMessage("\\n<Weapon Maniac>So it'll deal lower damage with less agile fighters. But it's great for your nimble attackers.")
      ShowMessageFace("",0,0,2,10)
      ShowMessage("\\n<Weapon Maniac>But few jobs can use one... A Vampire would be able to use one very well.")
      0()
     EndIf()
     If(1,11,0,3,0)
      ShowMessageFace("",0,0,2,11)
      ShowMessage("\\n<Weapon Maniac>A Spear uses Attack and Agility to deal damage. So slower fighters will deal lower damage with one.")
      ShowMessageFace("",0,0,2,12)
      ShowMessage("\\n<Weapon Maniac>It can be equipped by most Warrior-type jobs... But not many can show a Spear's true power.")
      ShowMessageFace("",0,0,2,13)
      ShowMessage("\\n<Weapon Maniac>Holy Knights and Dragon Knights can use it well. It's the best choice if you get one of those special jobs on your team.")
      0()
     EndIf()
     If(1,11,0,4,0)
      ShowMessageFace("",0,0,2,14)
      ShowMessage("\\n<Weapon Maniac>A Fist is a gauntlet placed on your arm. They strengthen the power of your punches.")
      ShowMessageFace("",0,0,2,15)
      ShowMessage("\\n<Weapon Maniac>Its damage is determined by the average of your Attack and your Agility. So an agile Martial Artist is really good with one.")
      ShowMessageFace("",0,0,2,16)
      ShowMessage("\\n<Weapon Maniac>It's also useful for Beast monsters and other agile ones. You can make good use of martial arts in your party.")
      0()
     EndIf()
     If(1,11,0,5,0)
      ShowMessageFace("",0,0,2,17)
      ShowMessage("\\n<Weapon Maniac>An Axe is an extremely powerful weapon. But it has a lower hit rate than most weapons.")
      ShowMessageFace("",0,0,2,18)
      ShowMessage("\\n<Weapon Maniac>It also has a high crit rate, so it's a gamble. Don't judge it just by its raw stats.")
      ShowMessageFace("",0,0,2,19)
      ShowMessage("\\n<Weapon Maniac>Its damage is solely determined by your Attack. It's basic, but it's not very consistent...")
      ShowMessageFace("",0,0,2,20)
      ShowMessage("\\n<Weapon Maniac>Very few jobs learn Axe skills as well. A Berserker is one example.")
      ShowMessageFace("",0,0,2,21)
      ShowMessage("\\n<Weapon Maniac>Still, it has high attack and a high crit rate. If you feel lucky, an Axe is a fine weapon.")
      0()
     EndIf()
     If(1,11,0,6,0)
      ShowMessageFace("",0,0,2,22)
      ShowMessage("\\n<Weapon Maniac>A Club is a simple blunt weapon. It has a slightly low hit rate, but not too bad.")
      ShowMessageFace("",0,0,2,23)
      ShowMessage("\\n<Weapon Maniac>It's also got a slightly boosted crit rate. It's basically between a Sword and Axe in stats.")
      ShowMessageFace("",0,0,2,24)
      ShowMessage("\\n<Weapon Maniac>But not many jobs learn Club skills. So you might not want to use Clubs until you get the skills.")
      ShowMessageFace("",0,0,2,25)
      ShowMessage("\\n<Weapon Maniac>But generally, it's still a good, if inconsistent, weapon. It would be good to master using one.")
      0()
     EndIf()
     If(1,11,0,7,0)
      ShowMessageFace("",0,0,2,26)
      ShowMessage("\\n<Weapon Maniac>A Staff is a weapon for magic users. It focuses on Willpower, so it's good for Priests.")
      ShowMessageFace("",0,0,2,27)
      ShowMessage("\\n<Weapon Maniac>It has low attack power, and no weapon skills either. Its sole purpose is to boost your Willpower.")
      0()
     EndIf()
     If(1,11,0,8,0)
      ShowMessageFace("",0,0,2,28)
      ShowMessage("\\n<Weapon Maniac>A Rod is a weapon for magic users. It focuses on Magic, so it's good for Mages.")
      ShowMessageFace("",0,0,2,29)
      ShowMessage("\\n<Weapon Maniac>It has low attack power, and no weapon skills either. Its sole purpose is to boost your Magic.")
      0()
     EndIf()
     If(1,11,0,9,0)
      ShowMessageFace("",0,0,2,30)
      ShowMessage("\\n<Weapon Maniac>A Bow is a weapon used by Hunters. Its damage is determined by the average of your Attack and your Dexterity.")
      ShowMessageFace("",0,0,2,31)
      ShowMessage("\\n<Weapon Maniac>It's got an amazing hit rate, so it's really reliable. It's the perfect weapon for a Hunter.")
      ShowMessageFace("",0,0,2,32)
      ShowMessage("\\n<Weapon Maniac>Hunters can also learn Bow skills. They're useful for any job with high Dexterity.")
      0()
     EndIf()
     If(1,11,0,10,1)
      Break()
      0()
     EndIf()
     0()
    EndLoop()
    0()
   IfPlayerPicksChoice(1,null)
    StartLoop()
     355("unlimited_choices(11,")
     655("[\"Knight Sword\", \"Heavy Spear\",")
     655("\"Great Sword\",\"Katana\",")
     655("\"Ninja Sword\",\"Fang\",")
     655("\"Scythe\",\"Whip\",")
     655("\"Boomerang\",\"Flail\",")
     655("\"Fan\", \"Back\"]")
     655(")")
     If(1,11,0,0,0)
      ShowMessageFace("",0,0,2,33)
      ShowMessage("\\n<Weapon Maniac>A Knight Sword is stronger than a normal Sword. But it's also more difficult to wield.")
      ShowMessageFace("",0,0,2,34)
      ShowMessage("\\n<Weapon Maniac>Normal Warriors can't equip it, you need to be a master of the sword. It's got great power and stability too.")
      ShowMessageFace("",0,0,2,35)
      ShowMessage("\\n<Weapon Maniac>All you need is Attack, there's no gimmicks. If you become a better fighter, it's a great weapon.")
      0()
     EndIf()
     If(1,11,0,1,0)
      ShowMessageFace("",0,0,2,36)
      ShowMessage("\\n<Weapon Maniac>A Heavy Spear is bigger than a normal Spear. Of course it's also heavier, and harder to wield.")
      ShowMessageFace("",0,0,2,37)
      ShowMessage("\\n<Weapon Maniac>Its damage is determined by the average of your Attack and your Agility, similar to a Spear. A Dragon Knight will show its true power.")
      ShowMessageFace("",0,0,2,38)
      ShowMessage("\\n<Weapon Maniac>It's powerful, but you can't use it early on. Get a more powerful job, and it will be a great weapon.")
      0()
     EndIf()
     If(1,11,0,2,0)
      ShowMessageFace("",0,0,2,39)
      ShowMessage("\\n<Weapon Maniac>A Great Sword is a massive sword, just like it sounds. You need a lot of strength to wield one, so not many jobs can equip it.")
      ShowMessageFace("",0,0,2,40)
      ShowMessage("\\n<Weapon Maniac>It's got incredible attack power, and a high crit rate. It's got a slightly low hit rate, but the damage more than makes up for it.")
      ShowMessageFace("",0,0,2,41)
      ShowMessage("\\n<Weapon Maniac>There aren't any Great Sword skills, but you can use normal Sword skills just fine with one. It's an incredible weapon, so long as you can equip it.")
      0()
     EndIf()
     If(1,11,0,3,0)
      ShowMessageFace("",0,0,2,42)
      ShowMessage("\\n<Weapon Maniac>A Katana is a sword from the far east. It's just as strong as a Knight Sword, some more so.")
      ShowMessageFace("",0,0,2,43)
      ShowMessage("\\n<Weapon Maniac>Its damage is determined by the average of your Attack and your Dexterity. Clumsy fighters can't draw out its real power.")
      ShowMessageFace("",0,0,2,44)
      ShowMessage("\\n<Weapon Maniac>A Samurai can equip one, of course. But you can't become one early on.")
      ShowMessageFace("",0,0,2,45)
      ShowMessage("\\n<Weapon Maniac>Katana skills are also powerful, cutting down enemies with minimal effort. Several of the skills also can inflict instant death.")
      ShowMessageFace("",0,0,2,46)
      ShowMessage("\\n<Weapon Maniac>You won't find one early on. But it's a powerful weapon once you can use it.")
      0()
     EndIf()
     If(1,11,0,4,0)
      ShowMessageFace("",0,0,2,47)
      ShowMessage("\\n<Weapon Maniac>A Ninja Sword is smaller than a normal Sword. It's specially made for Ninjas that dual-wield.")
      ShowMessageFace("",0,0,2,48)
      ShowMessage("\\n<Weapon Maniac>Its damage is determined by the average of your Attack and your Dexterity. So it's a great weapon for a Ninja.")
      ShowMessageFace("",0,0,2,49)
      ShowMessage("\\n<Weapon Maniac>You can't become a Ninja early on... So you won't be able to use a Ninja Sword at first either.")
      0()
     EndIf()
     If(1,11,0,5,0)
      ShowMessageFace("",0,0,2,50)
      ShowMessage("\\n<Weapon Maniac>A Fang is a weapon that goes in your mouth. It relies solely on Attack, and has high crit rate and hit rate.")
      ShowMessageFace("",0,0,2,51)
      ShowMessage("\\n<Weapon Maniac>Most weapon restrictions are based on job... But only the Beast race can equip Fangs.")
      ShowMessageFace("",0,0,2,52)
      ShowMessage("\\n<Weapon Maniac>Biting skills increase in power if using a Fang. So it's a fantastic weapon for Beast monsters.")
      0()
     EndIf()
     If(1,11,0,6,0)
      ShowMessageFace("",0,0,2,53)
      ShowMessage("\\n<Weapon Maniac>A Scythe relies solely on Attack. Several jobs can equip it, and it's reliable.")
      ShowMessageFace("",0,0,2,54)
      ShowMessage("\\n<Weapon Maniac>It was used for farming, but it can also be used for casting spells. So high quality Scythes can also increase your Magic.")
      ShowMessageFace("",0,0,2,55)
      ShowMessage("\\n<Weapon Maniac>Scythe skills aren't very strong, they're weaker than Sword skills in raw power. But it's a useful weapon that also increases your Magic.")
      ShowMessageFace("",0,0,2,56)
      ShowMessage("\\n<Weapon Maniac>It can probably only be mastered by a specialist in magic. It won't work well for a normal fighter.")
      0()
     EndIf()
     If(1,11,0,7,0)
      ShowMessageFace("",0,0,2,57)
      ShowMessage("\\n<Weapon Maniac>A Whip's normal attack hits all enemies at once. Its damage is determined by the average of your Attack and your Dexterity.")
      ShowMessageFace("",0,0,2,58)
      ShowMessage("\\n<Weapon Maniac>Plant monsters are very good with Whips. They learn several Whip skills, so it's a great choice for their main weapon.")
      ShowMessageFace("",0,0,2,59)
      ShowMessage("\\n<Weapon Maniac>The Monster Tamer job is good with a Whip... But you can't become one early on.")
      ShowMessageFace("",0,0,2,60)
      ShowMessage("\\n<Weapon Maniac>A normal fighter won't be good with it. So avoid Whips except for your Plant monsters.")
      0()
     EndIf()
     If(1,11,0,8,0)
      ShowMessageFace("",0,0,2,61)
      ShowMessage("\\n<Weapon Maniac>A Boomerang's normal attack hits all enemies at once. Its damage is determined by the average of your Attack and your Dexterity.")
      ShowMessageFace("",0,0,2,62)
      ShowMessage("\\n<Weapon Maniac>Since Dexterity's needed, normal fighters can't use it. A Thief can use it pretty well.")
      ShowMessageFace("",0,0,2,63)
      ShowMessage("\\n<Weapon Maniac>Slimes also love Boomerangs for some weird reason. They learn several unique Boomerang skills.")
      ShowMessageFace("",0,0,2,64)
      ShowMessage("\\n<Weapon Maniac>So don't use one unless you have the right stats. It has a low hit rate, and low attack power as well.")
      0()
     EndIf()
     If(1,11,0,9,0)
      ShowMessageFace("",0,0,2,65)
      ShowMessage("\\n<Weapon Maniac>A Flail is an iron ball attached to a chain. Its normal attack hits all enemies at once, and it's got high attack power as well.")
      ShowMessageFace("",0,0,2,66)
      ShowMessage("\\n<Weapon Maniac>It relies solely on Attack, so most fighters could use it. It's got a low hit rate, but deals high damage.")
      ShowMessageFace("",0,0,2,67)
      ShowMessage("\\n<Weapon Maniac>But normal Warriors can't use Flails. So you need to get a better job to use one.")
      ShowMessageFace("",0,0,2,68)
      ShowMessage("\\n<Weapon Maniac>Lamias also learn several Flail skills. They get unique ones that are very powerful.")
      ShowMessageFace("",0,0,2,69)
      ShowMessage("\\n<Weapon Maniac>It's got high power and easy to use, so it's useful. So you can do well with Flails.")
      0()
     EndIf()
     If(1,11,0,10,0)
      ShowMessageFace("",0,0,2,70)
      ShowMessage("\\n<Weapon Maniac>A Fan is a folding fain with blades on the edges. It's like a Sword, and can unleash powerful slashes.")
      ShowMessageFace("",0,0,2,71)
      ShowMessage("\\n<Weapon Maniac>Its damage is determined by the average of your Attack, Agility, and Dexterity. Even if a normal fighter used it, they wouldn't do well.")
      ShowMessageFace("",0,0,2,72)
      ShowMessage("\\n<Weapon Maniac>But it also powers up Dance skills. So a Dancer can make good use of a Fan.")
      ShowMessageFace("",0,0,2,73)
      ShowMessage("\\n<Weapon Maniac>Those good at dancing can make good use of it... But you shouldn't let others use one.")
      0()
     EndIf()
     If(1,11,0,11,1)
      Break()
      0()
     EndIf()
     0()
    EndLoop()
    0()
   IfPlayerPicksChoice(2,null)
    StartLoop()
     355("unlimited_choices(11,")
     655("[\"Magic Sword\", \"Harp\",")
     655("\"Kitchen Knife\",\"Abacus\",")
     655("\"Scalpel\", \"Card\",")
     655("\"Plate\",\"Grimoire\",")
     655("\"Gun\",\"Sex Toy\",")
     655("\"Back\"]")
     655(")")
     If(1,11,0,0,0)
      ShowMessageFace("",0,0,2,74)
      ShowMessage("\\n<Weapon Maniac>A Magic Sword is a sword for magic users. It's a mythical weapon that few are familiar with.")
      ShowMessageFace("",0,0,2,75)
      ShowMessage("\\n<Weapon Maniac>It's made with advanced magic, a really rare sword. It enhances Magic of course, but Attack as well.")
      ShowMessageFace("",0,0,2,76)
      ShowMessage("\\n<Weapon Maniac>Even a Mage can use decent physical attacks with one. You can use Sword skills with it, it's just as good as a normal sword.")
      ShowMessageFace("",0,0,2,77)
      ShowMessage("\\n<Weapon Maniac>But even I've never seen a real one. You probably won't find one for a long while.")
      0()
     EndIf()
     If(1,11,0,1,0)
      ShowMessageFace("",0,0,2,78)
      ShowMessage("\\n<Weapon Maniac>A Harp is a musical instrument. Only a few jobs can use one as a weapon.")
      ShowMessageFace("",0,0,2,79)
      ShowMessage("\\n<Weapon Maniac>It relies solely on Dexterity, Attack isn't needed. It also deals Sonic damage, instead of Physical.")
      ShowMessageFace("",0,0,2,80)
      ShowMessage("\\n<Weapon Maniac>It's not that strong though, it's not a main damage weapon. It can enhance your Song skills though.")
      ShowMessageFace("",0,0,2,81)
      ShowMessage("\\n<Weapon Maniac>It's a weapon exclusive to Minstrels. It's useless for jobs that can't use Song skills.")
      0()
     EndIf()
     If(1,11,0,2,0)
      ShowMessageFace("",0,0,2,82)
      ShowMessage("\\n<Weapon Maniac>A Kitchen Knife is a Chef's exclusive weapon. Its damage is determined by the average of your Attack and your Dexterity, similar to a Dagger.")
      ShowMessageFace("",0,0,2,83)
      ShowMessage("\\n<Weapon Maniac>It enhances Cooking skills, so it's indispensable to any Chef. But other jobs have no reason to equip it.")
      0()
     EndIf()
     If(1,11,0,3,0)
      ShowMessageFace("",0,0,2,84)
      ShowMessage("\\n<Weapon Maniac>An Abacus is a counting tool that can also bludgeon. It's a required weapon for a Merchant.")
      ShowMessageFace("",0,0,2,85)
      ShowMessage("\\n<Weapon Maniac>It relies solely on Attack, but it's not very strong. But it lowers the gold cost of Mercantile skills.")
      ShowMessageFace("",0,0,2,86)
      ShowMessage("\\n<Weapon Maniac>Give it to a Merchant, but definitely nobody else... It's just for a Merchant to use.")
      0()
     EndIf()
     If(1,11,0,4,0)
      ShowMessageFace("",0,0,2,87)
      ShowMessage("\\n<Weapon Maniac>A Scalpel is a special Dagger for medical treatments. Its damage is determined by the average of your Attack and your Dexterity, similar to a Dagger.")
      ShowMessageFace("",0,0,2,88)
      ShowMessage("\\n<Weapon Maniac>But it powers up Medical skills, so it's useful. If you want to use those skills, a Scalpel is great.")
      ShowMessageFace("",0,0,2,89)
      ShowMessage("\\n<Weapon Maniac>But other than that, there's no reason to use one. It's pointless for someone that can't use Medical skills.")
      0()
     EndIf()
     If(1,11,0,5,0)
      ShowMessageFace("",0,0,2,90)
      ShowMessage("\\n<Weapon Maniac>A Card is...  Well, it's a card. You can throw it at enemies, but it's not very strong.")
      ShowMessageFace("",0,0,2,91)
      ShowMessage("\\n<Weapon Maniac>Its damage is determined by the average of your Attack and your Dexterity, but it's not powerful. But it powers up Oracle skills.")
      ShowMessageFace("",0,0,2,92)
      ShowMessage("\\n<Weapon Maniac>A Fortune Teller and Gambler that uses Oracle skills can make great use of it. Otherwise you shouldn't bother.")
      0()
     EndIf()
     If(1,11,0,6,0)
      ShowMessageFace("",0,0,2,93)
      ShowMessage("\\n<Weapon Maniac>A Plate is...  Well, it's a plate. It's been reinforced so it can be used for fighting.")
      ShowMessageFace("",0,0,2,94)
      ShowMessage("\\n<Weapon Maniac>A Maid can throw it in combat. Its damage is determined by the average of your Attack and your Dexterity, but it's not powerful.")
      ShowMessageFace("",0,0,2,95)
      ShowMessage("\\n<Weapon Maniac>But it powers up Service skills. It's a special weapon just for Maids.")
      0()
     EndIf()
     If(1,11,0,7,0)
      ShowMessageFace("",0,0,2,96)
      ShowMessage("\\n<Weapon Maniac>A Grimoire is a book imbued with magic. It focuses on Magic, but it boosts Attack a bit too.")
      ShowMessageFace("",0,0,2,97)
      ShowMessage("\\n<Weapon Maniac>It's useful for Mages that want to use physical attacks. But it's nothing like a Warrior's physical strength...")
      ShowMessageFace("",0,0,2,98)
      ShowMessage("\\n<Weapon Maniac>It also powers up Grimoire skills when equipped. So you should use one if using Grimoire skills.")
      0()
     EndIf()
     If(1,11,0,8,0)
      ShowMessageFace("",0,0,2,99)
      ShowMessage("\\n<Weapon Maniac>A Gun is a mechanical weapon made with unknown technology. It's based on machines excavated from Tartarus.")
      ShowMessageFace("",0,0,2,100)
      ShowMessage("\\n<Weapon Maniac>It's unusual, its damage solely relies on Dexterity. Attack's not used, it deals high damage with just Dexterity.")
      ShowMessageFace("",0,0,2,101)
      ShowMessage("\\n<Weapon Maniac>There are Gun specialist jobs, but you won't get anything like that early on. Few can equip it, but be sure to try one out.")
      0()
     EndIf()
     If(1,11,0,9,0)
      ShowMessageFace("",0,0,2,102)
      ShowMessage("\\n<Weapon Maniac>A Sex Toy is a weapon to inflict pleasure. Its damage relies solely on Dexterity.")
      ShowMessageFace("",0,0,2,103)
      ShowMessage("\\n<Weapon Maniac>It also deals Pleasure damage with its attacks. And it powers up some sex skills.")
      ShowMessageFace("",0,0,2,104)
      ShowMessage("\\n<Weapon Maniac>Only those skilled with pleasure can equip it. So a Prostitute or Succubus can use it.")
      ShowMessageFace("",0,0,2,105)
      ShowMessage("\\n<Weapon Maniac>It's pretty special, but it can be useful when mastered. Treasure one if you find it.")
      0()
     EndIf()
     If(1,11,0,10,1)
      Break()
      0()
     EndIf()
     0()
    EndLoop()
    0()
   IfPlayerPicksChoice(3,null)
    Break()
    0()
   404()
   0()
  EndLoop()
  0()



EVENT   6
 PAGE   1
  ShowMessageFace("",0,0,2,1)
  ShowMessage("\\n<Attribute Maniac>I'm an Attribute Maniac, I know all about character stats. Do you want to know about a particular stat?")
  StartLoop()
   355("unlimited_choices(11,")
   655("[\"HP\", \"MP\", \"SP\",")
   655("\"Attack\",\"Defense\", \"Magic\",")
   655("\"Willpower\",\"Agility\", \"Dexterity\",")
   655("\"Never mind\"]")
   655(")")
   If(1,11,0,0,0)
    ShowMessageFace("",0,0,2,2)
    ShowMessage("\\n<Attribute Maniac>HP is basically your fighting spirit. It's not just vitality, more like will to fight.")
    ShowMessageFace("",0,0,2,3)
    ShowMessage("\\n<Attribute Maniac>You'll lose HP when taking damage, of course. But you'll also lose HP from pleasure attacks.")
    ShowMessageFace("",0,0,2,4)
    ShowMessage("\\n<Attribute Maniac>At 0 HP, you're unable to fight. You'll then need to be revived by an item or magic.")
    ShowMessageFace("",0,0,2,5)
    ShowMessage("\\n<Attribute Maniac>So be sure to watch your HP. Make sure to heal when it gets too low.")
    0()
   EndIf()
   If(1,11,0,1,0)
    ShowMessageFace("",0,0,2,6)
    ShowMessage("\\n<Attribute Maniac>MP is the energy for casting spells. Casting magic consumes MP.")
    ShowMessageFace("",0,0,2,7)
    ShowMessage("\\n<Attribute Maniac>It can be restored, but MP is different from HP. You need to stay at an inn, or use expensive items.")
    ShowMessageFace("",0,0,2,8)
    ShowMessage("\\n<Attribute Maniac>A soldier on the north side of this room can tell you all about the differences between MP and SP.")
    0()
   EndIf()
   If(1,11,0,2,0)
    ShowMessageFace("",0,0,2,9)
    ShowMessage("\\n<Attribute Maniac>SP is the energy for using physical skills. It's basically like your fighting energy.")
    ShowMessageFace("",0,0,2,10)
    ShowMessage("\\n<Attribute Maniac>Normal attacks restore 1 SP when used. You build it up by constantly attacking.")
    ShowMessageFace("",0,0,2,11)
    ShowMessage("\\n<Attribute Maniac>A soldier on the north side of this room can tell you all about the differences between MP and SP.")
    0()
   EndIf()
   If(1,11,0,3,0)
    ShowMessageFace("",0,0,2,12)
    ShowMessage("\\n<Attribute Maniac>Attack is a measure of how much damage your physical attacks will do to enemies. It's basically your physical strength.")
    ShowMessageFace("",0,0,2,13)
    ShowMessage("\\n<Attribute Maniac>As it increases, you deal more physical damage. With a few exceptions, weapons solely rely on Attack.")
    ShowMessageFace("",0,0,2,14)
    ShowMessage("\\n<Attribute Maniac>Some weapons use other stats to determine damage. Listen to the Weapon Maniac to hear about those.")
    0()
   EndIf()
   If(1,11,0,4,0)
    ShowMessageFace("",0,0,2,15)
    ShowMessage("\\n<Attribute Maniac>Defense is your body's constitution. As it increases, you take less physical damage.")
    ShowMessageFace("",0,0,2,16)
    ShowMessage("\\n<Attribute Maniac>You can increase it with most armor. Be sure to boost it with the best armor you can get.")
    0()
   EndIf()
   If(1,11,0,5,0)
    ShowMessageFace("",0,0,2,17)
    ShowMessage("\\n<Attribute Maniac>Magic is your magical power. As it increases, you'll deal more magical damage.")
    ShowMessageFace("",0,0,2,18)
    ShowMessage("\\n<Attribute Maniac>If you use magic to fight, use weapons that boost Magic. You'll deal a lot of damage with spells with powerful Magic enhancing equipment.")
    0()
   EndIf()
   If(1,11,0,6,0)
    ShowMessageFace("",0,0,2,19)
    ShowMessage("\\n<Attribute Maniac>Willpower is your magical defense. As it increases, you take less magical damage.")
    ShowMessageFace("",0,0,2,20)
    ShowMessage("\\n<Attribute Maniac>Willpower also determines your healing power. So your healing spells heal more with high Willpower.")
    ShowMessageFace("",0,0,2,21)
    ShowMessage("\\n<Attribute Maniac>Your healers should be given gear that boosts Willpower. That way, you'll have really powerful healing spells.")
    0()
   EndIf()
   If(1,11,0,7,0)
    ShowMessageFace("",0,0,2,22)
    ShowMessage("\\n<Attribute Maniac>Agility determines turn order. Those with higher Agility move sooner in a turn.")
    ShowMessageFace("",0,0,2,23)
    ShowMessage("\\n<Attribute Maniac>Acting before the enemy is good most of the time. You can defeat enemies before they can even act.")
    ShowMessageFace("",0,0,2,24)
    ShowMessage("\\n<Attribute Maniac>Some weapons' damage is influenced by Agility as well. Rapiers and Spears are some examples.")
    0()
   EndIf()
   If(1,11,0,8,0)
    ShowMessageFace("",0,0,2,25)
    ShowMessage("\\n<Attribute Maniac>Dexterity is how skillful one is with their hands. As it increases, you deal more damage with Pleasure attacks.")
    ShowMessageFace("",0,0,2,26)
    ShowMessage("\\n<Attribute Maniac>Some weapons' damage is influenced by Dexterity as well. Bows and Boomerangs are some examples.")
    ShowMessageFace("",0,0,2,27)
    ShowMessage("\\n<Attribute Maniac>Some weapons' damage is solely determined by Dexterity. Harps are the main example.")
    ShowMessageFace("",0,0,2,28)
    ShowMessage("\\n<Attribute Maniac>To learn about more examples, talk to the Weapon Maniac. Make sure to ask him about them.")
    0()
   EndIf()
   If(1,11,0,9,1)
    Break()
    0()
   EndIf()
   0()
  EndLoop()
  0()



EVENT   3
 PAGE   1
  ShowMessageFace("",0,0,2,1)
  ShowMessage("\\n<Armor Maniac>I'm an Armor Maniac. I know everything about armor. I can explain various armor types for you.")
  StartLoop()
   355("unlimited_choices(11,")
   655("[\"Body\", \"Head\", \"Shield\",\"Accessories\",\"No Thanks\"]")
   655(")")
   If(1,11,0,0,0)
    StartLoop()
     355("unlimited_choices(12,")
     655("[\"Clothes\", \"Gi\", \"Breastplate\",\"Armor\",\"Heavy Armor\",")
     655(" \"Shell\", \"Robe\",\"Dress\",\"Skimpy\",\"Back\"]")
     655(")")
     If(1,12,0,0,0)
      ShowMessageFace("",0,0,2,2)
      ShowMessage("\\n<Armor Maniac>Clothes are the simplest and cheapest armor type. Many can equip them, but they provide little defense.")
      ShowMessageFace("",0,0,2,3)
      ShowMessage("\\n<Armor Maniac>Beasts, Plants, and Insects, basically things really different from humans can't wear clothes. Slimes damage the fabric so they can't wear clothes either.")
      ShowMessageFace("",0,0,2,4)
      ShowMessage("\\n<Armor Maniac>Aside from those exceptions, most monsters can equip them. They give low defense, but they're useful for monsters that can't wear heavier armor.")
      0()
     EndIf()
     If(1,12,0,1,0)
      ShowMessageFace("",0,0,2,5)
      ShowMessage("\\n<Armor Maniac>A Gi is armor worn by agile martial artists. They usually increase your agility when worn.")
      ShowMessageFace("",0,0,2,6)
      ShowMessage("\\n<Armor Maniac>Demi-humans, Elves, and other humanoids can equip them, but those with unusual bodies can't. The number of people who can use them is surprisingly limited.")
      ShowMessageFace("",0,0,2,7)
      ShowMessage("\\n<Armor Maniac>They don't provide much defense compared to armor, but if you want to be agile, a gi is a very good choice.")
      0()
     EndIf()
     If(1,12,0,2,0)
      ShowMessageFace("",0,0,2,8)
      ShowMessage("\\n<Armor Maniac>Breastplates are simple armor that guard your chest. They're not as good as full armor, but they can be equipped by many races.")
      ShowMessageFace("",0,0,2,9)
      ShowMessage("\\n<Armor Maniac>Breastplates are really nice because even beasts and insects can equip them. They may have little magic defense, but they're still worth it.")
      0()
     EndIf()
     If(1,12,0,3,0)
      ShowMessageFace("",0,0,2,10)
      ShowMessage("\\n<Armor Maniac>Armor is standard protective gear for the body. It grants good defense, but only humanoids can equip it.")
      ShowMessageFace("",0,0,2,11)
      ShowMessage("\\n<Armor Maniac>A weak monster like a Succubus or Elf can't though. Few races can equip it, but it gives good defense.")
      0()
     EndIf()
     If(1,12,0,4,0)
      ShowMessageFace("",0,0,2,12)
      ShowMessage("\\n<Armor Maniac>Heavy Armor is very sturdy body armor. It gives immense defense, but few races can equip it.")
      ShowMessageFace("",0,0,2,13)
      ShowMessage("\\n<Armor Maniac>Only strong races like Yoma and Vampires can equip it, which is quite a downside.")
      ShowMessageFace("",0,0,2,14)
      ShowMessage("\\n<Armor Maniac>It also tends to be really expensive... But it gives good defense and magic defense, so if you can wear it, it's very useful.")
      0()
     EndIf()
     If(1,12,0,5,0)
      ShowMessageFace("",0,0,2,15)
      ShowMessage("\\n<Armor Maniac>A Shell is special armor worn on your back. It's made for races that can't wear clothes or armor.")
      ShowMessageFace("",0,0,2,16)
      ShowMessage("\\n<Armor Maniac>It's one of few armor types a Slime can equip. It only protects half your body, and you can't expect it to stop much magic either.")
      ShowMessageFace("",0,0,2,17)
      ShowMessage("\\n<Armor Maniac>It might be a last resort for monsters that can only use light armor, but it's better than nothing.")
      0()
     EndIf()
     If(1,12,0,6,0)
      ShowMessageFace("",0,0,2,18)
      ShowMessage("\\n<Armor Maniac>A Robe is armor made for magic users. It focuses on magic defense and can boost your magical power when worn.")
      ShowMessageFace("",0,0,2,19)
      ShowMessage("\\n<Armor Maniac>It can also be equipped by many races. It doesn't give much defense, but it's the only armor some races can wear.")
      ShowMessageFace("",0,0,2,20)
      ShowMessage("\\n<Armor Maniac>Robes are suited for magic users and light armor-wearing monsters, which can make them surprisingly useful.")
      0()
     EndIf()
     If(1,12,0,7,0)
      ShowMessageFace("",0,0,2,21)
      ShowMessage("\\n<Armor Maniac>A Dress is exactly what it sounds like. They're well made, giving unexpectedly good physical and magic defense.")
      ShowMessageFace("",0,0,2,22)
      ShowMessage("\\n<Armor Maniac>They're unusually useful since many races can equip them. The only problem is that they tend to be expensive...")
      0()
     EndIf()
     If(1,12,0,8,0)
      ShowMessageFace("",0,0,2,23)
      ShowMessage("\\n<Armor Maniac>Skimpy armor includes things such as bikinis and leotards. They offer little defense, but many races can equip them.")
      ShowMessageFace("",0,0,2,24)
      ShowMessage("\\n<Armor Maniac>They tend to have special abilities when worn, but they're also expensive and rare.")
      0()
     EndIf()
     If(1,12,0,9,1)
      Break()
      0()
     EndIf()
     0()
    EndLoop()
    0()
   EndIf()
   If(1,11,0,1,0)
    StartLoop()
     355("unlimited_choices(12,")
     655(" [\"Hat\", \"Helmet\",\"Heavy Helmet\",\"Magic Hat\",\"Fancy Fancy Cap\",\"Back\"]")
     655(")")
     If(1,12,0,0,0)
      ShowMessageFace("",0,0,2,25)
      ShowMessage("\\n<Armor Maniac>A Hat is simple head armor. It's cheap and usable by many races, but doesn't provide much benefit.")
      ShowMessageFace("",0,0,2,26)
      ShowMessage("\\n<Armor Maniac>You also shouldn't expect much magic defense, but sometimes it's all you can use.")
      0()
     EndIf()
     If(1,12,0,1,0)
      ShowMessageFace("",0,0,2,27)
      ShowMessage("\\n<Armor Maniac>A Helmet is strong head armor. It gives good defense and magic defense, but not every race can equip one.")
      ShowMessageFace("",0,0,2,28)
      ShowMessage("\\n<Armor Maniac>Non humanoid monsters, and weaker monsters like Elves can't. There's nothing to complain about, except that not everyone can use one.")
      0()
     EndIf()
     If(1,12,0,2,0)
      ShowMessageFace("",0,0,2,29)
      ShowMessage("\\n<Armor Maniac>Heavy Helmets are incredibly tough head armor. They're even better than Helmets, but even fewer races can equip them.")
      ShowMessageFace("",0,0,2,30)
      ShowMessage("\\n<Armor Maniac>They're basically special gear for powerful monsters like Yoma and Vampires. If you can wear one, you'll feel very secure.")
      0()
     EndIf()
     If(1,12,0,3,0)
      ShowMessageFace("",0,0,2,31)
      ShowMessage("\\n<Armor Maniac>A Magic Hat is head armor for magic users. A circlet is a good example. It gives great magic defense and boosts magic power too.")
      ShowMessageFace("",0,0,2,32)
      ShowMessage("\\n<Armor Maniac>Magic-using races can equip it, like Succubi and Mermaids. It's really useful for any magic-using monster.")
      0()
     EndIf()
     If(1,12,0,4,0)
      ShowMessageFace("",0,0,2,33)
      ShowMessage("\\n<Armor Maniac>A Fancy Cap is special head armor like tiaras. It gives great defense and can be equipped by many races.")
      ShowMessageFace("",0,0,2,34)
      ShowMessage("\\n<Armor Maniac>The only problem is they're expensive. You might want to equip them on lots of party members, but you probably won't have enough of them to go around.")
      0()
     EndIf()
     If(1,12,0,5,1)
      Break()
      0()
     EndIf()
     0()
    EndLoop()
    0()
   EndIf()
   If(1,11,0,2,0)
    StartLoop()
     355("unlimited_choices(12,")
     655("[\"Buckler\", \"Shield\", \"Heavy Shield\",\"Back\"]")
     655(")")
     If(1,12,0,0,0)
      ShowMessageFace("",0,0,2,35)
      ShowMessage("\\n<Armor Maniac>A Buckler is a simple shield. Many races can equip it, but it gives little defense.")
      ShowMessageFace("",0,0,2,36)
      ShowMessage("\\n<Armor Maniac>But it's the only shield many races can use. It's much better than no shield at all at least.")
      0()
     EndIf()
     If(1,12,0,1,0)
      ShowMessageFace("",0,0,2,37)
      ShowMessage("\\n<Armor Maniac>A Shield is a normally weighted shield. Races that are good fighters can equip it.")
      ShowMessageFace("",0,0,2,38)
      ShowMessage("\\n<Armor Maniac>It gives good defense, but it's limited to certain races. If it can be equipped, be sure to do so.")
      0()
     EndIf()
     If(1,12,0,2,0)
      ShowMessageFace("",0,0,2,39)
      ShowMessage("\\n<Armor Maniac>A Heavy Shield is a very sturdy shield. It gives amazing defense, but very few can equip it.")
      ShowMessageFace("",0,0,2,40)
      ShowMessage("\\n<Armor Maniac>Yoma and Vampires, only a few can lift it. It's something only the privileged can use.")
      0()
     EndIf()
     If(1,12,0,3,1)
      Break()
      0()
     EndIf()
     0()
    EndLoop()
    0()
   EndIf()
   If(1,11,0,3,0)
    ShowMessageFace("",0,0,2,41)
    ShowMessage("\\n<Armor Maniac>Accessories are different from other armor. They give special effects when equipped.")
    ShowMessageFace("",0,0,2,42)
    ShowMessage("\\n<Armor Maniac>All accessories can be equipped, no matter your race or job. The useful ones are expensive and some can't be bought at all.")
    ShowMessageFace("",0,0,2,43)
    ShowMessage("\\n<Armor Maniac>You can cover weak points, or enhance strengths... They have many effects, so use them well.")
    0()
   EndIf()
   If(1,11,0,4,1)
    Break()
    0()
   EndIf()
   0()
  EndLoop()
  0()



EVENT   5
 PAGE   1
  ShowMessageFace("",0,0,2,1)
  ShowMessage("\\n<Status Maniac>I'm a Status Maniac, I love suffering from status ailments. I'll explain various status ailments.")
  StartLoop()
   ShowChoices(strings("Common Statuses","Rare Statuses","Sexual Statuses","No Thanks"),4)
   IfPlayerPicksChoice(0,null)
    StartLoop()
     355("unlimited_choices(11,")
     655("[\"Poison\", \"Blind\", \"Silence\",\"Confusion\",")
     655("\"Sleep\", \"Paralysis\",\"Stun\", \"Back\"]")
     655(")")
     If(1,11,0,0,0)
      ShowMessageFace("",0,0,2,2)
      ShowMessage("\\n<Status Maniac>Poison makes you lose 10% of your max HP each turn. It's not much, but don't ignore it.")
      ShowMessageFace("",0,0,2,3)
      ShowMessage("\\n<Status Maniac>It won't recover naturally, and remains after combat. It must be cured with an antidote or Cure spell.")
      ShowMessageFace("",0,0,2,4)
      ShowMessage("\\n<Status Maniac>It's a bit weak when used on enemies. You should usually defeat them fast enough.")
      ShowMessageFace("",0,0,2,5)
      ShowMessage("\\n<Status Maniac>But it's useful on enemies with high defense. It can sometimes work on bosses too.")
      ShowMessageFace("",0,0,2,6)
      ShowMessage("\\n<Status Maniac>Don't confuse it with the Bio element, they're different things.  Poison is a status, Bio is an element, like Ice and Fire.")
      ShowMessageFace("",0,0,2,7)
      ShowMessage("\\n<Status Maniac>You can get poisoned from Bio attacks, I may have confused you more... But just remember they're different things.")
      0()
     EndIf()
     If(1,11,0,1,0)
      ShowMessageFace("",0,0,2,8)
      ShowMessage("\\n<Status Maniac>Blind temporarily obscures your vision. Physical attacks have -50% hit rate, your physical attacks will miss a lot more.")
      ShowMessageFace("",0,0,2,9)
      ShowMessage("\\n<Status Maniac>It won't recover naturally, but it will recover when battle ends. It can be cleansed with eye drops or Cure.")
      ShowMessageFace("",0,0,2,10)
      ShowMessage("\\n<Status Maniac>Blinding enemies can be very useful. Beasts and other physical attackers will be crippled by it.")
      0()
     EndIf()
     If(1,11,0,2,0)
      ShowMessageFace("",0,0,2,11)
      ShowMessage("\\n<Status Maniac>Silence makes you unable to cast spells. Healing and attack magic, no magic can be used.")
      ShowMessageFace("",0,0,2,12)
      ShowMessage("\\n<Status Maniac>It won't recover naturally, but it will recover when battle ends. It can be cleansed by echo herbs or Cure.")
      ShowMessageFace("",0,0,2,13)
      ShowMessage("\\n<Status Maniac>It's useful when used on enemy magic users. It cripples them and makes them useless.")
      0()
     EndIf()
     If(1,11,0,3,0)
      ShowMessageFace("",0,0,2,14)
      ShowMessage("\\n<Status Maniac>Confusion makes you go chi pa pa. You lose control and attack allies and enemies at random.")
      ShowMessageFace("",0,0,2,15)
      ShowMessage("\\n<Status Maniac>It lasts 3-5 turns, but... It's a dangerous status on your physical fighters, so cleanse it with a restorative or Cure.")
      ShowMessageFace("",0,0,2,16)
      ShowMessage("\\n<Status Maniac>You'll also recover 10% of the time when physically attacked. But that's not a reliable recovery method.")
      ShowMessageFace("",0,0,2,17)
      ShowMessage("\\n<Status Maniac>It's a useful status to inflict on enemies. It's really effective on dimmer bulbs like Fairy, Beast, and Bird monsters.")
      ShowMessageFace("",0,0,2,18)
      ShowMessage("\\n<Status Maniac>Sonic attacks can cause confusion sometimes. So when fighting Mermaids, be careful.")
      0()
     EndIf()
     If(1,11,0,4,0)
      ShowMessageFace("",0,0,2,19)
      ShowMessage("\\n<Status Maniac>Sleep puts you into a deep sleep. You can't act, and you're rendered defenseless.")
      ShowMessageFace("",0,0,2,20)
      ShowMessage("\\n<Status Maniac>It lasts 4-6 turns, and you can recover 10% of the time when you're physically attacked. It can be cleansed with a restorative or Cure.")
      ShowMessageFace("",0,0,2,21)
      ShowMessage("\\n<Status Maniac>It's useful against enemies, they're stopped for several turns. Lamias can easily be sent to sleep.")
      0()
     EndIf()
     If(1,11,0,5,0)
      ShowMessageFace("",0,0,2,22)
      ShowMessage("\\n<Status Maniac>Paralysis numbs your body and makes you immobile. You're unable to act for 3-4 turns.")
      ShowMessageFace("",0,0,2,23)
      ShowMessage("\\n<Status Maniac>You'll naturally recover, but it takes a while. It can be cleansed with full moon grass or Cure.")
      ShowMessageFace("",0,0,2,24)
      ShowMessage("\\n<Status Maniac>It's effective against some enemies too. Particularly on fleshy monsters.")
      0()
     EndIf()
     If(1,11,0,6,0)
      ShowMessageFace("",0,0,2,25)
      ShowMessage("\\n<Status Maniac>Stun makes you immobile for one turn. It's not really a status, just a side effect.")
      ShowMessageFace("",0,0,2,26)
      ShowMessage("\\n<Status Maniac>It can't be cleansed, but only lasts one turn. So don't worry about it after the fact.")
      ShowMessageFace("",0,0,2,27)
      ShowMessage("\\n<Status Maniac>You can render enemies unable to attack effectively. You can stun lock enemies if you spam stun attacks.")
      0()
     EndIf()
     If(1,11,0,7,1)
      Break()
      0()
     EndIf()
     0()
    EndLoop()
    0()
   IfPlayerPicksChoice(1,null)
    StartLoop()
     355("unlimited_choices(11,")
     655("[\"Burn\", \"Freeze\",\"Shock\",\"Slow\",")
     655("\"Stop\", \"Minimum\",\"Zombie\",\"Petrify\", \"Digestion\",")
     655("\"Back\"]")
     655(")")
     If(1,11,0,0,0)
      ShowMessageFace("",0,0,2,28)
      ShowMessage("\\n<Status Maniac>Burn lights your body on fire. You'll lose 20% of your max HP per turn.")
      ShowMessageFace("",0,0,2,29)
      ShowMessage("\\n<Status Maniac>It'll last 2-3 turns, but you can cleanse it early. So if you wait for natural recovery, you could lose over half of your HP.")
      ShowMessageFace("",0,0,2,30)
      ShowMessage("\\n<Status Maniac>Fire attacks can inflict a burn 25% of the time. You could get lucky when using a Fire attack.")
      0()
     EndIf()
     If(1,11,0,1,0)
      ShowMessageFace("",0,0,2,31)
      ShowMessage("\\n<Status Maniac>Freeze means your whole body is frozen. You're unable to act at all.")
      ShowMessageFace("",0,0,2,32)
      ShowMessage("\\n<Status Maniac>It lasts 2-3 turns. You should cleanse it quickly.")
      ShowMessageFace("",0,0,2,33)
      ShowMessage("\\n<Status Maniac>Ice attacks can freeze 25% of the time. You could get lucky when using an Ice attack.")
      0()
     EndIf()
     If(1,11,0,2,0)
      ShowMessageFace("",0,0,2,34)
      ShowMessage("\\n<Status Maniac>Shock paralyses the body with electricity. You're unable to act at all.")
      ShowMessageFace("",0,0,2,35)
      ShowMessage("\\n<Status Maniac>It lasts 2-3 turns. You should cleanse it quickly.")
      ShowMessageFace("",0,0,2,36)
      ShowMessage("\\n<Status Maniac>Lightning attacks can shock 25% of the time. You could get lucky when using a Lightning attack.")
      0()
     EndIf()
     If(1,11,0,3,0)
      ShowMessageFace("",0,0,2,37)
      ShowMessage("\\n<Status Maniac>Slow slows time for a single character. Their agility is 30% of normal, they have -30% hit rate, and -100% to physical and magical evasion rates.")
      ShowMessageFace("",0,0,2,38)
      ShowMessage("\\n<Status Maniac>It lasts 6-8 turns, it's a worrisome status. It's worse because not much can cleanse it.")
      ShowMessageFace("",0,0,2,39)
      ShowMessage("\\n<Status Maniac>You can cripple fast enemies by slowing them. But it might be easy to just defeat them outright...")
      0()
     EndIf()
     If(1,11,0,4,0)
      ShowMessageFace("",0,0,2,40)
      ShowMessage("\\n<Status Maniac>Stop freezes time for a character. They can't act for 3-4 turns.")
      ShowMessageFace("",0,0,2,41)
      ShowMessage("\\n<Status Maniac>It will recover eventually, but it's a harsh status. It's worse because not much can cleanse it.")
      0()
     EndIf()
     If(1,11,0,5,0)
      ShowMessageFace("",0,0,2,42)
      ShowMessage("\\n<Status Maniac>Minimum shrinks you. Attack, defense, and agility are all halved.")
      ShowMessageFace("",0,0,2,43)
      ShowMessage("\\n<Status Maniac>It lasts 3-5 turns, but you can cleanse it sooner. It can be cleansed with a lucky mallet or Cure.")
      ShowMessageFace("",0,0,2,44)
      ShowMessage("\\n<Status Maniac>It's very useful against fleshy monsters. But few skills can inflict Minimum...")
      0()
     EndIf()
     If(1,11,0,6,0)
      ShowMessageFace("",0,0,2,45)
      ShowMessage("\\n<Status Maniac>Zombie turns you into a walking corpse. It doesn't hinder your actions, but it causes problems...")
      ShowMessageFace("",0,0,2,46)
      ShowMessage("\\n<Status Maniac>Healing magic will damage you instead. You can heal with Bio damage or Instant Death magic.")
      ShowMessageFace("",0,0,2,47)
      ShowMessage("\\n<Status Maniac>It won't recover naturally, and remains after combat. Holy water is the only way to cleanse it.")
      ShowMessageFace("",0,0,2,48)
      ShowMessage("\\n<Status Maniac>Zombie monsters are under a permanent zombie status. They can't be healed normally, so they're troublesome...")
      0()
     EndIf()
     If(1,11,0,7,0)
      ShowMessageFace("",0,0,2,49)
      ShowMessage("\\n<Status Maniac>Petrification turns your body to stone. Your skin hardens and you're unable to move.")
      ShowMessageFace("",0,0,2,50)
      ShowMessage("\\n<Status Maniac>It won't recover naturally, and remains after combat. It can be cleansed with a gold needle or Cure.")
      ShowMessageFace("",0,0,2,51)
      ShowMessage("\\n<Status Maniac>It can be effective when you use it, but... There are very few petrifying attacks.")
      0()
     EndIf()
     If(1,11,0,8,0)
      ShowMessageFace("",0,0,2,52)
      ShowMessage("\\n<Status Maniac>Digestion covers you in digestive juices. You lose HP each turn, but it's just 5% of your max HP.")
      ShowMessageFace("",0,0,2,53)
      ShowMessage("\\n<Status Maniac>But it causes predation attacks to instantly kill you. You can be defeated quickly, so watch out.")
      ShowMessageFace("",0,0,2,54)
      ShowMessage("\\n<Status Maniac>It won't recover naturally, cleanse it with Cure. Predation is dangerous, so cleanse it immediately.")
      0()
     EndIf()
     If(1,11,0,9,1)
      Break()
      0()
     EndIf()
     0()
    EndLoop()
    0()
   IfPlayerPicksChoice(2,null)
    StartLoop()
     355("unlimited_choices(11,")
     655("[\"Slimed\", \"Horny\",\"Ecstasy\",")
     655("\"Temptation\",\"Incontinent\",\"Back\"]")
     655(")")
     If(1,11,0,0,0)
      ShowMessageFace("",0,0,2,55)
      ShowMessage("\\n<Status Maniac>Slimed covers your body with slippery slime. It feels good, so it's a pleasure status.")
      ShowMessageFace("",0,0,2,56)
      ShowMessage("\\n<Status Maniac>It halves your agility and lowers your physical and magical evasion rates by 50%. You also take 150% damage from Pleasure attacks.")
      ShowMessageFace("",0,0,2,57)
      ShowMessage("\\n<Status Maniac>It's not a huge deal, but it does last 6-8 turns. You can cleanse it early with a de-lust potion or Cure.")
      ShowMessageFace("",0,0,2,58)
      ShowMessage("\\n<Status Maniac>The effects aren't as strong against enemies, but if you manage to slime one, follow up with pleasure attacks on her.")
      0()
     EndIf()
     If(1,11,0,1,0)
      ShowMessageFace("",0,0,2,59)
      ShowMessage("\\n<Status Maniac>Horny makes your whole body become sensitive. It doubles all Pleasure damage you take.")
      ShowMessageFace("",0,0,2,60)
      ShowMessage("\\n<Status Maniac>It won't recover naturally so it's quite dangerous. Cleanse it with a de-lust potion or Cure quickly.")
      ShowMessageFace("",0,0,2,61)
      ShowMessage("\\n<Status Maniac>It can be useful against enemies too. It makes your Pleasure attacks deal massive damage.")
      0()
     EndIf()
     If(1,11,0,2,0)
      ShowMessageFace("",0,0,2,62)
      ShowMessage("\\n<Status Maniac>Ecstasy soaks you in pleasure and makes you unable to act. You can't do anything, and you're defenseless too.")
      ShowMessageFace("",0,0,2,63)
      ShowMessage("\\n<Status Maniac>It lasts 2-3 turns. It can be cleansed with a de-lust potion or Cure.")
      ShowMessageFace("",0,0,2,64)
      ShowMessage("\\n<Status Maniac>It's really useful against enemies. Haughty monsters can be immersed in ecstasy.")
      0()
     EndIf()
     If(1,11,0,3,0)
      ShowMessageFace("",0,0,2,65)
      ShowMessage("\\n<Status Maniac>Temptation makes you become charmed by enemies. It disturbs your mind, and makes you attack allies.")
      ShowMessageFace("",0,0,2,66)
      ShowMessage("\\n<Status Maniac>It lasts 2-3 turns, so it's pretty dangerous. It can be cleansed with a de-lust potion or Cure.")
      ShowMessageFace("",0,0,2,67)
      ShowMessage("\\n<Status Maniac>If used on enemies, they'll only target males. They'll focus attacks, so be careful.")
      0()
     EndIf()
     If(1,11,0,4,0)
      ShowMessageFace("",0,0,2,68)
      ShowMessage("\\n<Status Maniac>Incontinence makes you urinate from pleasure overload. It's extremely embarrassing for both humans and monsters.")
      ShowMessageFace("",0,0,2,69)
      ShowMessage("\\n<Status Maniac>It lasts 3-5 turns while you shake in pleasure and disgrace. You can't act at all, you're defenseless.")
      ShowMessageFace("",0,0,2,70)
      ShowMessage("\\n<Status Maniac>It can be fun to be humiliated, but it can be cleansed early. It can be cleansed with a de-lust potion or Cure.")
      0()
     EndIf()
     If(1,11,0,5,1)
      Break()
      0()
     EndIf()
     0()
    EndLoop()
    0()
   IfPlayerPicksChoice(3,null)
    Break()
    0()
   404()
   0()
  EndLoop()
  0()



EVENT   12
 PAGE   1
  ShowMessageFace("",0,0,2,1)
  ShowMessage("\\n<Soldier A>I tried to take in all those four maniacs had to say... My head's an utter mess now!")
  ShowMessageFace("",0,0,2,2)
  ShowMessage("\\n<Soldier B>You're nuts...  You can't take in everything all at once. You can always come back later to learn as you go.")
  0()



EVENT   13
 PAGE   1
  ShowMessageFace("",0,0,2,1)
  ShowMessage("\\n<Soldier A>I tried to take in all those four maniacs had to say... My head's an utter mess now!")
  ShowMessageFace("",0,0,2,2)
  ShowMessage("\\n<Soldier B>You're nuts...  You can't take in everything all at once. You can always come back later to learn as you go.")
  0()



EVENT   25
 PAGE   1
  If(8,505)
   ShowMessageFace("",0,0,2,1)
   ShowMessage("The Key to Hades was used!")
   ChangeSwitch(100,100,0)
   250(bytes(0x04,0x08,0x6f,0x3a,0x0c,0x52,0x50,0x47,0x3a,0x3a,0x53,0x45,0x08,0x3a,0x0a,0x40,0x6e,0x61,0x6d,0x65,0x49,0x22,0x0b,0x45,0x61,0x72,0x74,0x68,0x34,0x06,0x3a,0x06,0x45,0x54,0x3a,0x0b,0x40,0x70,0x69,0x74,0x63,0x68,0x69,0x69,0x3a,0x0c,0x40,0x76,0x6f,0x6c,0x75,0x6d,0x65,0x69,0x55))
   205(0,bytes(0x04,0x08,0x6f,0x3a,0x13,0x52,0x50,0x47,0x3a,0x3a,0x4d,0x6f,0x76,0x65,0x52,0x6f,0x75,0x74,0x65,0x09,0x3a,0x0c,0x40,0x72,0x65,0x70,0x65,0x61,0x74,0x46,0x3a,0x0f,0x40,0x73,0x6b,0x69,0x70,0x70,0x61,0x62,0x6c,0x65,0x46,0x3a,0x0a,0x40,0x77,0x61,0x69,0x74,0x54,0x3a,0x0a,0x40,0x6c,0x69,0x73,0x74,0x5b,0x0c,0x6f,0x3a,0x15,0x52,0x50,0x47,0x3a,0x3a,0x4d,0x6f,0x76,0x65,0x43,0x6f,0x6d,0x6d,0x61,0x6e,0x64,0x07,0x3a,0x0a,0x40,0x63,0x6f,0x64,0x65,0x69,0x16,0x3a,0x10,0x40,0x70,0x61,0x72,0x61,0x6d,0x65,0x74,0x65,0x72,0x73,0x5b,0x00,0x6f,0x3b,0x0a,0x07,0x3b,0x0b,0x69,0x14,0x3b,0x0c,0x5b,0x06,0x69,0x08,0x6f,0x3b,0x0a,0x07,0x3b,0x0b,0x69,0x17,0x3b,0x0c,0x5b,0x00,0x6f,0x3b,0x0a,0x07,0x3b,0x0b,0x69,0x14,0x3b,0x0c,0x5b,0x06,0x69,0x08,0x6f,0x3b,0x0a,0x07,0x3b,0x0b,0x69,0x18,0x3b,0x0c,0x5b,0x00,0x6f,0x3b,0x0a,0x07,0x3b,0x0b,0x69,0x2a,0x3b,0x0c,0x5b,0x00,0x6f,0x3b,0x0a,0x07,0x3b,0x0b,0x69,0x00,0x3b,0x0c,0x5b,0x00))
   205(-1,bytes(0x04,0x08,0x6f,0x3a,0x13,0x52,0x50,0x47,0x3a,0x3a,0x4d,0x6f,0x76,0x65,0x52,0x6f,0x75,0x74,0x65,0x09,0x3a,0x0c,0x40,0x72,0x65,0x70,0x65,0x61,0x74,0x46,0x3a,0x0f,0x40,0x73,0x6b,0x69,0x70,0x70,0x61,0x62,0x6c,0x65,0x54,0x3a,0x0a,0x40,0x77,0x61,0x69,0x74,0x54,0x3a,0x0a,0x40,0x6c,0x69,0x73,0x74,0x5b,0x07,0x6f,0x3a,0x15,0x52,0x50,0x47,0x3a,0x3a,0x4d,0x6f,0x76,0x65,0x43,0x6f,0x6d,0x6d,0x61,0x6e,0x64,0x07,0x3a,0x0a,0x40,0x63,0x6f,0x64,0x65,0x69,0x11,0x3a,0x10,0x40,0x70,0x61,0x72,0x61,0x6d,0x65,0x74,0x65,0x72,0x73,0x5b,0x00,0x6f,0x3b,0x0a,0x07,0x3b,0x0b,0x69,0x00,0x3b,0x0c,0x5b,0x00))
   281(0)
   250(bytes(0x04,0x08,0x6f,0x3a,0x0c,0x52,0x50,0x47,0x3a,0x3a,0x53,0x45,0x08,0x3a,0x0a,0x40,0x6e,0x61,0x6d,0x65,0x49,0x22,0x0b,0x4d,0x61,0x67,0x69,0x63,0x32,0x06,0x3a,0x06,0x45,0x54,0x3a,0x0b,0x40,0x70,0x69,0x74,0x63,0x68,0x69,0x69,0x3a,0x0c,0x40,0x76,0x6f,0x6c,0x75,0x6d,0x65,0x69,0x55))
   TeleportPlayer(0,576,18,53,0,1)
   0()
  Else()
   ShowMessageFace("",0,0,2,2)
   ShowMessage("Even if you push or pull, the door won't open...")
   205(26,bytes(0x04,0x08,0x6f,0x3a,0x13,0x52,0x50,0x47,0x3a,0x3a,0x4d,0x6f,0x76,0x65,0x52,0x6f,0x75,0x74,0x65,0x09,0x3a,0x0c,0x40,0x72,0x65,0x70,0x65,0x61,0x74,0x46,0x3a,0x0f,0x40,0x73,0x6b,0x69,0x70,0x70,0x61,0x62,0x6c,0x65,0x46,0x3a,0x0a,0x40,0x77,0x61,0x69,0x74,0x54,0x3a,0x0a,0x40,0x6c,0x69,0x73,0x74,0x5b,0x07,0x6f,0x3a,0x15,0x52,0x50,0x47,0x3a,0x3a,0x4d,0x6f,0x76,0x65,0x43,0x6f,0x6d,0x6d,0x61,0x6e,0x64,0x07,0x3a,0x0a,0x40,0x63,0x6f,0x64,0x65,0x69,0x16,0x3a,0x10,0x40,0x70,0x61,0x72,0x61,0x6d,0x65,0x74,0x65,0x72,0x73,0x5b,0x00,0x6f,0x3b,0x0a,0x07,0x3b,0x0b,0x69,0x00,0x3b,0x0c,0x5b,0x00))
   205(-1,bytes(0x04,0x08,0x6f,0x3a,0x13,0x52,0x50,0x47,0x3a,0x3a,0x4d,0x6f,0x76,0x65,0x52,0x6f,0x75,0x74,0x65,0x09,0x3a,0x0c,0x40,0x72,0x65,0x70,0x65,0x61,0x74,0x46,0x3a,0x0f,0x40,0x73,0x6b,0x69,0x70,0x70,0x61,0x62,0x6c,0x65,0x46,0x3a,0x0a,0x40,0x77,0x61,0x69,0x74,0x54,0x3a,0x0a,0x40,0x6c,0x69,0x73,0x74,0x5b,0x07,0x6f,0x3a,0x15,0x52,0x50,0x47,0x3a,0x3a,0x4d,0x6f,0x76,0x65,0x43,0x6f,0x6d,0x6d,0x61,0x6e,0x64,0x07,0x3a,0x0a,0x40,0x63,0x6f,0x64,0x65,0x69,0x17,0x3a,0x10,0x40,0x70,0x61,0x72,0x61,0x6d,0x65,0x74,0x65,0x72,0x73,0x5b,0x00,0x6f,0x3b,0x0a,0x07,0x3b,0x0b,0x69,0x00,0x3b,0x0c,0x5b,0x00))
   ShowMessageFace("",0,0,2,3)
   ShowMessage("\\n<Guard>What are you doing, Luka? You're trying to push and pull the wall...")
   ShowMessageFace("",0,0,2,4)
   ShowMessage("\\n<Guard>What?  There's a door there? Oi, that's just a wall however you look at it.")
   205(-1,bytes(0x04,0x08,0x6f,0x3a,0x13,0x52,0x50,0x47,0x3a,0x3a,0x4d,0x6f,0x76,0x65,0x52,0x6f,0x75,0x74,0x65,0x09,0x3a,0x0c,0x40,0x72,0x65,0x70,0x65,0x61,0x74,0x46,0x3a,0x0f,0x40,0x73,0x6b,0x69,0x70,0x70,0x61,0x62,0x6c,0x65,0x46,0x3a,0x0a,0x40,0x77,0x61,0x69,0x74,0x54,0x3a,0x0a,0x40,0x6c,0x69,0x73,0x74,0x5b,0x07,0x6f,0x3a,0x15,0x52,0x50,0x47,0x3a,0x3a,0x4d,0x6f,0x76,0x65,0x43,0x6f,0x6d,0x6d,0x61,0x6e,0x64,0x07,0x3a,0x0a,0x40,0x63,0x6f,0x64,0x65,0x69,0x15,0x3a,0x10,0x40,0x70,0x61,0x72,0x61,0x6d,0x65,0x74,0x65,0x72,0x73,0x5b,0x00,0x6f,0x3b,0x0a,0x07,0x3b,0x0b,0x69,0x00,0x3b,0x0c,0x5b,0x00))
   If(0,6,0)
    ShowMessageFace("sonia_fc2",2,0,2,5)
    ShowMessage("\\n<Sonya>Luka, are you okay? Are you seeing things after eating some weird mushroom or something?")
    0()
   EndIf()
   ShowMessageFace("ruka_fc1",0,0,2,6)
   ShowMessage("\\n<Luka>Wait, you don't see the door...? Am I the only one that can see it?")
   ShowMessageFace("",0,0,2,7)
   ShowMessage("It won't open, so it's useless. But I do see a keyhole...")
   0()
  EndIf()
  0()



EVENT   22
 PAGE   1
  ShowMessageFace("",0,0,2,1)
  ShowMessage("A wizard is fighting with a soldier...")
  ShowMessageFace("",0,0,2,2)
  ShowMessage("\\n<Guard>Listen old man, you start each battle with half your max SP. So I can use my sword skills every fight without worry!")
  ShowMessageFace("",0,0,2,3)
  ShowMessage("\\n<Mage>But in longer fights, you get out of breath quickly. Once out of SP, you have to build it up with normal attacks!")
  ShowMessageFace("",0,0,2,4)
  ShowMessage("\\n<Mage>But I've got lots of MP. If I manage it well, it won't dry up.")
  ShowMessageFace("",0,0,2,5)
  ShowMessage("\\n<Guard>Oh, the old man won't run out! You'll run out of MP fast during long dungeon crawls!")
  ShowMessageFace("",0,0,2,6)
  ShowMessage("\\n<Guard>You only get MP back from an item or resting at inns. It's way worse than SP that's restored after every fight...")
  ShowMessageFace("",0,0,2,7)
  ShowMessage("\\n<Mage>Grr...!")
  ShowMessageFace("",0,0,2,8)
  ShowMessage("\\n<Guard>Rrr...!")
  0()



EVENT   21
 PAGE   1
  ShowMessageFace("",0,0,2,1)
  ShowMessage("A wizard is fighting with a soldier...")
  ShowMessageFace("",0,0,2,2)
  ShowMessage("\\n<Guard>Listen old man, you start each battle with half your max SP. So I can use my sword skills every fight without worry!")
  ShowMessageFace("",0,0,2,3)
  ShowMessage("\\n<Mage>But in longer fights, you get out of breath quickly. Once out of SP, you have to build it up with normal attacks!")
  ShowMessageFace("",0,0,2,4)
  ShowMessage("\\n<Mage>But I've got lots of MP. If I manage it well, it won't dry up.")
  ShowMessageFace("",0,0,2,5)
  ShowMessage("\\n<Guard>Oh, the old man won't run out! You'll run out of MP fast during long dungeon crawls!")
  ShowMessageFace("",0,0,2,6)
  ShowMessage("\\n<Guard>You only get MP back from an item or resting at inns. It's way worse than SP that's restored after every fight...")
  ShowMessageFace("",0,0,2,7)
  ShowMessage("\\n<Mage>Grr...!")
  ShowMessageFace("",0,0,2,8)
  ShowMessage("\\n<Guard>Rrr...!")
  0()



EVENT   11
 PAGE   1
  ShowMessageFace("",0,0,2,1)
  ShowMessage("\\n<Guard>You should learn the differences of MP and SP. Both are used to power skills, but they're still different.")
  ShowMessageFace("",0,0,2,2)
  ShowMessage("\\n<Guard>MP is consumed when casting spells. Stronger spells drain more MP when cast.")
  ShowMessageFace("",0,0,2,3)
  ShowMessage("\\n<Guard>It's easiest to stay at an inn to recover MP. There's items to recover MP too, but they tend to be pricey.")
  ShowMessageFace("",0,0,2,4)
  ShowMessage("\\n<Guard>Oppositely, SP is used for physical skills. It sounds like MP, but it's pretty different.")
  ShowMessageFace("",0,0,2,5)
  ShowMessage("\\n<Guard>You gain 1 SP whenever you use a normal attack. Your fighting spirit raises by attacking enemies.")
  ShowMessageFace("",0,0,2,6)
  ShowMessage("\\n<Guard>Once you build it up, SP can be used for skills. Of course, stronger skills use more SP.")
  ShowMessageFace("",0,0,2,7)
  ShowMessage("\\n<Guard>There's other ways to get SP other than attacking... But attacking is still your most reliable method.")
  ShowMessageFace("",0,0,2,8)
  ShowMessage("\\n<Guard>At the end of combat, built up SP is lost. It gets set to half of your max SP for the next battle.")
  ShowMessageFace("",0,0,2,9)
  ShowMessage("\\n<Guard>So you should use SP as much as you can during battles. There's no reason to hoard it.")
  ShowMessageFace("",0,0,2,10)
  ShowMessage("\\n<Guard>You can win easily if you know the difference between SP and MP. You'll learn easiest gaining experience in combat.")
  0()



EVENT   26
 PAGE   1
  ShowMessageFace("",0,0,2,1)
  ShowMessage("\\n<Guard>There are 3 kinds of attacks. There's physical, magical, and pleasure attacks.")
  ShowMessageFace("",0,0,2,2)
  ShowMessage("\\n<Guard>Defense lowers physical damage you take. Willpower lowers magical damage you take.")
  ShowMessageFace("",0,0,2,3)
  ShowMessage("\\n<Guard>The average of defense and willpower lowers pleasure damage you take. It's good to cover weak points with armor.")
  0()



EVENT   27
 PAGE   1
  ShowMessageFace("",0,0,2,1)
  ShowMessage("\\n<Scoundrel>You should have at least one healer in your party. You can be safer with two healers in the party.")
  ShowMessageFace("",0,0,2,2)
  ShowMessage("\\n<Scoundrel>You'll be in trouble without any healers. Don't just stupidly put 4 warriors out in battle.")
  0()



EVENT   28
 PAGE   1
  ShowMessageFace("",0,0,2,1)
  ShowMessage("\\n<Young Boy>Your job can change your elemental and status resistance. For example, Mages take less damage from Fire, Ice, and Lightning attacks.")
  ShowMessageFace("",0,0,2,2)
  ShowMessage("\\n<Young Boy>If enemies use specific elements... You can change up your party to your benefit.")
  0()



EVENT   29
 PAGE   1
  ShowMessageFace("",0,0,2,1)
  ShowMessage("\\n<Poet>Don't choose equipment just on attack and defense stats. Accessories have a lot of special effects.")
  ShowMessageFace("",0,0,2,2)
  ShowMessage("\\n<Poet>Some weapons deal Fire damage. So they deal lots of damage to enemies weak to Fire.")
  ShowMessageFace("",0,0,2,3)
  ShowMessage("\\n<Poet>Some armor can resist or nullify specific elements. You can easily defeat powerful enemies with the right gear.")
  ShowMessageFace("",0,0,2,4)
  ShowMessage("\\n<Poet>So when fighting fire-breathing enemies... A shield that nullifies Fire is very useful.")
  ShowMessageFace("",0,0,2,5)
  ShowMessage("\\n<Poet>You can't buy unusual accessories easily. Pay attention to resistances when prepping for combat.")
  0()



EVENT   30
 PAGE   1
  ShowMessageFace("",1,0,2,1)
  ShowMessage("\\n<Scholar>When you change your job too many times... you will learn too many skills and it'll be difficult to choose them in combat.")
  ShowMessageFace("",1,0,2,2)
  ShowMessage("\\n<Scholar>If that happens, if you use button 1 （Shift on the keyboard） and... the whole skill type will no longer be displayed in combat.")
  ShowMessageFace("",1,0,2,3)
  ShowMessage("\\n<Scholar>They will only be temporarily hidden and not forgotten, so don't worry. If you press button 1 again, you will make them appear again.")
  ShowMessageFace("",1,0,2,4)
  ShowMessage("\\n<Scholar>I wish I learned enough skills and magic to have trouble choosing...")
  0()



EVENT   31
 PAGE   1
  ShowMessageFace("",0,0,2,1)
  ShowMessage("\\n<Warrior>There's （Att+Dex） written beside the skill's Power in the description, right. It means that the skill is affected by Attack and Dexterity.")
  ShowMessageFace("",0,0,2,2)
  ShowMessage("\\n<Warrior>'Att' is Attack, 'Dex' is Dexterity、 'Agi' is Agility. 'Mag' is Magic, 'Def' is Defense, 'Will' is Willpower.")
  ShowMessageFace("",0,0,2,3)
  ShowMessage("\\n<Warrior>In other words, if the skill doesn't have a statistic specified, it's not affected by that statistic. For example, for a skill that has （Agi+Dex） there's no point raising Attack.")
  ShowMessageFace("",0,0,2,4)
  ShowMessage("\\n<Warrior>Learn what stats are important for the skills you want to use... once you grasp that part you won't go wrong with your equipment selection.")
  0()