﻿
DisplayName "Hades"



EVENT   1
 PAGE   1
  ShowMessageFace("sinigami_fc1",0,0,2,1)
  ShowMessage("\\n<Reaper>If you go through there, there's no coming back. The magic pentagram will return you from whence you came.")
  205(-1,bytes(0x04,0x08,0x6f,0x3a,0x13,0x52,0x50,0x47,0x3a,0x3a,0x4d,0x6f,0x76,0x65,0x52,0x6f,0x75,0x74,0x65,0x09,0x3a,0x0c,0x40,0x72,0x65,0x70,0x65,0x61,0x74,0x46,0x3a,0x0f,0x40,0x73,0x6b,0x69,0x70,0x70,0x61,0x62,0x6c,0x65,0x46,0x3a,0x0a,0x40,0x77,0x61,0x69,0x74,0x54,0x3a,0x0a,0x40,0x6c,0x69,0x73,0x74,0x5b,0x07,0x6f,0x3a,0x15,0x52,0x50,0x47,0x3a,0x3a,0x4d,0x6f,0x76,0x65,0x43,0x6f,0x6d,0x6d,0x61,0x6e,0x64,0x07,0x3a,0x0a,0x40,0x63,0x6f,0x64,0x65,0x69,0x06,0x3a,0x10,0x40,0x70,0x61,0x72,0x61,0x6d,0x65,0x74,0x65,0x72,0x73,0x5b,0x00,0x6f,0x3b,0x0a,0x07,0x3b,0x0b,0x69,0x00,0x3b,0x0c,0x5b,0x00))
  0()



EVENT   5
 PAGE   1
  ChangeSwitch(100,100,1)
  250(bytes(0x04,0x08,0x6f,0x3a,0x0c,0x52,0x50,0x47,0x3a,0x3a,0x53,0x45,0x08,0x3a,0x0a,0x40,0x6e,0x61,0x6d,0x65,0x49,0x22,0x0b,0x4d,0x61,0x67,0x69,0x63,0x32,0x06,0x3a,0x06,0x45,0x54,0x3a,0x0b,0x40,0x70,0x69,0x74,0x63,0x68,0x69,0x69,0x3a,0x0c,0x40,0x76,0x6f,0x6c,0x75,0x6d,0x65,0x69,0x55))
  TeleportPlayer(0,252,27,6,2,1)
  If(0,2041,1)
   ChangeSwitch(2041,2041,0)
   If(0,4,0)
    ShowMessageFace("alice_fc5",0,0,2,1)
    ShowMessage("\\n<Alice>Why are you standing in front of a wall like an idiot...")
    0()
   EndIf()
   If(0,5,0)
    ShowMessageFace("iriasu_fc4",0,0,2,2)
    ShowMessage("\\n<Ilias>What are you doing, Luka? No matter how long you stare at that wall, nothing is going to happen.")
    0()
   EndIf()
   ShowMessageFace("ruka_fc1",0,0,2,3)
   ShowMessage("\\n<Luka>Umm no, I was in Hades...")
   If(0,4,0)
    ShowMessageFace("alice_fc5",0,0,2,4)
    ShowMessage("\\n<Alice>It looked to me like you fell asleep standing up. Whatever, let's just go.")
    0()
   EndIf()
   If(0,5,0)
    ShowMessageFace("iriasu_fc4",0,0,2,5)
    ShowMessage("\\n<Ilias>Hades? Never heard of it, which means it doesn't exist.")
    0()
   EndIf()
   ShowMessageFace("ruka_fc1",0,0,2,6)
   ShowMessage("\\n<Luka>......")
   0()
  Else()
   0()
  EndIf()
  0()



EVENT   4
 PAGE   1
  // condition: variable 1003 >= 8
  ShowMessageFace("gob_fc1",0,0,2,1)
  ShowMessage("\\n<Goblin Girl>Here I come, hero! The Four Legendary Bandits' Goblin of Earth will be your opponent!")
  283("RockCave1","RockCave")
  ChangeSwitch(97,97,0)
  ChangeSwitch(22,22,0)
  ChangeVariable(1002,1002,0,0,2)
  Battle(0,26,false,false)
  ChangeSwitch(22,22,1)
  ChangeSwitch(97,97,1)
  TemporaryRemoveEvent()
  0()



EVENT   6
 PAGE   1
  // condition: variable 1003 >= 8
  ShowMessageFace("pramia_fc1",0,0,2,1)
  ShowMessage("\\n<Tiny Lamia>Huhu, you've come! I am one of the Four Legendary Bandits, the Lamia of Water!")
  ShowMessageFace("pramia_fc1",2,0,2,2)
  ShowMessage("\\n<Tiny Lamia>Wh-why do you look so disappointed! Let's see you make that face when I'm coiled around you!")
  283("RockCave1","RockCave")
  ChangeSwitch(97,97,0)
  ChangeSwitch(22,22,0)
  ChangeVariable(1002,1002,0,0,2)
  Battle(0,27,false,false)
  ChangeSwitch(22,22,1)
  ChangeSwitch(97,97,1)
  TemporaryRemoveEvent()
  0()



EVENT   7
 PAGE   1
  // condition: variable 1003 >= 8
  ShowMessageFace("vgirl_fc1",0,0,2,1)
  ShowMessage("\\n<Vampire Girl>I am the evil who flaps in the night, the Four Heavenly Bandit Vampire of Wind!")
  ShowMessageFace("vgirl_fc1",0,0,2,2)
  ShowMessage("\\n<Vampire Girl>Heheh... My prey comes to me tonight!")
  ShowMessageFace("vgirl_fc1",0,0,2,3)
  ShowMessage("\\n<Vampire Girl>Cower in fear at my power!")
  283("RockCave1","RockCave")
  ChangeSwitch(97,97,0)
  ChangeSwitch(22,22,0)
  ChangeVariable(1002,1002,0,0,2)
  Battle(0,28,false,false)
  ChangeSwitch(22,22,1)
  ChangeSwitch(97,97,1)
  TemporaryRemoveEvent()
  0()



EVENT   8
 PAGE   1
  // condition: variable 1003 >= 8
  ShowMessageFace("dragonp_fc1",0,0,2,1)
  ShowMessage("\\n<Dragon Pup>I am the final of the Four Heavenly Bandits, the Dragon of Fire! Well done making it this far, hero!")
  ShowMessageFace("dragonp_fc1",0,0,2,2)
  ShowMessage("\\n<Dragon Pup>Rawr! Here I come!")
  283("RockCave1","RockCave")
  ChangeSwitch(97,97,0)
  ChangeSwitch(22,22,0)
  ChangeVariable(1002,1002,0,0,2)
  Battle(0,29,false,false)
  ChangeSwitch(22,22,1)
  ChangeSwitch(97,97,1)
  TemporaryRemoveEvent()
  0()



EVENT   3
 PAGE   1
  ShowMessageFace("bunnyslime_fc1",0,0,2,1)
  ShowMessage("\\n<Bunny Slime>Ooh, so you came to help this villager? You sure look a lot tastier than he does.")
  ShowMessageFace("bunnyslime_fc1",0,0,2,2)
  ShowMessage("\\n<Bunny Slime>Hop hop! Gonna make you slop too♪")
  SetBattleBGM(bytes(0x04,0x08,0x6f,0x3a,0x0d,0x52,0x50,0x47,0x3a,0x3a,0x42,0x47,0x4d,0x08,0x3a,0x0a,0x40,0x6e,0x61,0x6d,0x65,0x49,0x22,0x0a,0x62,0x6f,0x73,0x73,0x31,0x06,0x3a,0x06,0x45,0x54,0x3a,0x0c,0x40,0x76,0x6f,0x6c,0x75,0x6d,0x65,0x69,0x69,0x3a,0x0b,0x40,0x70,0x69,0x74,0x63,0x68,0x69,0x69))
  283("イリアスヴィル裏山","")
  PictureClear(5)
  ChangeSwitch(97,97,0)
  ChangeSwitch(22,22,0)
  ChangeVariable(1002,1002,0,0,2)
  Battle(0,3,false,false)
  ChangeSwitch(22,22,1)
  ChangeSwitch(97,97,1)
  SetBattleBGM(bytes(0x04,0x08,0x6f,0x3a,0x0d,0x52,0x50,0x47,0x3a,0x3a,0x42,0x47,0x4d,0x08,0x3a,0x0a,0x40,0x6e,0x61,0x6d,0x65,0x49,0x22,0x0b,0x62,0x61,0x74,0x74,0x6c,0x65,0x06,0x3a,0x06,0x45,0x54,0x3a,0x0c,0x40,0x76,0x6f,0x6c,0x75,0x6d,0x65,0x69,0x69,0x3a,0x0b,0x40,0x70,0x69,0x74,0x63,0x68,0x69,0x69))
  TemporaryRemoveEvent()
  0()



EVENT   10
 PAGE   1
  // condition: variable 1017 >= 2
  ShowMessageFace("name2_fc1",0,0,2,1)
  ShowMessage("\\n<Sluggy Star A>Oh my, what's a human doing here? Did you come to help us reproduce, perhaps?")
  ShowMessageFace("name2_fc1",3,0,2,2)
  ShowMessage("\\n<Sluggy Star B>Huhuhu... I can tell your seed is excellent from here. You'll help us birth strong children...")
  ShowMessageFace("name2_fc1",6,0,2,3)
  ShowMessage("\\n<Sluggy Star C>Let's get to mating right away! Let us give you a taste of Heaven!")
  SetBattleBGM(bytes(0x04,0x08,0x6f,0x3a,0x0d,0x52,0x50,0x47,0x3a,0x3a,0x42,0x47,0x4d,0x08,0x3a,0x0a,0x40,0x6e,0x61,0x6d,0x65,0x49,0x22,0x0a,0x62,0x6f,0x73,0x73,0x31,0x06,0x3a,0x06,0x45,0x54,0x3a,0x0c,0x40,0x76,0x6f,0x6c,0x75,0x6d,0x65,0x69,0x69,0x3a,0x0b,0x40,0x70,0x69,0x74,0x63,0x68,0x69,0x69))
  283("slagbg","")
  PictureClear(5)
  ChangeSwitch(97,97,0)
  ChangeSwitch(22,22,0)
  ChangeVariable(1002,1002,0,0,2)
  Battle(0,80,false,false)
  ChangeSwitch(22,22,1)
  ChangeSwitch(97,97,1)
  SetBattleBGM(bytes(0x04,0x08,0x6f,0x3a,0x0d,0x52,0x50,0x47,0x3a,0x3a,0x42,0x47,0x4d,0x08,0x3a,0x0a,0x40,0x6e,0x61,0x6d,0x65,0x49,0x22,0x0b,0x62,0x61,0x74,0x74,0x6c,0x65,0x06,0x3a,0x06,0x45,0x54,0x3a,0x0c,0x40,0x76,0x6f,0x6c,0x75,0x6d,0x65,0x69,0x69,0x3a,0x0b,0x40,0x70,0x69,0x74,0x63,0x68,0x69,0x69))
  TemporaryRemoveEvent()
  0()



EVENT   12
 PAGE   1
  // condition: variable 1011 >= 4
  ShowMessageFace("queenhapy_fc1",1,0,2,1)
  ShowMessage("\\n<Queen Harpy>Curse your bad luck for appearing before me as I am now. I shall embrace you and drive you mad with a queen's infinite pleasure...")
  SetBattleBGM(bytes(0x04,0x08,0x6f,0x3a,0x0d,0x52,0x50,0x47,0x3a,0x3a,0x42,0x47,0x4d,0x08,0x3a,0x0a,0x40,0x6e,0x61,0x6d,0x65,0x49,0x22,0x0a,0x62,0x6f,0x73,0x73,0x31,0x06,0x3a,0x06,0x45,0x54,0x3a,0x0c,0x40,0x76,0x6f,0x6c,0x75,0x6d,0x65,0x69,0x69,0x3a,0x0b,0x40,0x70,0x69,0x74,0x63,0x68,0x69,0x69))
  283("Cobblestones1","Stone1")
  PictureClear(5)
  ChangeSwitch(97,97,0)
  ChangeSwitch(22,22,0)
  ChangeVariable(1002,1002,0,0,2)
  Battle(0,71,false,false)
  ChangeSwitch(22,22,1)
  ChangeSwitch(97,97,1)
  SetBattleBGM(bytes(0x04,0x08,0x6f,0x3a,0x0d,0x52,0x50,0x47,0x3a,0x3a,0x42,0x47,0x4d,0x08,0x3a,0x0a,0x40,0x6e,0x61,0x6d,0x65,0x49,0x22,0x0b,0x62,0x61,0x74,0x74,0x6c,0x65,0x06,0x3a,0x06,0x45,0x54,0x3a,0x0c,0x40,0x76,0x6f,0x6c,0x75,0x6d,0x65,0x69,0x69,0x3a,0x0b,0x40,0x70,0x69,0x74,0x63,0x68,0x69,0x69))
  TemporaryRemoveEvent()
  0()



EVENT   14
 PAGE   1
  // condition: variable 1019 >= 6
  ShowMessageFace("morrigan_fc1",1,0,2,1)
  ShowMessage("\\n<Morrigan>Are you going to take me on?\nIt would be reeeeeeal bad if I killed you though...")
  ShowMessageFace("morrigan_fc1",1,0,2,2)
  ShowMessage("\\n<Morrigan>How about I just go super, super easy on you? I won't touch you with either my hands or feet!")
  SetBattleBGM(bytes(0x04,0x08,0x6f,0x3a,0x0d,0x52,0x50,0x47,0x3a,0x3a,0x42,0x47,0x4d,0x08,0x3a,0x0a,0x40,0x6e,0x61,0x6d,0x65,0x49,0x22,0x10,0x62,0x6f,0x73,0x73,0x5f,0x6c,0x69,0x6c,0x69,0x74,0x68,0x06,0x3a,0x06,0x45,0x54,0x3a,0x0c,0x40,0x76,0x6f,0x6c,0x75,0x6d,0x65,0x69,0x69,0x3a,0x0b,0x40,0x70,0x69,0x74,0x63,0x68,0x69,0x69))
  283("Ship","Ship")
  PictureClear(5)
  ChangeSwitch(97,97,0)
  ChangeSwitch(22,22,0)
  ChangeVariable(1002,1002,0,0,2)
  Battle(0,126,false,false)
  ChangeSwitch(22,22,1)
  ChangeSwitch(97,97,1)
  SetBattleBGM(bytes(0x04,0x08,0x6f,0x3a,0x0d,0x52,0x50,0x47,0x3a,0x3a,0x42,0x47,0x4d,0x08,0x3a,0x0a,0x40,0x6e,0x61,0x6d,0x65,0x49,0x22,0x0b,0x62,0x61,0x74,0x74,0x6c,0x65,0x06,0x3a,0x06,0x45,0x54,0x3a,0x0c,0x40,0x76,0x6f,0x6c,0x75,0x6d,0x65,0x69,0x69,0x3a,0x0b,0x40,0x70,0x69,0x74,0x63,0x68,0x69,0x69))
  TemporaryRemoveEvent()
  0()



EVENT   15
 PAGE   1
  // condition: variable 1016 >= 3
  ShowMessageFace("meia_fc1",1,0,2,1)
  ShowMessage("\\n<Meia>I will show you no mercy if you oppose me. After all, I'm the Queen.")
  SetBattleBGM(bytes(0x04,0x08,0x6f,0x3a,0x0d,0x52,0x50,0x47,0x3a,0x3a,0x42,0x47,0x4d,0x08,0x3a,0x0a,0x40,0x6e,0x61,0x6d,0x65,0x49,0x22,0x0a,0x62,0x6f,0x73,0x73,0x31,0x06,0x3a,0x06,0x45,0x54,0x3a,0x0c,0x40,0x76,0x6f,0x6c,0x75,0x6d,0x65,0x69,0x69,0x3a,0x0b,0x40,0x70,0x69,0x74,0x63,0x68,0x69,0x69))
  283("海底神殿","")
  PictureClear(5)
  ChangeSwitch(97,97,0)
  ChangeSwitch(22,22,0)
  ChangeVariable(1002,1002,0,0,2)
  Battle(0,155,false,false)
  ChangeSwitch(22,22,1)
  ChangeSwitch(97,97,1)
  SetBattleBGM(bytes(0x04,0x08,0x6f,0x3a,0x0d,0x52,0x50,0x47,0x3a,0x3a,0x42,0x47,0x4d,0x08,0x3a,0x0a,0x40,0x6e,0x61,0x6d,0x65,0x49,0x22,0x0b,0x62,0x61,0x74,0x74,0x6c,0x65,0x06,0x3a,0x06,0x45,0x54,0x3a,0x0c,0x40,0x76,0x6f,0x6c,0x75,0x6d,0x65,0x69,0x69,0x3a,0x0b,0x40,0x70,0x69,0x74,0x63,0x68,0x69,0x69))
  TemporaryRemoveEvent()
  0()



EVENT   22
 PAGE   1
  // condition: variable 1028 >= 8
  ShowMessageFace("astaroth_fc1",0,0,2,1)
  ShowMessage("\\n<Astaroth>You think you can win against me...? Behold the difference in our strength...!")
  SetBattleBGM(bytes(0x04,0x08,0x6f,0x3a,0x0d,0x52,0x50,0x47,0x3a,0x3a,0x42,0x47,0x4d,0x08,0x3a,0x0a,0x40,0x6e,0x61,0x6d,0x65,0x49,0x22,0x10,0x62,0x6f,0x73,0x73,0x5f,0x6c,0x69,0x6c,0x69,0x74,0x68,0x06,0x3a,0x06,0x45,0x54,0x3a,0x0c,0x40,0x76,0x6f,0x6c,0x75,0x6d,0x65,0x69,0x69,0x3a,0x0b,0x40,0x70,0x69,0x74,0x63,0x68,0x69,0x69))
  283("DirtField","Town3")
  ChangeSwitch(97,97,0)
  ChangeSwitch(22,22,0)
  ChangeVariable(1002,1002,0,0,2)
  Battle(0,249,false,false)
  ChangeSwitch(22,22,1)
  ChangeSwitch(97,97,1)
  SetBattleBGM(bytes(0x04,0x08,0x6f,0x3a,0x0d,0x52,0x50,0x47,0x3a,0x3a,0x42,0x47,0x4d,0x08,0x3a,0x0a,0x40,0x6e,0x61,0x6d,0x65,0x49,0x22,0x0b,0x62,0x61,0x74,0x74,0x6c,0x65,0x06,0x3a,0x06,0x45,0x54,0x3a,0x0c,0x40,0x76,0x6f,0x6c,0x75,0x6d,0x65,0x69,0x69,0x3a,0x0b,0x40,0x70,0x69,0x74,0x63,0x68,0x69,0x69))
  TemporaryRemoveEvent()
  0()



EVENT   19
 PAGE   1
  // condition: variable 1023 >= 2
  ShowMessageFace("chrom_fc2",2,0,2,1)
  ShowMessage("\\n<Chrome>Let's go, Frederica! We'll teach them the strength of my art!")
  ShowMessageFace("frederika_fc1",0,0,2,2)
  ShowMessage("\\n<Frederica>I am Chrome's servant. I won't show mercy to Chrome's enemies.")
  SetBattleBGM(bytes(0x04,0x08,0x6f,0x3a,0x0d,0x52,0x50,0x47,0x3a,0x3a,0x42,0x47,0x4d,0x08,0x3a,0x0a,0x40,0x6e,0x61,0x6d,0x65,0x49,0x22,0x0a,0x62,0x6f,0x73,0x73,0x31,0x06,0x3a,0x06,0x45,0x54,0x3a,0x0c,0x40,0x76,0x6f,0x6c,0x75,0x6d,0x65,0x69,0x69,0x3a,0x0b,0x40,0x70,0x69,0x74,0x63,0x68,0x69,0x69))
  283("北のお化け屋敷3","")
  ChangeSwitch(97,97,0)
  ChangeSwitch(22,22,0)
  ChangeVariable(1002,1002,0,0,2)
  Battle(0,196,false,false)
  ChangeSwitch(22,22,1)
  ChangeSwitch(97,97,1)
  SetBattleBGM(bytes(0x04,0x08,0x6f,0x3a,0x0d,0x52,0x50,0x47,0x3a,0x3a,0x42,0x47,0x4d,0x08,0x3a,0x0a,0x40,0x6e,0x61,0x6d,0x65,0x49,0x22,0x0b,0x62,0x61,0x74,0x74,0x6c,0x65,0x06,0x3a,0x06,0x45,0x54,0x3a,0x0c,0x40,0x76,0x6f,0x6c,0x75,0x6d,0x65,0x69,0x69,0x3a,0x0b,0x40,0x70,0x69,0x74,0x63,0x68,0x69,0x69))
  TemporaryRemoveEvent()
  0()



EVENT   18
 PAGE   1
  // condition: variable 1023 >= 2
  ShowMessageFace("chrom_fc2",2,0,2,1)
  ShowMessage("\\n<Chrome>Let's go, Frederica! We'll teach them the strength of my art!")
  ShowMessageFace("frederika_fc1",0,0,2,2)
  ShowMessage("\\n<Frederica>I am Chrome's servant. I won't show mercy to Chrome's enemies.")
  SetBattleBGM(bytes(0x04,0x08,0x6f,0x3a,0x0d,0x52,0x50,0x47,0x3a,0x3a,0x42,0x47,0x4d,0x08,0x3a,0x0a,0x40,0x6e,0x61,0x6d,0x65,0x49,0x22,0x0a,0x62,0x6f,0x73,0x73,0x31,0x06,0x3a,0x06,0x45,0x54,0x3a,0x0c,0x40,0x76,0x6f,0x6c,0x75,0x6d,0x65,0x69,0x69,0x3a,0x0b,0x40,0x70,0x69,0x74,0x63,0x68,0x69,0x69))
  283("北のお化け屋敷3","")
  ChangeSwitch(97,97,0)
  ChangeSwitch(22,22,0)
  ChangeVariable(1002,1002,0,0,2)
  Battle(0,196,false,false)
  ChangeSwitch(22,22,1)
  ChangeSwitch(97,97,1)
  SetBattleBGM(bytes(0x04,0x08,0x6f,0x3a,0x0d,0x52,0x50,0x47,0x3a,0x3a,0x42,0x47,0x4d,0x08,0x3a,0x0a,0x40,0x6e,0x61,0x6d,0x65,0x49,0x22,0x0b,0x62,0x61,0x74,0x74,0x6c,0x65,0x06,0x3a,0x06,0x45,0x54,0x3a,0x0c,0x40,0x76,0x6f,0x6c,0x75,0x6d,0x65,0x69,0x69,0x3a,0x0b,0x40,0x70,0x69,0x74,0x63,0x68,0x69,0x69))
  TemporaryRemoveEvent()
  0()



EVENT   30
 PAGE   1
  // condition: variable 1032 >= 7
  ShowMessageFace("adramelek_fc1",4,0,2,1)
  ShowMessage("\\n<Adramelech>Initiating erasure...")
  SetBattleBGM(bytes(0x04,0x08,0x6f,0x3a,0x0d,0x52,0x50,0x47,0x3a,0x3a,0x42,0x47,0x4d,0x08,0x3a,0x0a,0x40,0x6e,0x61,0x6d,0x65,0x49,0x22,0x0e,0x62,0x6f,0x73,0x73,0x5f,0x61,0x64,0x72,0x61,0x06,0x3a,0x06,0x45,0x54,0x3a,0x0c,0x40,0x76,0x6f,0x6c,0x75,0x6d,0x65,0x69,0x69,0x3a,0x0b,0x40,0x70,0x69,0x74,0x63,0x68,0x69,0x69))
  283("DarkSpace","DarkSpace")
  ChangeSwitch(97,97,0)
  ChangeSwitch(22,22,0)
  ChangeVariable(1002,1002,0,0,2)
  Battle(0,327,false,false)
  ChangeSwitch(22,22,1)
  ChangeSwitch(97,97,1)
  SetBattleBGM(bytes(0x04,0x08,0x6f,0x3a,0x0d,0x52,0x50,0x47,0x3a,0x3a,0x42,0x47,0x4d,0x08,0x3a,0x0a,0x40,0x6e,0x61,0x6d,0x65,0x49,0x22,0x0b,0x62,0x61,0x74,0x74,0x6c,0x65,0x06,0x3a,0x06,0x45,0x54,0x3a,0x0c,0x40,0x76,0x6f,0x6c,0x75,0x6d,0x65,0x69,0x69,0x3a,0x0b,0x40,0x70,0x69,0x74,0x63,0x68,0x69,0x69))
  TemporaryRemoveEvent()
  0()



EVENT   11
 PAGE   1
  // condition: variable 1013 >= 2
  ShowMessageFace("nuruko_fc1",0,0,2,1)
  ShowMessage("\\n<???>Kyuu!")
  SetBattleBGM(bytes(0x04,0x08,0x6f,0x3a,0x0d,0x52,0x50,0x47,0x3a,0x3a,0x42,0x47,0x4d,0x08,0x3a,0x0a,0x40,0x6e,0x61,0x6d,0x65,0x49,0x22,0x0a,0x62,0x6f,0x73,0x73,0x31,0x06,0x3a,0x06,0x45,0x54,0x3a,0x0c,0x40,0x76,0x6f,0x6c,0x75,0x6d,0x65,0x69,0x69,0x3a,0x0b,0x40,0x70,0x69,0x74,0x63,0x68,0x69,0x69))
  283("Wood1","Room1")
  PictureClear(5)
  ChangeSwitch(97,97,0)
  ChangeSwitch(22,22,0)
  ChangeVariable(1002,1002,0,0,2)
  Battle(0,57,false,false)
  ChangeSwitch(22,22,1)
  ChangeSwitch(97,97,1)
  SetBattleBGM(bytes(0x04,0x08,0x6f,0x3a,0x0d,0x52,0x50,0x47,0x3a,0x3a,0x42,0x47,0x4d,0x08,0x3a,0x0a,0x40,0x6e,0x61,0x6d,0x65,0x49,0x22,0x0b,0x62,0x61,0x74,0x74,0x6c,0x65,0x06,0x3a,0x06,0x45,0x54,0x3a,0x0c,0x40,0x76,0x6f,0x6c,0x75,0x6d,0x65,0x69,0x69,0x3a,0x0b,0x40,0x70,0x69,0x74,0x63,0x68,0x69,0x69))
  TemporaryRemoveEvent()
  0()



EVENT   17
 PAGE   1
  // condition: variable 1022 >= 6
  ShowMessageFace("brunhild_fc1",0,0,2,1)
  ShowMessage("\\n<Brynhildr>Are you destroying the world? Hild will protect the world...")
  ShowMessageFace("brunhild_fc1",0,0,2,2)
  ShowMessage("\\n<Brynhildr>Combat mode: on. Those who destroy the world are Hild's enemies.")
  SetBattleBGM(bytes(0x04,0x08,0x6f,0x3a,0x0d,0x52,0x50,0x47,0x3a,0x3a,0x42,0x47,0x4d,0x08,0x3a,0x0a,0x40,0x6e,0x61,0x6d,0x65,0x49,0x22,0x0a,0x62,0x6f,0x73,0x73,0x32,0x06,0x3a,0x06,0x45,0x54,0x3a,0x0c,0x40,0x76,0x6f,0x6c,0x75,0x6d,0x65,0x69,0x69,0x3a,0x0b,0x40,0x70,0x69,0x74,0x63,0x68,0x69,0x69))
  283("hivecity-slum","")
  ChangeSwitch(97,97,0)
  ChangeSwitch(22,22,0)
  ChangeVariable(1002,1002,0,0,2)
  Battle(0,183,false,false)
  ChangeSwitch(22,22,1)
  ChangeSwitch(97,97,1)
  SetBattleBGM(bytes(0x04,0x08,0x6f,0x3a,0x0d,0x52,0x50,0x47,0x3a,0x3a,0x42,0x47,0x4d,0x08,0x3a,0x0a,0x40,0x6e,0x61,0x6d,0x65,0x49,0x22,0x0b,0x62,0x61,0x74,0x74,0x6c,0x65,0x06,0x3a,0x06,0x45,0x54,0x3a,0x0c,0x40,0x76,0x6f,0x6c,0x75,0x6d,0x65,0x69,0x69,0x3a,0x0b,0x40,0x70,0x69,0x74,0x63,0x68,0x69,0x69))
  TemporaryRemoveEvent()
  0()



EVENT   21
 PAGE   1
  // condition: variable 1024 >= 6
  ShowMessageFace("eva_fc1",2,0,2,1)
  ShowMessage("\\n<Eva>I won't forgive you! I will squeeze you dry!")
  SetBattleBGM(bytes(0x04,0x08,0x6f,0x3a,0x0d,0x52,0x50,0x47,0x3a,0x3a,0x42,0x47,0x4d,0x08,0x3a,0x0a,0x40,0x6e,0x61,0x6d,0x65,0x49,0x22,0x0a,0x62,0x6f,0x73,0x73,0x31,0x06,0x3a,0x06,0x45,0x54,0x3a,0x0c,0x40,0x76,0x6f,0x6c,0x75,0x6d,0x65,0x69,0x69,0x3a,0x0b,0x40,0x70,0x69,0x74,0x63,0x68,0x69,0x69))
  283("Dirt1","Wasteland")
  ChangeSwitch(97,97,0)
  ChangeSwitch(22,22,0)
  ChangeVariable(1002,1002,0,0,2)
  Battle(0,218,false,false)
  ChangeSwitch(22,22,1)
  ChangeSwitch(97,97,1)
  SetBattleBGM(bytes(0x04,0x08,0x6f,0x3a,0x0d,0x52,0x50,0x47,0x3a,0x3a,0x42,0x47,0x4d,0x08,0x3a,0x0a,0x40,0x6e,0x61,0x6d,0x65,0x49,0x22,0x0b,0x62,0x61,0x74,0x74,0x6c,0x65,0x06,0x3a,0x06,0x45,0x54,0x3a,0x0c,0x40,0x76,0x6f,0x6c,0x75,0x6d,0x65,0x69,0x69,0x3a,0x0b,0x40,0x70,0x69,0x74,0x63,0x68,0x69,0x69))
  TemporaryRemoveEvent()
  0()



EVENT   25
 PAGE   1
  // condition: switch 2096 is ON
  ShowMessageFace("lily_fc1",2,0,2,1)
  ShowMessage("\\n<Lily>I see... then it can't be helped. I'll turn you into my research specimens as well!")
  ShowMessageFace("lily_fc1",3,0,2,2)
  ShowMessage("\\n<Lily>The secret magic technique I devised... behold the fusion of human body and dark energy!")
  SetBattleBGM(bytes(0x04,0x08,0x6f,0x3a,0x0d,0x52,0x50,0x47,0x3a,0x3a,0x42,0x47,0x4d,0x08,0x3a,0x0a,0x40,0x6e,0x61,0x6d,0x65,0x49,0x22,0x0a,0x62,0x6f,0x73,0x73,0x31,0x06,0x3a,0x06,0x45,0x54,0x3a,0x0c,0x40,0x76,0x6f,0x6c,0x75,0x6d,0x65,0x69,0x69,0x3a,0x0b,0x40,0x70,0x69,0x74,0x63,0x68,0x69,0x69))
  283("リリィの屋敷2","")
  ChangeSwitch(97,97,0)
  ChangeSwitch(22,22,0)
  ChangeVariable(1002,1002,0,0,2)
  Battle(0,270,false,false)
  ChangeSwitch(22,22,1)
  ChangeSwitch(97,97,1)
  SetBattleBGM(bytes(0x04,0x08,0x6f,0x3a,0x0d,0x52,0x50,0x47,0x3a,0x3a,0x42,0x47,0x4d,0x08,0x3a,0x0a,0x40,0x6e,0x61,0x6d,0x65,0x49,0x22,0x0b,0x62,0x61,0x74,0x74,0x6c,0x65,0x06,0x3a,0x06,0x45,0x54,0x3a,0x0c,0x40,0x76,0x6f,0x6c,0x75,0x6d,0x65,0x69,0x69,0x3a,0x0b,0x40,0x70,0x69,0x74,0x63,0x68,0x69,0x69))
  TemporaryRemoveEvent()
  0()



EVENT   26
 PAGE   1
  // condition: switch 2097 is ON
  ShowMessageFace("lusia_fc1",0,0,2,1)
  ShowMessage("\\n<Lucia>I'll burn you to ash then...! I won't show mercy to Lily's supporters!")
  SetBattleBGM(bytes(0x04,0x08,0x6f,0x3a,0x0d,0x52,0x50,0x47,0x3a,0x3a,0x42,0x47,0x4d,0x08,0x3a,0x0a,0x40,0x6e,0x61,0x6d,0x65,0x49,0x22,0x0a,0x62,0x6f,0x73,0x73,0x31,0x06,0x3a,0x06,0x45,0x54,0x3a,0x0c,0x40,0x76,0x6f,0x6c,0x75,0x6d,0x65,0x69,0x69,0x3a,0x0b,0x40,0x70,0x69,0x74,0x63,0x68,0x69,0x69))
  283("魔導の塔","")
  ChangeSwitch(97,97,0)
  ChangeSwitch(22,22,0)
  ChangeVariable(1002,1002,0,0,2)
  Battle(0,280,false,false)
  ChangeSwitch(22,22,1)
  ChangeSwitch(97,97,1)
  SetBattleBGM(bytes(0x04,0x08,0x6f,0x3a,0x0d,0x52,0x50,0x47,0x3a,0x3a,0x42,0x47,0x4d,0x08,0x3a,0x0a,0x40,0x6e,0x61,0x6d,0x65,0x49,0x22,0x0b,0x62,0x61,0x74,0x74,0x6c,0x65,0x06,0x3a,0x06,0x45,0x54,0x3a,0x0c,0x40,0x76,0x6f,0x6c,0x75,0x6d,0x65,0x69,0x69,0x3a,0x0b,0x40,0x70,0x69,0x74,0x63,0x68,0x69,0x69))
  TemporaryRemoveEvent()
  0()



EVENT   29
 PAGE   1
  // condition: switch 2103 is ON
  ShowMessageFace("sinigami_fc1",0,0,2,1)
  ShowMessage("\\n<Reaper>You might as well fight with a powerful being from the current world. F10229X135Y089's copy, and paste here.")
  SetBattleBGM(bytes(0x04,0x08,0x6f,0x3a,0x0d,0x52,0x50,0x47,0x3a,0x3a,0x42,0x47,0x4d,0x08,0x3a,0x0a,0x40,0x6e,0x61,0x6d,0x65,0x49,0x22,0x0f,0x62,0x6f,0x73,0x73,0x5f,0x6d,0x61,0x6f,0x75,0x31,0x06,0x3a,0x06,0x45,0x54,0x3a,0x0c,0x40,0x76,0x6f,0x6c,0x75,0x6d,0x65,0x69,0x69,0x3a,0x0b,0x40,0x70,0x69,0x74,0x63,0x68,0x69,0x69))
  283("GrassMaze","Forest2")
  ChangeSwitch(97,97,0)
  ChangeSwitch(22,22,0)
  ChangeVariable(1002,1002,0,0,2)
  Battle(0,72,false,false)
  ChangeSwitch(22,22,1)
  ChangeSwitch(97,97,1)
  SetBattleBGM(bytes(0x04,0x08,0x6f,0x3a,0x0d,0x52,0x50,0x47,0x3a,0x3a,0x42,0x47,0x4d,0x08,0x3a,0x0a,0x40,0x6e,0x61,0x6d,0x65,0x49,0x22,0x0b,0x62,0x61,0x74,0x74,0x6c,0x65,0x06,0x3a,0x06,0x45,0x54,0x3a,0x0c,0x40,0x76,0x6f,0x6c,0x75,0x6d,0x65,0x69,0x69,0x3a,0x0b,0x40,0x70,0x69,0x74,0x63,0x68,0x69,0x69))
  TemporaryRemoveEvent()
  0()



EVENT   24
 PAGE   1
  // condition: switch 2090 is ON
  ShowMessageFace("sphinx_fc1",0,0,2,1)
  ShowMessage("\\n<Sphinx>Well then, let's get serious for the first time in a long time...!")
  SetBattleBGM(bytes(0x04,0x08,0x6f,0x3a,0x0d,0x52,0x50,0x47,0x3a,0x3a,0x42,0x47,0x4d,0x08,0x3a,0x0a,0x40,0x6e,0x61,0x6d,0x65,0x49,0x22,0x0a,0x62,0x6f,0x73,0x73,0x31,0x06,0x3a,0x06,0x45,0x54,0x3a,0x0c,0x40,0x76,0x6f,0x6c,0x75,0x6d,0x65,0x69,0x69,0x3a,0x0b,0x40,0x70,0x69,0x74,0x63,0x68,0x69,0x69))
  283("ピラミッド2","")
  ChangeSwitch(97,97,0)
  ChangeSwitch(22,22,0)
  ChangeVariable(1002,1002,0,0,2)
  Battle(0,247,false,false)
  ChangeSwitch(22,22,1)
  ChangeSwitch(97,97,1)
  SetBattleBGM(bytes(0x04,0x08,0x6f,0x3a,0x0d,0x52,0x50,0x47,0x3a,0x3a,0x42,0x47,0x4d,0x08,0x3a,0x0a,0x40,0x6e,0x61,0x6d,0x65,0x49,0x22,0x0b,0x62,0x61,0x74,0x74,0x6c,0x65,0x06,0x3a,0x06,0x45,0x54,0x3a,0x0c,0x40,0x76,0x6f,0x6c,0x75,0x6d,0x65,0x69,0x69,0x3a,0x0b,0x40,0x70,0x69,0x74,0x63,0x68,0x69,0x69))
  TemporaryRemoveEvent()
  0()



EVENT   13
 PAGE   1
  // condition: switch 2124 is ON
  ShowMessageFace("nanabi_fc1",0,0,2,1)
  ShowMessage("\\n<Nanabi>Beyond this point lies the treasury. I can't let you pass. You are free to leave, but if you wish to continue on...")
  SetBattleBGM(bytes(0x04,0x08,0x6f,0x3a,0x0d,0x52,0x50,0x47,0x3a,0x3a,0x42,0x47,0x4d,0x08,0x3a,0x0a,0x40,0x6e,0x61,0x6d,0x65,0x49,0x22,0x0a,0x62,0x6f,0x73,0x73,0x31,0x06,0x3a,0x06,0x45,0x54,0x3a,0x0c,0x40,0x76,0x6f,0x6c,0x75,0x6d,0x65,0x69,0x69,0x3a,0x0b,0x40,0x70,0x69,0x74,0x63,0x68,0x69,0x69))
  283("RockCave1","RockCave")
  PictureClear(5)
  ChangeSwitch(97,97,0)
  ChangeSwitch(22,22,0)
  ChangeVariable(1002,1002,0,0,2)
  Battle(0,125,false,false)
  ChangeSwitch(22,22,1)
  ChangeSwitch(97,97,1)
  SetBattleBGM(bytes(0x04,0x08,0x6f,0x3a,0x0d,0x52,0x50,0x47,0x3a,0x3a,0x42,0x47,0x4d,0x08,0x3a,0x0a,0x40,0x6e,0x61,0x6d,0x65,0x49,0x22,0x0b,0x62,0x61,0x74,0x74,0x6c,0x65,0x06,0x3a,0x06,0x45,0x54,0x3a,0x0c,0x40,0x76,0x6f,0x6c,0x75,0x6d,0x65,0x69,0x69,0x3a,0x0b,0x40,0x70,0x69,0x74,0x63,0x68,0x69,0x69))
  TemporaryRemoveEvent()
  0()



EVENT   16
 PAGE   1
  // condition: variable 1001 >= 15
  ShowMessageFace("page65537_fc1",1,0,2,1)
  ShowMessage("\\n<Page 65537>Come... I will make those who go against the Monster Lord crawl beneath my feet!")
  SetBattleBGM(bytes(0x04,0x08,0x6f,0x3a,0x0d,0x52,0x50,0x47,0x3a,0x3a,0x42,0x47,0x4d,0x08,0x3a,0x0a,0x40,0x6e,0x61,0x6d,0x65,0x49,0x22,0x0a,0x62,0x6f,0x73,0x73,0x31,0x06,0x3a,0x06,0x45,0x54,0x3a,0x0c,0x40,0x76,0x6f,0x6c,0x75,0x6d,0x65,0x69,0x69,0x3a,0x0b,0x40,0x70,0x69,0x74,0x63,0x68,0x69,0x69))
  283("地下図書館","")
  ChangeSwitch(97,97,0)
  ChangeSwitch(22,22,0)
  ChangeVariable(1002,1002,0,0,2)
  Battle(0,162,false,false)
  ChangeSwitch(22,22,1)
  ChangeSwitch(97,97,1)
  SetBattleBGM(bytes(0x04,0x08,0x6f,0x3a,0x0d,0x52,0x50,0x47,0x3a,0x3a,0x42,0x47,0x4d,0x08,0x3a,0x0a,0x40,0x6e,0x61,0x6d,0x65,0x49,0x22,0x0b,0x62,0x61,0x74,0x74,0x6c,0x65,0x06,0x3a,0x06,0x45,0x54,0x3a,0x0c,0x40,0x76,0x6f,0x6c,0x75,0x6d,0x65,0x69,0x69,0x3a,0x0b,0x40,0x70,0x69,0x74,0x63,0x68,0x69,0x69))
  TemporaryRemoveEvent()
  0()



EVENT   9
 PAGE   1
  // condition: variable 1004 >= 6
  ShowMessageFace("phoenix_fc1",0,0,2,1)
  ShowMessage("\\n<Mini>They're the ones trying to kidnap and sell me!?")
  ShowMessageFace("phoenix_fc1",0,0,2,2)
  ShowMessage("\\n<Mini>Yep, that's right. Get 'em, Mini!")
  SetBattleBGM(bytes(0x04,0x08,0x6f,0x3a,0x0d,0x52,0x50,0x47,0x3a,0x3a,0x42,0x47,0x4d,0x08,0x3a,0x0a,0x40,0x6e,0x61,0x6d,0x65,0x49,0x22,0x0a,0x62,0x6f,0x73,0x73,0x31,0x06,0x3a,0x06,0x45,0x54,0x3a,0x0c,0x40,0x76,0x6f,0x6c,0x75,0x6d,0x65,0x69,0x69,0x3a,0x0b,0x40,0x70,0x69,0x74,0x63,0x68,0x69,0x69))
  ChangeSwitch(97,97,0)
  283("Dirt2","Stone2")
  ChangeSwitch(22,22,0)
  ChangeVariable(1002,1002,0,0,2)
  Battle(0,37,false,false)
  ChangeSwitch(22,22,1)
  SetBattleBGM(bytes(0x04,0x08,0x6f,0x3a,0x0d,0x52,0x50,0x47,0x3a,0x3a,0x42,0x47,0x4d,0x08,0x3a,0x0a,0x40,0x6e,0x61,0x6d,0x65,0x49,0x22,0x0b,0x62,0x61,0x74,0x74,0x6c,0x65,0x06,0x3a,0x06,0x45,0x54,0x3a,0x0c,0x40,0x76,0x6f,0x6c,0x75,0x6d,0x65,0x69,0x69,0x3a,0x0b,0x40,0x70,0x69,0x74,0x63,0x68,0x69,0x69))
  ChangeSwitch(97,97,1)
  TemporaryRemoveEvent()
  0()



EVENT   27
 PAGE   1
  // condition: switch 2098 is ON
  ShowMessageFace("lizardboss_fc1",0,0,2,1)
  ShowMessage("\\n<Lizard Boss>It seems like my underlings were in your care... I'm the boss of Scale Bandits.")
  ShowMessageFace("lizardboss_fc1",0,0,2,2)
  ShowMessage("\\n<Lizard Boss>Also, I can't stay quiet and let you go after you rampage this much... I'll have you become a plaything for me and my underlings!")
  SetBattleBGM(bytes(0x04,0x08,0x6f,0x3a,0x0d,0x52,0x50,0x47,0x3a,0x3a,0x42,0x47,0x4d,0x08,0x3a,0x0a,0x40,0x6e,0x61,0x6d,0x65,0x49,0x22,0x0a,0x62,0x6f,0x73,0x73,0x31,0x06,0x3a,0x06,0x45,0x54,0x3a,0x0c,0x40,0x76,0x6f,0x6c,0x75,0x6d,0x65,0x69,0x69,0x3a,0x0b,0x40,0x70,0x69,0x74,0x63,0x68,0x69,0x69))
  283("DirtCave","Mine")
  ChangeSwitch(97,97,0)
  ChangeSwitch(22,22,0)
  ChangeVariable(1002,1002,0,0,2)
  Battle(0,291,false,false)
  ChangeSwitch(22,22,1)
  ChangeSwitch(97,97,1)
  SetBattleBGM(bytes(0x04,0x08,0x6f,0x3a,0x0d,0x52,0x50,0x47,0x3a,0x3a,0x42,0x47,0x4d,0x08,0x3a,0x0a,0x40,0x6e,0x61,0x6d,0x65,0x49,0x22,0x0b,0x62,0x61,0x74,0x74,0x6c,0x65,0x06,0x3a,0x06,0x45,0x54,0x3a,0x0c,0x40,0x76,0x6f,0x6c,0x75,0x6d,0x65,0x69,0x69,0x3a,0x0b,0x40,0x70,0x69,0x74,0x63,0x68,0x69,0x69))
  TemporaryRemoveEvent()
  0()



EVENT   23
 PAGE   1
  // condition: variable 1030 >= 2
  ShowMessageFace("saki_fc1",3,0,2,1)
  ShowMessage("\\n<Saki>Well then, Saki will beat you up♪ everyone, give me your support☆.")
  ShowMessageFace("",0,0,2,2)
  ShowMessage("\\n<Fan A>UOOoOoOo!!")
  ShowMessageFace("",0,0,2,3)
  ShowMessage("\\n<Fan B>Saki-chaaan!")
  283("劇場","")
  SetBattleBGM(bytes(0x04,0x08,0x6f,0x3a,0x0d,0x52,0x50,0x47,0x3a,0x3a,0x42,0x47,0x4d,0x08,0x3a,0x0a,0x40,0x6e,0x61,0x6d,0x65,0x49,0x22,0x09,0x73,0x61,0x6b,0x69,0x06,0x3a,0x06,0x45,0x54,0x3a,0x0c,0x40,0x76,0x6f,0x6c,0x75,0x6d,0x65,0x69,0x69,0x3a,0x0b,0x40,0x70,0x69,0x74,0x63,0x68,0x69,0x69))
  ChangeSwitch(97,97,0)
  ChangeSwitch(22,22,0)
  ChangeVariable(1002,1002,0,0,2)
  Battle(0,251,false,false)
  SetBattleBGM(bytes(0x04,0x08,0x6f,0x3a,0x0d,0x52,0x50,0x47,0x3a,0x3a,0x42,0x47,0x4d,0x08,0x3a,0x0a,0x40,0x6e,0x61,0x6d,0x65,0x49,0x22,0x0b,0x62,0x61,0x74,0x74,0x6c,0x65,0x06,0x3a,0x06,0x45,0x54,0x3a,0x0c,0x40,0x76,0x6f,0x6c,0x75,0x6d,0x65,0x69,0x69,0x3a,0x0b,0x40,0x70,0x69,0x74,0x63,0x68,0x69,0x69))
  ChangeSwitch(22,22,1)
  ChangeSwitch(97,97,1)
  TemporaryRemoveEvent()
  0()



EVENT   31
 PAGE   1
  // condition: variable 1028 >= 8
  ShowChoices(strings("Sara's immorality","Luddite Village annihilation","Never mind"),3)
  IfPlayerPicksChoice(0,null)
   216(1)
   250(bytes(0x04,0x08,0x6f,0x3a,0x0c,0x52,0x50,0x47,0x3a,0x3a,0x53,0x45,0x08,0x3a,0x0a,0x40,0x6e,0x61,0x6d,0x65,0x49,0x22,0x0b,0x4d,0x61,0x67,0x69,0x63,0x32,0x06,0x3a,0x06,0x45,0x54,0x3a,0x0b,0x40,0x70,0x69,0x74,0x63,0x68,0x69,0x69,0x3a,0x0c,0x40,0x76,0x6f,0x6c,0x75,0x6d,0x65,0x69,0x55))
   TeleportPlayer(0,633,31,24,4,1)
   0()
  IfPlayerPicksChoice(1,null)
   250(bytes(0x04,0x08,0x6f,0x3a,0x0c,0x52,0x50,0x47,0x3a,0x3a,0x53,0x45,0x08,0x3a,0x0a,0x40,0x6e,0x61,0x6d,0x65,0x49,0x22,0x09,0x4d,0x6f,0x76,0x65,0x06,0x3a,0x06,0x45,0x54,0x3a,0x0b,0x40,0x70,0x69,0x74,0x63,0x68,0x69,0x69,0x3a,0x0c,0x40,0x76,0x6f,0x6c,0x75,0x6d,0x65,0x69,0x55))
   221()
   ChangeSwitch(97,97,0)
   TeleportPlayer(0,613,1,0,8,2)
   EndEventProcessing()
   0()
  IfPlayerPicksChoice(2,null)
   EndEventProcessing()
   0()
  404()
  0()



EVENT   20
 PAGE   1
  // condition: variable 1001 >= 17
  ShowMessageFace("sylph_fc1",4,0,2,1)
  ShowMessage("\\n<Sylph>I feel like I'm about to be beat up...")
  SetBattleBGM(bytes(0x04,0x08,0x6f,0x3a,0x0d,0x52,0x50,0x47,0x3a,0x3a,0x42,0x47,0x4d,0x08,0x3a,0x0a,0x40,0x6e,0x61,0x6d,0x65,0x49,0x22,0x13,0x62,0x6f,0x73,0x73,0x5f,0x79,0x6f,0x6e,0x73,0x65,0x69,0x72,0x65,0x69,0x06,0x3a,0x06,0x45,0x54,0x3a,0x0c,0x40,0x76,0x6f,0x6c,0x75,0x6d,0x65,0x69,0x69,0x3a,0x0b,0x40,0x70,0x69,0x74,0x63,0x68,0x69,0x69))
  283("GrassMaze","Forest1")
  ChangeSwitch(97,97,0)
  ChangeSwitch(22,22,0)
  ChangeVariable(1002,1002,0,0,2)
  Battle(0,212,false,false)
  ChangeSwitch(22,22,1)
  ChangeSwitch(97,97,1)
  SetBattleBGM(bytes(0x04,0x08,0x6f,0x3a,0x0d,0x52,0x50,0x47,0x3a,0x3a,0x42,0x47,0x4d,0x08,0x3a,0x0a,0x40,0x6e,0x61,0x6d,0x65,0x49,0x22,0x0b,0x62,0x61,0x74,0x74,0x6c,0x65,0x06,0x3a,0x06,0x45,0x54,0x3a,0x0c,0x40,0x76,0x6f,0x6c,0x75,0x6d,0x65,0x69,0x69,0x3a,0x0b,0x40,0x70,0x69,0x74,0x63,0x68,0x69,0x69))
  TemporaryRemoveEvent()
  0()



EVENT   28
 PAGE   1
  // condition: variable 1001 >= 18
  ShowMessageFace("gnome_fc1",0,0,2,1)
  ShowMessage("\\n<Gnome>......!?")
  SetBattleBGM(bytes(0x04,0x08,0x6f,0x3a,0x0d,0x52,0x50,0x47,0x3a,0x3a,0x42,0x47,0x4d,0x08,0x3a,0x0a,0x40,0x6e,0x61,0x6d,0x65,0x49,0x22,0x13,0x62,0x6f,0x73,0x73,0x5f,0x79,0x6f,0x6e,0x73,0x65,0x69,0x72,0x65,0x69,0x06,0x3a,0x06,0x45,0x54,0x3a,0x0c,0x40,0x76,0x6f,0x6c,0x75,0x6d,0x65,0x69,0x69,0x3a,0x0b,0x40,0x70,0x69,0x74,0x63,0x68,0x69,0x69))
  283("恵みのオアシス","")
  ChangeSwitch(97,97,0)
  ChangeSwitch(22,22,0)
  ChangeVariable(1002,1002,0,0,2)
  Battle(0,299,false,false)
  ChangeSwitch(22,22,1)
  ChangeSwitch(97,97,1)
  SetBattleBGM(bytes(0x04,0x08,0x6f,0x3a,0x0d,0x52,0x50,0x47,0x3a,0x3a,0x42,0x47,0x4d,0x08,0x3a,0x0a,0x40,0x6e,0x61,0x6d,0x65,0x49,0x22,0x0b,0x62,0x61,0x74,0x74,0x6c,0x65,0x06,0x3a,0x06,0x45,0x54,0x3a,0x0c,0x40,0x76,0x6f,0x6c,0x75,0x6d,0x65,0x69,0x69,0x3a,0x0b,0x40,0x70,0x69,0x74,0x63,0x68,0x69,0x69))
  TemporaryRemoveEvent()
  0()



EVENT   2
 PAGE   1
  PictureDisplay(5,"80_sinigami_st01",0,0,0,0,100,100,0,0)
  PictureMove(5,null,0,0,0,0,100,100,255,0,60,true)
  If(0,2040,1)
   ChangeSwitch(2040,2040,0)
   ShowMessageFace("sinigami_fc1",0,0,2,1)
   ShowMessage("\\n<Reaper>Hold on, you're here in the flesh??")
   ShowMessageFace("sinigami_fc1",0,0,2,2)
   ShowMessage("\\n<Reaper>Hmm, I see. It was the white rabbit's doing. Her mischief knows no bounds...")
   ShowMessageFace("sinigami_fc1",0,0,2,3)
   ShowMessage("\\n<Reaper>No matter, come as you please. Do note that you're the only one from your world who can perceive this place though.")
   ShowMessageFace("sinigami_fc1",0,0,2,4)
   ShowMessage("\\n<Reaper>Even your party members do not exist here and are merely constructs of your mind. Well, I suppose that's inconsequential.")
   PictureMove(5,null,0,0,0,0,100,100,0,0,30,true)
   PictureClear(5)
   EndEventProcessing()
   0()
  Else()
   0()
  EndIf()
  If(1,1032,0,7,1)
   ShowMessageFace("sinigami_fc1",0,0,2,5)
   ShowMessage("\\n<Reaper>You summoned Adramelech here? How annoying...")
   ShowMessageFace("sinigami_fc1",0,0,2,6)
   ShowMessage("\\n<Reaper>You can enter the Labyrinth of Chaos from that bookshelf over there if you wish to test your skill.")
   0()
  Else()
   ShowMessageFace("sinigami_fc1",0,0,2,7)
   ShowMessage("\\n<Reaper>The debris of spacetime collects here, and it appears that fragments of important events involving you have washed up.")
   ShowMessageFace("sinigami_fc1",0,0,2,8)
   ShowMessage("\\n<Reaper>Make no mistake, the ones here are not impostors. Rather, they are bits and pieces that have broken off from spacetime.")
   0()
  EndIf()
  ShowMessageFace("sinigami_fc1",0,0,2,9)
  ShowMessage("\\n<Reaper>Now, what would you ask of me?")
  355("ex_choice_add(\"Change difficulty\",1)")
  655("ex_choice_add(\"Challenge to a fight\",2)")
  655("ex_choice_add(\"New Game+\",3,")
  655("\"v[1001]>18\",0)")
  655("ex_choice_add(\"Remove male characters from companions\",4)")
  655("ex_choice_add(\"Never mind\",5)")
  355("ex_choice_show(0,11,[0,0])")
  If(1,9,0,1,0)
   ShowMessageFace("sinigami_fc1",0,0,2,10)
   ShowMessage("\\n<Reaper>You wish to alter the fundamentals of the world? How would you like things to be?")
   ShowMessageFace("",0,0,2,11)
   ShowMessage("Please select a new difficulty level.")
   RunCommonEvent(110)
   ShowMessageFace("sinigami_fc1",0,0,2,12)
   ShowMessage("\\n<Reaper>Off with you now...")
   PictureMove(5,null,0,0,0,0,100,100,0,0,30,true)
   PictureClear(5)
   EndEventProcessing()
   0()
  EndIf()
  If(1,9,0,2,0)
   If(0,2105,0)
    ShowMessageFace("sinigami_fc1",0,0,2,13)
    ShowMessage("\\n<Reaper>You wish to test your abilities again? What a waste of time.")
    SetBattleBGM(bytes(0x04,0x08,0x6f,0x3a,0x0d,0x52,0x50,0x47,0x3a,0x3a,0x42,0x47,0x4d,0x08,0x3a,0x0a,0x40,0x6e,0x61,0x6d,0x65,0x49,0x22,0x10,0x62,0x6f,0x73,0x73,0x5f,0x63,0x68,0x61,0x6f,0x73,0x31,0x06,0x3a,0x06,0x45,0x54,0x3a,0x0c,0x40,0x76,0x6f,0x6c,0x75,0x6d,0x65,0x69,0x69,0x3a,0x0b,0x40,0x70,0x69,0x74,0x63,0x68,0x69,0x69))
    283("DirtCave","DarkSpace")
    ChangeSwitch(22,22,0)
    ChangeVariable(1002,1002,0,0,2)
    ChangeSwitch(97,97,0)
    RunCommonEvent(10)
    Battle(0,73,false,false)
    RunCommonEvent(11)
    ChangeSwitch(97,97,1)
    ChangeSwitch(22,22,1)
    SetBattleBGM(bytes(0x04,0x08,0x6f,0x3a,0x0d,0x52,0x50,0x47,0x3a,0x3a,0x42,0x47,0x4d,0x08,0x3a,0x0a,0x40,0x6e,0x61,0x6d,0x65,0x49,0x22,0x0b,0x62,0x61,0x74,0x74,0x6c,0x65,0x06,0x3a,0x06,0x45,0x54,0x3a,0x0c,0x40,0x76,0x6f,0x6c,0x75,0x6d,0x65,0x69,0x69,0x3a,0x0b,0x40,0x70,0x69,0x74,0x63,0x68,0x69,0x69))
    ShowMessageFace("sinigami_fc1",0,0,2,14)
    ShowMessage("\\n<Reaper>I'll admit you're powerful, but you should put that power to better use.")
    ShowMessageFace("sinigami_fc1",0,0,2,15)
    ShowMessage("\\n<Reaper>Fighting me here gains you absolutely nothing. If all you wanted was to test yourself, then you should be satisfied now.")
    ShowMessageFace("",0,0,2,16)
    ShowMessage("So I defeated the Reaper for nothing... That's kind of a let-down.")
    PictureMove(5,null,0,0,0,0,100,100,0,0,30,true)
    PictureClear(5)
    EndEventProcessing()
    0()
   EndIf()
   ShowMessageFace("sinigami_fc1",0,0,2,17)
   ShowMessage("\\n<Reaper>You wish to challenge me? Have you lost your sanity?")
   ShowMessageFace("sinigami_fc1",0,0,2,18)
   ShowMessage("\\n<Reaper>Take my advice and forget about it.")
   ShowChoices(strings("Challenge her anyway","Never mind then"),2)
   IfPlayerPicksChoice(0,null)
    If(0,2103,1)
     ShowMessageFace("sinigami_fc1",0,0,2,19)
     ShowMessage("\\n<Reaper>So you were serious about this foolishness... I have no intentions of fighting you myself, however.")
     ShowMessageFace("sinigami_fc1",0,0,2,20)
     ShowMessage("\\n<Reaper>Someone strong from the present world should suffice. Copy from F10229X135Y089 and... paste!")
     PictureClear(5)
     SetBattleBGM(bytes(0x04,0x08,0x6f,0x3a,0x0d,0x52,0x50,0x47,0x3a,0x3a,0x42,0x47,0x4d,0x08,0x3a,0x0a,0x40,0x6e,0x61,0x6d,0x65,0x49,0x22,0x0f,0x62,0x6f,0x73,0x73,0x5f,0x6d,0x61,0x6f,0x75,0x31,0x06,0x3a,0x06,0x45,0x54,0x3a,0x0c,0x40,0x76,0x6f,0x6c,0x75,0x6d,0x65,0x69,0x69,0x3a,0x0b,0x40,0x70,0x69,0x74,0x63,0x68,0x69,0x69))
     283("GrassMaze","Forest2")
     ChangeSwitch(22,22,0)
     ChangeVariable(1002,1002,0,0,2)
     Battle(0,72,false,false)
     ChangeSwitch(22,22,1)
     SetBattleBGM(bytes(0x04,0x08,0x6f,0x3a,0x0d,0x52,0x50,0x47,0x3a,0x3a,0x42,0x47,0x4d,0x08,0x3a,0x0a,0x40,0x6e,0x61,0x6d,0x65,0x49,0x22,0x0b,0x62,0x61,0x74,0x74,0x6c,0x65,0x06,0x3a,0x06,0x45,0x54,0x3a,0x0c,0x40,0x76,0x6f,0x6c,0x75,0x6d,0x65,0x69,0x69,0x3a,0x0b,0x40,0x70,0x69,0x74,0x63,0x68,0x69,0x69))
     ChangeSwitch(2103,2103,0)
     355("gain_medal(3004)")
     ShowMessageFace("sinigami_fc1",0,0,2,21)
     ShowMessage("\\n<Reaper>Ooh, not bad at all. I suppose I must oblige now.")
     0()
    Else()
     ShowMessageFace("sinigami_fc1",0,0,2,22)
     ShowMessage("\\n<Reaper>So you were serious about this foolishness... I suppose I'll have to fight you then.")
     0()
    EndIf()
    SetBattleBGM(bytes(0x04,0x08,0x6f,0x3a,0x0d,0x52,0x50,0x47,0x3a,0x3a,0x42,0x47,0x4d,0x08,0x3a,0x0a,0x40,0x6e,0x61,0x6d,0x65,0x49,0x22,0x10,0x62,0x6f,0x73,0x73,0x5f,0x63,0x68,0x61,0x6f,0x73,0x31,0x06,0x3a,0x06,0x45,0x54,0x3a,0x0c,0x40,0x76,0x6f,0x6c,0x75,0x6d,0x65,0x69,0x69,0x3a,0x0b,0x40,0x70,0x69,0x74,0x63,0x68,0x69,0x69))
    283("DirtCave","DarkSpace")
    ChangeSwitch(22,22,0)
    ChangeVariable(1002,1002,0,0,2)
    RunCommonEvent(10)
    Battle(0,73,false,false)
    RunCommonEvent(11)
    ChangeSwitch(22,22,1)
    SetBattleBGM(bytes(0x04,0x08,0x6f,0x3a,0x0d,0x52,0x50,0x47,0x3a,0x3a,0x42,0x47,0x4d,0x08,0x3a,0x0a,0x40,0x6e,0x61,0x6d,0x65,0x49,0x22,0x0b,0x62,0x61,0x74,0x74,0x6c,0x65,0x06,0x3a,0x06,0x45,0x54,0x3a,0x0c,0x40,0x76,0x6f,0x6c,0x75,0x6d,0x65,0x69,0x69,0x3a,0x0b,0x40,0x70,0x69,0x74,0x63,0x68,0x69,0x69))
    ChangeSwitch(2105,2105,0)
    355("gain_medal(3005)")
    PictureMove(5,null,0,0,0,0,100,100,0,0,30,true)
    PictureClear(5)
    ShowMessageFace("sinigami_fc1",0,0,2,23)
    ShowMessage("\\n<Reaper>I'll admit you're powerful, but you should put that power to better use.")
    ShowMessageFace("sinigami_fc1",0,0,2,24)
    ShowMessage("\\n<Reaper>Fighting me here gains you absolutely nothing. If all you wanted was to test yourself, then you should be satisfied now.")
    ShowMessageFace("",0,0,2,25)
    ShowMessage("So I defeated the Reaper for nothing... That's kind of a let-down.")
    PictureMove(5,null,0,0,0,0,100,100,0,0,30,true)
    PictureClear(5)
    EndEventProcessing()
    0()
   IfPlayerPicksChoice(1,null)
    ShowMessageFace("sinigami_fc1",0,0,2,26)
    ShowMessage("\\n<Reaper>Even as a joke, that was going too far...")
    PictureMove(5,null,0,0,0,0,100,100,0,0,30,true)
    PictureClear(5)
    EndEventProcessing()
    0()
   404()
   0()
  EndIf()
  If(1,9,0,3,0)
   ShowMessageFace("sinigami_fc1",0,0,2,27)
   ShowMessage("\\n<Reaper>You wish to begin life anew? You will keep your current powers and start at the beginning of the adventure.")
   ShowMessageFace("sinigami_fc1",0,0,2,28)
   ShowMessage("\\n<Reaper>Your companions will retain their powers and rejoin you in the next world.")
   If(0,4,0)
    ShowMessageFace("sinigami_fc1",0,0,2,29)
    ShowMessage("\\n<Reaper>However, you should remove anything valuable from Alice. She will not necessarily become your companion in the next life.")
    0()
   EndIf()
   If(0,5,0)
    ShowMessageFace("sinigami_fc1",0,0,2,30)
    ShowMessage("\\n<Reaper>However, you should remove anything valuable from Ilias. She will not necessarily become your companion in the next life.")
    0()
   EndIf()
   ShowMessageFace("sinigami_fc1",0,0,2,31)
   ShowMessage("\\n<Reaper>Are you prepared to begin anew?")
   ShowChoices(strings("No","Yes"),0)
   IfPlayerPicksChoice(0,null)
    ShowMessageFace("sinigami_fc1",0,0,2,32)
    ShowMessage("\\n<Reaper>Oh? Off with you then.")
    PictureMove(5,null,0,0,0,0,100,100,0,0,30,true)
    PictureClear(5)
    EndEventProcessing()
    0()
   IfPlayerPicksChoice(1,null)
    0()
   404()
   ShowMessageFace("sinigami_fc1",0,0,2,33)
   ShowMessage("\\n<Reaper>This is your last chance. Are you sure you wish to begin anew?")
   ShowChoices(strings("No","Yes"),0)
   IfPlayerPicksChoice(0,null)
    ShowMessageFace("sinigami_fc1",0,0,2,34)
    ShowMessage("\\n<Reaper>Oh? Off with you then.")
    PictureMove(5,null,0,0,0,0,100,100,0,0,30,true)
    PictureClear(5)
    EndEventProcessing()
    0()
   IfPlayerPicksChoice(1,null)
    0()
   404()
   ShowMessageFace("sinigami_fc1",0,0,2,35)
   ShowMessage("\\n<Reaper>See you space shota...")
   221()
   PictureClear(5)
   242(2)
   Wait(60)
   314(0,0)
   ChangeVariable(901,901,1,0,1)
   ChangeSwitch(4,89,1)
   ChangeSwitch(101,200,1)
   ChangeSwitch(601,701,1)
   ChangeSwitch(1005,1005,1)
   ChangePartyMember(5,1,0)
   ChangeSwitch(1026,1026,1)
   ChangePartyMember(26,1,0)
   ChangeSwitch(1053,1053,1)
   ChangePartyMember(53,1,0)
   ChangeSwitch(1525,1525,1)
   ChangePartyMember(525,1,0)
   ChangeSwitch(2001,3000,1)
   ChangeSwitch(4001,5000,1)
   ChangeVariable(6,40,0,0,0)
   ChangeVariable(801,900,0,0,0)
   ChangeVariable(907,907,0,0,0)
   ChangeVariable(1003,1007,0,0,0)
   ChangeVariable(1009,2000,0,0,0)
   ChangeInventory_Item(501,1,0,1)
   ChangeInventory_Item(502,1,0,1)
   ChangeInventory_Item(503,1,0,1)
   ChangeInventory_Item(504,1,0,1)
   ChangeInventory_Item(505,1,0,1)
   ChangeInventory_Item(506,1,0,1)
   ChangeInventory_Item(508,1,0,1)
   ChangeInventory_Item(510,1,0,1)
   ChangeInventory_Item(513,1,0,1)
   ChangeInventory_Item(514,1,0,1)
   ChangeInventory_Item(515,1,0,1)
   ChangeInventory_Item(516,1,0,1)
   ChangeInventory_Item(518,1,0,1)
   ChangeInventory_Item(519,1,0,1)
   ChangeInventory_Item(520,1,0,1)
   ChangeInventory_Item(522,1,0,1)
   ChangeInventory_Item(523,1,0,1)
   355("$game_self_switches = Game_SelfSwitches.new")
   655("$game_map.need_refresh = true")
   211(0)
   355("move_stand_actors_except_luca")
   TeleportPlayer(0,545,0,1,0,2)
   222()
   EndEventProcessing()
   0()
  EndIf()
  If(1,9,0,4,0)
   ShowMessageFace("sinigami_fc1",0,0,2,36)
   ShowMessage("\\n<Reaper>You seriously want to erase the men from your companion list?")
   ShowChoices(strings("I changed my mind","Erase them"),0)
   IfPlayerPicksChoice(0,null)
    ShowMessageFace("sinigami_fc1",0,0,2,37)
    ShowMessage("\\n<Reaper>I'll leave them alone then. Off with you now...")
    PictureMove(5,null,0,0,0,0,100,100,0,0,30,true)
    PictureClear(5)
    EndEventProcessing()
    0()
   IfPlayerPicksChoice(1,null)
    314(0,0)
    ChangeSwitch(1563,1563,1)
    ChangeSwitch(1564,1564,1)
    ChangeSwitch(1565,1565,1)
    ChangeSwitch(1566,1566,1)
    ChangeSwitch(1567,1567,1)
    ChangePartyMember(563,1,0)
    ChangePartyMember(564,1,0)
    ChangePartyMember(565,1,0)
    ChangePartyMember(566,1,0)
    ChangePartyMember(567,1,0)
    ShowMessageFace("sinigami_fc1",0,0,2,38)
    ShowMessage("\\n<Reaper>They have been erased. Off with you now...")
    PictureMove(5,null,0,0,0,0,100,100,0,0,30,true)
    PictureClear(5)
    EndEventProcessing()
    0()
   404()
   0()
  EndIf()
  ShowMessageFace("sinigami_fc1",0,0,2,39)
  ShowMessage("\\n<Reaper>If you have no business with me, be gone.")
  PictureMove(5,null,0,0,0,0,100,100,0,0,30,true)
  PictureClear(5)
  EndEventProcessing()
  0()



EVENT   33
 PAGE   1
  // condition: variable 1001 >= 19
  ChangeSwitch(2146,2146,0)
  ShowMessageFace("sinigami_fc1",0,0,2,1)
  ShowMessage("\\n<Reaper>The way to the Labyrinth of Chaos has opened. It seems that it's responding to your power.")
  ShowMessageFace("sinigami_fc1",0,0,2,2)
  ShowMessage("\\n<Reaper>You can enter the Labyrinth of Chaos through the bookshelf over there. If you have more power than you know what to do with, try challenging yourself in there.")
  EndEventProcessing()
  0()
 PAGE   2
  // condition: switch 2146 is ON
  0()



EVENT   32
 PAGE   1
  355("ex_choice_add(\"Combat replayer\",1)")
  655("ex_choice_add(\"To the Labyrinth of Chaos\",2,")
  655("\"v[1001]>18\",0)")
  655("ex_choice_add(\"Never mind\",3)")
  355("ex_choice_show(0,11,[0,0])")
  If(1,9,0,1,0)
   283("DirtCave","DarkSpace")
   ChangeSwitch(8,8,0)
   355("battle_memory")
   ChangeSwitch(8,8,1)
   EndEventProcessing()
   0()
  EndIf()
  If(1,9,0,2,0)
   250(bytes(0x04,0x08,0x6f,0x3a,0x0c,0x52,0x50,0x47,0x3a,0x3a,0x53,0x45,0x08,0x3a,0x0a,0x40,0x6e,0x61,0x6d,0x65,0x49,0x22,0x0b,0x4d,0x61,0x67,0x69,0x63,0x32,0x06,0x3a,0x06,0x45,0x54,0x3a,0x0b,0x40,0x70,0x69,0x74,0x63,0x68,0x69,0x69,0x3a,0x0c,0x40,0x76,0x6f,0x6c,0x75,0x6d,0x65,0x69,0x55))
   TeleportPlayer(0,644,18,16,8,1)
   EndEventProcessing()
   0()
  EndIf()
  If(1,9,0,3,0)
   EndEventProcessing()
   0()
  EndIf()
  0()
